%YAML 1.1
%TAG !u! tag:unity3d.com,2011:
--- !u!74 &7400000
AnimationClip:
  m_ObjectHideFlags: 0
  m_PrefabParentObject: {fileID: 0}
  m_PrefabInternal: {fileID: 0}
  m_Name: Head Hit
  serializedVersion: 6
  m_Legacy: 0
  m_Compressed: 0
  m_UseHighQualityCurve: 1
  m_RotationCurves:
  - curve:
      serializedVersion: 2
      m_Curve:
      - serializedVersion: 2
        time: 0
        value: {x: 0.231511, y: -0.29352903, z: -0.6433803, w: 0.6680607}
        inSlope: {x: -0.33059698, y: -0.304293, z: 0.16442119, w: 0.1330626}
        outSlope: {x: -0.33059698, y: -0.304293, z: 0.16442119, w: 0.1330626}
        tangentMode: 0
      - serializedVersion: 2
        time: 0.06666667
        value: {x: 0.20810004, y: -0.32427907, z: -0.6248367, w: 0.67905563}
        inSlope: {x: -0.5822114, y: -0.5189117, z: 0.3485521, w: 0.24797377}
        outSlope: {x: -0.5822114, y: -0.5189117, z: 0.3485521, w: 0.24797377}
        tangentMode: 0
      - serializedVersion: 2
        time: 0.13333334
        value: {x: 0.13362364, y: -0.32655403, z: -0.6202604, w: 0.7005599}
        inSlope: {x: -1.617029, y: 0.7760552, z: -0.38404855, w: 0.2977002}
        outSlope: {x: -1.617029, y: 0.7760552, z: -0.38404855, w: 0.2977002}
        tangentMode: 0
      - serializedVersion: 2
        time: 0.20000002
        value: {x: 0.021424161, y: -0.23647267, z: -0.66106516, w: 0.7117686}
        inSlope: {x: -1.3597035, y: 1.3613049, z: -0.5404382, w: 0.01599131}
        outSlope: {x: -1.3597035, y: 1.3613049, z: -0.5404382, w: 0.01599131}
        tangentMode: 0
      - serializedVersion: 2
        time: 0.3
        value: {x: -0.06999661, y: -0.14429155, z: -0.69922763, w: 0.69667864}
        inSlope: {x: -0.59369856, y: 0.61945575, z: -0.26592138, w: -0.19173504}
        outSlope: {x: -0.59369856, y: 0.61945575, z: -0.26592138, w: -0.19173504}
        tangentMode: 0
      - serializedVersion: 2
        time: 0.43333337
        value: {x: -0.07014281, y: -0.117587045, z: -0.7027773, w: 0.6981098}
        inSlope: {x: 0.48040295, y: -0.1943807, z: 0.081511445, w: 0.09552241}
        outSlope: {x: 0.48040295, y: -0.1943807, z: 0.081511445, w: 0.09552241}
        tangentMode: 0
      - serializedVersion: 2
        time: 0.6666667
        value: {x: 0.084696054, y: -0.169727, z: -0.6809552, w: 0.7073326}
        inSlope: {x: 0.49471658, y: -0.16384655, z: 0.101105876, w: 0.00043898507}
        outSlope: {x: 0.49471658, y: -0.16384655, z: 0.101105876, w: 0.00043898507}
        tangentMode: 0
      - serializedVersion: 2
        time: 0.86666673
        value: {x: 0.14203325, y: -0.21096486, z: -0.6654175, w: 0.7018119}
        inSlope: {x: 0.32047528, y: -0.3767411, z: 0.08419097, w: -0.0988117}
        outSlope: {x: 0.32047528, y: -0.3767411, z: 0.08419097, w: -0.0988117}
        tangentMode: 0
      - serializedVersion: 2
        time: 1.1666667
        value: {x: 0.23151112, y: -0.29352897, z: -0.64338034, w: 0.6680607}
        inSlope: {x: 0.19650061, y: -0.10676633, z: 0.022514485, w: -0.09185144}
        outSlope: {x: 0.19650061, y: -0.10676633, z: 0.022514485, w: -0.09185144}
        tangentMode: 0
      m_PreInfinity: 2
      m_PostInfinity: 2
      m_RotationOrder: 4
    path: CATRigHub002
  - curve:
      serializedVersion: 2
      m_Curve:
      - serializedVersion: 2
        time: 0
        value: {x: -0.27929193, y: 0.94734, z: 0.108277865, w: 0.113220066}
        inSlope: {x: 0.6985312, y: 0.25927305, z: -0.16793935, w: -0.39443088}
        outSlope: {x: 0.6985312, y: 0.25927305, z: -0.16793935, w: -0.39443088}
        tangentMode: 0
      - serializedVersion: 2
        time: 0.06666667
        value: {x: -0.21592315, y: 0.96784586, z: 0.10019716, w: 0.08131512}
        inSlope: {x: 1.5269973, y: 0.3741967, z: -0.02511475, w: -0.57686263}
        outSlope: {x: 1.5269973, y: 0.3741967, z: -0.02511475, w: -0.57686263}
        tangentMode: 0
      - serializedVersion: 2
        time: 0.13333334
        value: {x: -0.082359046, y: 0.99000746, z: 0.106687695, w: 0.041472804}
        inSlope: {x: 1.9529741, y: 0.17712595, z: 0.22515067, w: -0.61077964}
        outSlope: {x: 1.9529741, y: 0.17712595, z: 0.22515067, w: -0.61077964}
        tangentMode: 0
      - serializedVersion: 2
        time: 0.20000002
        value: {x: 0.007427718, y: 0.99234396, z: 0.12322463, w: 0.0037395468}
        inSlope: {x: 0.58988595, y: -0.013816951, z: 0.15393774, w: -0.47772425}
        outSlope: {x: 0.58988595, y: -0.013816951, z: 0.15393774, w: -0.47772425}
        tangentMode: 0
      - serializedVersion: 2
        time: 0.33333334
        value: {x: -0.024106229, y: 0.9903263, z: 0.13445826, w: -0.024366878}
        inSlope: {x: -0.4880994, y: -0.029153828, z: 0.17249712, w: 0.27172983}
        outSlope: {x: -0.4880994, y: -0.029153828, z: 0.17249712, w: 0.27172983}
        tangentMode: 0
      - serializedVersion: 2
        time: 0.4666667
        value: {x: -0.08429059, y: 0.9843542, z: 0.15027153, w: 0.036884468}
        inSlope: {x: -0.54866135, y: -0.06425951, z: -0.012455298, w: 0.49245518}
        outSlope: {x: -0.54866135, y: -0.06425951, z: -0.012455298, w: 0.49245518}
        tangentMode: 0
      - serializedVersion: 2
        time: 0.6666667
        value: {x: -0.18784423, y: 0.96282417, z: 0.14542753, w: 0.12858865}
        inSlope: {x: -0.2976193, y: -0.0778556, z: -0.0146681145, w: 0.17180683}
        outSlope: {x: -0.2976193, y: -0.0778556, z: -0.0146681145, w: 0.17180683}
        tangentMode: 0
      - serializedVersion: 2
        time: 0.86666673
        value: {x: -0.20842783, y: 0.96099854, z: 0.13303787, w: 0.12385729}
        inSlope: {x: -0.06800072, y: 0.024383064, z: -0.14822088, w: -0.14345202}
        outSlope: {x: -0.06800072, y: 0.024383064, z: -0.14822088, w: -0.14345202}
        tangentMode: 0
      - serializedVersion: 2
        time: 1.1666667
        value: {x: -0.27929255, y: 0.94733983, z: 0.10827779, w: 0.113220446}
        inSlope: {x: -0.26555055, y: -0.07450111, z: -0.04584302, w: 0.023728184}
        outSlope: {x: -0.26555055, y: -0.07450111, z: -0.04584302, w: 0.023728184}
        tangentMode: 0
      m_PreInfinity: 2
      m_PostInfinity: 2
      m_RotationOrder: 4
    path: CATRigHub002/CATRigLLeg1
  - curve:
      serializedVersion: 2
      m_Curve:
      - serializedVersion: 2
        time: 0
        value: {x: 0.0651718, y: -0.0294745, z: 0.5633325, w: 0.8231284}
        inSlope: {x: -0.16344441, y: -0.29722014, z: -0.36369857, w: 0.2449858}
        outSlope: {x: -0.16344441, y: -0.29722014, z: -0.36369857, w: 0.2449858}
        tangentMode: 0
      - serializedVersion: 2
        time: 0.06666667
        value: {x: 0.060448997, y: -0.048569668, z: 0.53129685, w: 0.8436295}
        inSlope: {x: -0.21887353, y: -0.24068868, z: -0.82348275, w: 0.508545}
        outSlope: {x: -0.21887353, y: -0.24068868, z: -0.82348275, w: 0.508545}
        tangentMode: 0
      - serializedVersion: 2
        time: 0.10000001
        value: {x: 0.045132082, y: -0.055427752, z: 0.49631035, w: 0.8651976}
        inSlope: {x: -0.8990307, y: -0.087103434, z: -1.3414026, w: 0.77699924}
        outSlope: {x: -0.8990307, y: -0.087103434, z: -1.3414026, w: 0.77699924}
        tangentMode: 0
      - serializedVersion: 2
        time: 0.13333334
        value: {x: 0.00051361835, y: -0.054376565, z: 0.44187, w: 0.89542943}
        inSlope: {x: -1.4985629, y: 0.2142847, z: -1.7799135, w: 0.87320393}
        outSlope: {x: -1.4985629, y: 0.2142847, z: -1.7799135, w: 0.87320393}
        tangentMode: 0
      - serializedVersion: 2
        time: 0.20000002
        value: {x: -0.08663145, y: -0.023283428, z: 0.32466137, w: 0.9415667}
        inSlope: {x: -0.47696185, y: 0.44914943, z: -1.2340385, w: 0.41958678}
        outSlope: {x: -0.47696185, y: 0.44914943, z: -1.2340385, w: 0.41958678}
        tangentMode: 0
      - serializedVersion: 2
        time: 0.26666668
        value: {x: -0.082422175, y: -0.004162578, z: 0.28739804, w: 0.95424926}
        inSlope: {x: 0.08342498, y: 0.23425995, z: -0.016477704, w: 0.013282301}
        outSlope: {x: 0.08342498, y: 0.23425995, z: -0.016477704, w: 0.013282301}
        tangentMode: 0
      - serializedVersion: 2
        time: 0.40000004
        value: {x: -0.09204644, y: 0.013598175, z: 0.36024395, w: 0.92820626}
        inSlope: {x: -0.025004877, y: -0.12733981, z: 0.65489864, w: -0.25436452}
        outSlope: {x: -0.025004877, y: -0.12733981, z: 0.65489864, w: -0.25436452}
        tangentMode: 0
      - serializedVersion: 2
        time: 0.5666667
        value: {x: -0.09029876, y: -0.017687451, z: 0.45563626, w: 0.8853976}
        inSlope: {x: 0.040109545, y: -0.19529396, z: 0.45082432, w: -0.2308783}
        outSlope: {x: 0.040109545, y: -0.19529396, z: 0.45082432, w: -0.2308783}
        tangentMode: 0
      - serializedVersion: 2
        time: 0.73333335
        value: {x: -0.06433314, y: -0.051216137, z: 0.49656108, w: 0.86409795}
        inSlope: {x: 0.2896328, y: -0.02623253, z: 0.19442129, w: -0.0914231}
        outSlope: {x: 0.2896328, y: -0.02623253, z: 0.19442129, w: -0.0914231}
        tangentMode: 0
      - serializedVersion: 2
        time: 0.9333334
        value: {x: -0.009297106, y: -0.048559546, z: 0.51686347, w: 0.85463893}
        inSlope: {x: 0.40131646, y: 0.053104617, z: 0.07308575, w: -0.037033275}
        outSlope: {x: 0.40131646, y: 0.053104617, z: 0.07308575, w: -0.037033275}
        tangentMode: 0
      - serializedVersion: 2
        time: 1.1666667
        value: {x: 0.065172024, y: -0.029474309, z: 0.5633331, w: 0.823128}
        inSlope: {x: 0.18397379, y: 0.096682385, z: 0.19907553, w: -0.14524354}
        outSlope: {x: 0.18397379, y: 0.096682385, z: 0.19907553, w: -0.14524354}
        tangentMode: 0
      m_PreInfinity: 2
      m_PostInfinity: 2
      m_RotationOrder: 4
    path: CATRigHub002/CATRigLLeg1/CATRigLLeg2
  - curve:
      serializedVersion: 2
      m_Curve:
      - serializedVersion: 2
        time: 0
        value: {x: 0.07507931, y: 0.1305273, z: -0.49190927, w: 0.85752606}
        inSlope: {x: -0.11172897, y: 0.30511108, z: 0.08183508, w: 0.008102059}
        outSlope: {x: -0.11172897, y: 0.30511108, z: 0.08183508, w: 0.008102059}
        tangentMode: 0
      - serializedVersion: 2
        time: 0.10000001
        value: {x: 0.07247582, y: 0.15756582, z: -0.48061076, w: 0.85961246}
        inSlope: {x: 0.027962137, y: 0.305802, z: 0.2709666, w: 0.09156793}
        outSlope: {x: 0.027962137, y: 0.305802, z: 0.2709666, w: 0.09156793}
        tangentMode: 0
      - serializedVersion: 2
        time: 0.16666667
        value: {x: 0.05605224, y: 0.1707862, z: -0.44863012, w: 0.8754549}
        inSlope: {x: -0.85034347, y: -0.120826304, z: 0.54055405, w: 0.3427934}
        outSlope: {x: -0.85034347, y: -0.120826304, z: 0.54055405, w: 0.3427934}
        tangentMode: 0
      - serializedVersion: 2
        time: 0.23333335
        value: {x: -0.041489474, y: 0.14410563, z: -0.42431897, w: 0.8930093}
        inSlope: {x: -1.5415347, y: -0.42419386, z: 0.12023047, w: 0.06517769}
        outSlope: {x: -1.5415347, y: -0.42419386, z: 0.12023047, w: 0.06517769}
        tangentMode: 0
      - serializedVersion: 2
        time: 0.33333334
        value: {x: -0.13046235, y: 0.123081766, z: -0.4381987, w: 0.8808021}
        inSlope: {x: -0.14192496, y: 0.053156134, z: -0.24421069, w: -0.14875712}
        outSlope: {x: -0.14192496, y: 0.053156134, z: -0.24421069, w: -0.14875712}
        tangentMode: 0
      - serializedVersion: 2
        time: 0.5
        value: {x: -0.05382442, y: 0.15905774, z: -0.44863218, w: 0.8777999}
        inSlope: {x: 0.7421491, y: 0.18689568, z: 0.015117383, w: 0.018427677}
        outSlope: {x: 0.7421491, y: 0.18689568, z: 0.015117383, w: 0.018427677}
        tangentMode: 0
      - serializedVersion: 2
        time: 0.70000005
        value: {x: 0.06545973, y: 0.18007526, z: -0.44494402, w: 0.8748216}
        inSlope: {x: 0.14010373, y: -0.03212284, z: -0.10992725, w: -0.05957277}
        outSlope: {x: 0.14010373, y: -0.03212284, z: -0.10992725, w: -0.05957277}
        tangentMode: 0
      - serializedVersion: 2
        time: 0.90000004
        value: {x: 0.07066608, y: 0.16261803, z: -0.47337005, w: 0.862834}
        inSlope: {x: 0.015782904, y: -0.09719813, z: -0.07709609, w: -0.025200255}
        outSlope: {x: 0.015782904, y: -0.09719813, z: -0.07709609, w: -0.025200255}
        tangentMode: 0
      - serializedVersion: 2
        time: 1.1666667
        value: {x: 0.07507949, y: 0.1305272, z: -0.49190953, w: 0.85752594}
        inSlope: {x: 0.017065125, y: -0.113149986, z: -0.07033027, w: -0.024252556}
        outSlope: {x: 0.017065125, y: -0.113149986, z: -0.07033027, w: -0.024252556}
        tangentMode: 0
      m_PreInfinity: 2
      m_PostInfinity: 2
      m_RotationOrder: 4
    path: CATRigHub002/CATRigLLeg1/CATRigLLeg2/CATRigLLegAnkle
  - curve:
      serializedVersion: 2
      m_Curve:
      - serializedVersion: 2
        time: 0
        value: {x: -0.20606644, y: 0.9449442, z: -0.13647549, w: -0.21445642}
        inSlope: {x: 0.37630138, y: -0.05025744, z: -0.2645047, w: -0.38645086}
        outSlope: {x: 0.37630138, y: -0.05025744, z: -0.2645047, w: -0.38645086}
        tangentMode: 0
      - serializedVersion: 2
        time: 0.033333335
        value: {x: -0.19352306, y: 0.94326895, z: -0.14529231, w: -0.22733812}
        inSlope: {x: 0.68470937, y: -0.031854805, z: -0.3035304, w: -0.4817055}
        outSlope: {x: 0.68470937, y: -0.031854805, z: -0.3035304, w: -0.4817055}
        tangentMode: 0
      - serializedVersion: 2
        time: 0.13333334
        value: {x: -0.10333021, y: 0.9374227, z: -0.15569645, w: -0.2938031}
        inSlope: {x: -0.06653947, y: -0.14315398, z: 0.28342995, w: -0.5846921}
        outSlope: {x: -0.06653947, y: -0.14315398, z: 0.28342995, w: -0.5846921}
        tangentMode: 0
      - serializedVersion: 2
        time: 0.20000002
        value: {x: -0.16865931, y: 0.92609566, z: -0.13736631, w: -0.30827162}
        inSlope: {x: -1.294657, y: -0.16425398, z: 0.14279318, w: 0.15067981}
        outSlope: {x: -1.294657, y: -0.16425398, z: 0.14279318, w: 0.15067981}
        tangentMode: 0
      - serializedVersion: 2
        time: 0.3
        value: {x: -0.2842061, y: 0.90945846, z: -0.113650054, w: -0.28141764}
        inSlope: {x: -0.9552814, y: -0.15937151, z: 0.3428353, w: 0.30082318}
        outSlope: {x: -0.9552814, y: -0.15937151, z: 0.3428353, w: 0.30082318}
        tangentMode: 0
      - serializedVersion: 2
        time: 0.43333337
        value: {x: -0.33593297, y: 0.905393, z: -0.09589458, w: -0.24128155}
        inSlope: {x: 0.019747319, y: 0.06320358, z: -0.04413944, w: 0.2272124}
        outSlope: {x: 0.019747319, y: 0.06320358, z: -0.04413944, w: 0.2272124}
        tangentMode: 0
      - serializedVersion: 2
        time: 0.70000005
        value: {x: -0.28651142, y: 0.9332475, z: -0.118318096, w: -0.18155213}
        inSlope: {x: 0.25278702, y: 0.09141325, z: 0.01808244, w: 0.05772602}
        outSlope: {x: 0.25278702, y: 0.09141325, z: 0.01808244, w: 0.05772602}
        tangentMode: 0
      - serializedVersion: 2
        time: 0.90000004
        value: {x: -0.2344274, y: 0.9411036, z: -0.13049401, w: -0.20576487}
        inSlope: {x: 0.31665808, y: 0.041081607, z: -0.07020773, w: -0.13011064}
        outSlope: {x: 0.31665808, y: 0.041081607, z: -0.07020773, w: -0.13011064}
        tangentMode: 0
      - serializedVersion: 2
        time: 1.1666667
        value: {x: -0.20606647, y: 0.94494414, z: -0.13647562, w: -0.2144564}
        inSlope: {x: -0.029336689, y: -0.0016897933, z: -0.0009655962, w: 0.02125921}
        outSlope: {x: -0.029336689, y: -0.0016897933, z: -0.0009655962, w: 0.02125921}
        tangentMode: 0
      m_PreInfinity: 2
      m_PostInfinity: 2
      m_RotationOrder: 4
    path: CATRigHub002/CATRigRLeg1
  - curve:
      serializedVersion: 2
      m_Curve:
      - serializedVersion: 2
        time: 0
        value: {x: 0.049059283, y: 0.11038436, z: 0.5579042, w: 0.8210673}
        inSlope: {x: -0.30102733, y: -0.07524311, z: -0.06915629, w: 0.07293283}
        outSlope: {x: -0.30102733, y: -0.07524311, z: -0.06915629, w: 0.07293283}
        tangentMode: 0
      - serializedVersion: 2
        time: 0.10000001
        value: {x: 0.01204457, y: 0.10545236, z: 0.5198119, w: 0.8476616}
        inSlope: {x: -0.63274014, y: -0.10620676, z: -0.92956066, w: 0.5801618}
        outSlope: {x: -0.63274014, y: -0.10620676, z: -0.92956066, w: 0.5801618}
        tangentMode: 0
      - serializedVersion: 2
        time: 0.20000002
        value: {x: -0.071070135, y: 0.08438374, z: 0.4176962, w: 0.9018638}
        inSlope: {x: -0.61120063, y: -0.17414518, z: -0.6406379, w: 0.27498806}
        outSlope: {x: -0.61120063, y: -0.17414518, z: -0.6406379, w: 0.27498806}
        tangentMode: 0
      - serializedVersion: 2
        time: 0.33333334
        value: {x: -0.095713265, y: 0.07680813, z: 0.41676065, w: 0.9006942}
        inSlope: {x: -0.06589004, y: -0.037053045, z: 0.41070077, w: -0.19466402}
        outSlope: {x: -0.06589004, y: -0.037053045, z: 0.41070077, w: -0.19466402}
        tangentMode: 0
      - serializedVersion: 2
        time: 0.6333334
        value: {x: -0.09326052, y: 0.063347444, z: 0.5130171, w: 0.85094243}
        inSlope: {x: 0.06486186, y: -0.12424645, z: 0.05224584, w: -0.014983705}
        outSlope: {x: 0.06486186, y: -0.12424645, z: 0.05224584, w: -0.014983705}
        tangentMode: 0
      - serializedVersion: 2
        time: 0.9333334
        value: {x: -0.025104837, y: 0.081963256, z: 0.52084064, w: 0.849339}
        inSlope: {x: 0.41453943, y: 0.12901738, z: 0.09335342, w: -0.05761119}
        outSlope: {x: 0.41453943, y: 0.12901738, z: 0.09335342, w: -0.05761119}
        tangentMode: 0
      - serializedVersion: 2
        time: 1.1666667
        value: {x: 0.04905897, y: 0.11038413, z: 0.55790436, w: 0.82106715}
        inSlope: {x: 0.18284737, y: 0.09568119, z: 0.13633145, w: -0.11491489}
        outSlope: {x: 0.18284737, y: 0.09568119, z: 0.13633145, w: -0.11491489}
        tangentMode: 0
      m_PreInfinity: 2
      m_PostInfinity: 2
      m_RotationOrder: 4
    path: CATRigHub002/CATRigRLeg1/CATRigRLeg2
  - curve:
      serializedVersion: 2
      m_Curve:
      - serializedVersion: 2
        time: 0
        value: {x: 0.040666092, y: -0.1939966, z: -0.5078444, w: 0.83833504}
        inSlope: {x: -0.06414447, y: 0.16993894, z: -0.11884152, w: -0.030509232}
        outSlope: {x: -0.06414447, y: 0.16993894, z: -0.11884152, w: -0.030509232}
        tangentMode: 0
      - serializedVersion: 2
        time: 0.10000001
        value: {x: 0.04396614, y: -0.18349706, z: -0.5145874, w: 0.83641833}
        inSlope: {x: -0.10997993, y: 0.16449451, z: 0.19214006, w: 0.15685381}
        outSlope: {x: -0.10997993, y: 0.16449451, z: 0.19214006, w: 0.15685381}
        tangentMode: 0
      - serializedVersion: 2
        time: 0.20000002
        value: {x: -0.03448623, y: -0.15153252, z: -0.4541298, w: 0.8772769}
        inSlope: {x: -1.1853709, y: 0.2829884, z: 0.73942006, w: 0.3901022}
        outSlope: {x: -1.1853709, y: 0.2829884, z: 0.73942006, w: 0.3901022}
        tangentMode: 0
      - serializedVersion: 2
        time: 0.36666667
        value: {x: -0.1393459, y: -0.12704729, z: -0.40730733, w: 0.8936121}
        inSlope: {x: -0.013103988, y: 0.21002248, z: -0.08757139, w: -0.012242492}
        outSlope: {x: -0.013103988, y: 0.21002248, z: -0.08757139, w: -0.012242492}
        tangentMode: 0
      - serializedVersion: 2
        time: 0.6
        value: {x: -0.027707545, y: -0.094006054, z: -0.445389, w: 0.8899572}
        inSlope: {x: 0.563551, y: 0.07092287, z: -0.10564285, w: -0.02768666}
        outSlope: {x: 0.563551, y: 0.07092287, z: -0.10564285, w: -0.02768666}
        tangentMode: 0
      - serializedVersion: 2
        time: 0.73333335
        value: {x: 0.026026435, y: -0.100488685, z: -0.4586264, w: 0.8825455}
        inSlope: {x: 0.08347625, y: -0.17491937, z: -0.1111892, w: -0.07997453}
        outSlope: {x: 0.08347625, y: -0.17491937, z: -0.1111892, w: -0.07997453}
        tangentMode: 0
      - serializedVersion: 2
        time: 1
        value: {x: 0.03499439, y: -0.16013224, z: -0.4934955, w: 0.85416347}
        inSlope: {x: 0.039337635, y: -0.22808099, z: -0.1325368, w: -0.12094876}
        outSlope: {x: 0.039337635, y: -0.22808099, z: -0.1325368, w: -0.12094876}
        tangentMode: 0
      - serializedVersion: 2
        time: 1.1666667
        value: {x: 0.040666245, y: -0.1939965, z: -0.50784457, w: 0.83833504}
        inSlope: {x: 0.025259169, y: -0.1566939, z: -0.05988842, w: -0.07308311}
        outSlope: {x: 0.025259169, y: -0.1566939, z: -0.05988842, w: -0.07308311}
        tangentMode: 0
      m_PreInfinity: 2
      m_PostInfinity: 2
      m_RotationOrder: 4
    path: CATRigHub002/CATRigRLeg1/CATRigRLeg2/CATRigRLegAnkle
  - curve:
      serializedVersion: 2
      m_Curve:
      - serializedVersion: 2
        time: 0
        value: {x: 0.013024468, y: 0.004422579, z: -0.010796371, w: 0.9998471}
        inSlope: {x: 0.07550842, y: 0.09685114, z: -0.059200626, w: -0.0023603437}
        outSlope: {x: 0.07550842, y: 0.09685114, z: -0.059200626, w: -0.0023603437}
        tangentMode: 0
      - serializedVersion: 2
        time: 0.16666667
        value: {x: 0.014797214, y: -0.0011089384, z: -0.013672814, w: 0.9997964}
        inSlope: {x: -0.18471113, y: -0.15218674, z: -0.1890143, w: -0.00066339906}
        outSlope: {x: -0.18471113, y: -0.15218674, z: -0.1890143, w: -0.00066339906}
        tangentMode: 0
      - serializedVersion: 2
        time: 0.3
        value: {x: -0.006394918, y: -0.010181355, z: -0.044486765, w: 0.9989376}
        inSlope: {x: -0.048522014, y: -0.0136697255, z: -0.09861013, w: -0.0047233705}
        outSlope: {x: -0.048522014, y: -0.0136697255, z: -0.09861013, w: -0.0047233705}
        tangentMode: 0
      - serializedVersion: 2
        time: 0.6333334
        value: {x: -0.011954751, y: -0.0032301857, z: -0.0569638, w: 0.9982994}
        inSlope: {x: -0.0037659467, y: 0.07722428, z: 0.028030548, w: 0.0017577417}
        outSlope: {x: -0.0037659467, y: 0.07722428, z: 0.028030548, w: 0.0017577417}
        tangentMode: 0
      - serializedVersion: 2
        time: 0.9666667
        value: {x: 0.0107179405, y: 0.012947654, z: -0.025776561, w: 0.99952644}
        inSlope: {x: 0.009408626, y: -0.037342336, z: 0.08872823, w: 0.0026696944}
        outSlope: {x: 0.009408626, y: -0.037342336, z: 0.08872823, w: 0.0026696944}
        tangentMode: 0
      - serializedVersion: 2
        time: 1.1666667
        value: {x: 0.013024304, y: 0.004422411, z: -0.010796347, w: 0.9998471}
        inSlope: {x: 0.015212722, y: -0.038015753, z: 0.05633899, w: 0.00065982406}
        outSlope: {x: 0.015212722, y: -0.038015753, z: 0.05633899, w: 0.00065982406}
        tangentMode: 0
      m_PreInfinity: 2
      m_PostInfinity: 2
      m_RotationOrder: 4
    path: CATRigHub002/CATRigSpine1
  - curve:
      serializedVersion: 2
      m_Curve:
      - serializedVersion: 2
        time: 0
        value: {x: 0.023721535, y: 0.006553542, z: 0.0016080685, w: 0.99969584}
        inSlope: {x: 0.1491393, y: 0.14550796, z: -0.11808281, w: -0.0052589173}
        outSlope: {x: 0.1491393, y: 0.14550796, z: -0.11808281, w: -0.0052589173}
        tangentMode: 0
      - serializedVersion: 2
        time: 0.10000001
        value: {x: 0.038018852, y: 0.0096756555, z: 0.0018488633, w: 0.9992285}
        inSlope: {x: -0.009186633, y: -0.24266383, z: 0.08566979, w: 0.0016433004}
        outSlope: {x: -0.009186633, y: -0.24266383, z: 0.08566979, w: 0.0016433004}
        tangentMode: 0
      - serializedVersion: 2
        time: 0.20000002
        value: {x: 0.009096, y: -0.030687235, z: -0.021564843, w: 0.999255}
        inSlope: {x: -0.39763576, y: -0.29576808, z: -0.57319957, w: -0.017459393}
        outSlope: {x: -0.39763576, y: -0.29576808, z: -0.57319957, w: -0.017459393}
        tangentMode: 0
      - serializedVersion: 2
        time: 0.3
        value: {x: -0.013490316, y: -0.04142236, z: -0.06589556, w: 0.9968751}
        inSlope: {x: -0.050691865, y: -0.009988044, z: -0.19838363, w: -0.013808014}
        outSlope: {x: -0.050691865, y: -0.009988044, z: -0.19838363, w: -0.013808014}
        tangentMode: 0
      - serializedVersion: 2
        time: 0.6
        value: {x: -0.021395719, y: -0.020408897, z: -0.091908924, w: 0.9953283}
        inSlope: {x: -0.059525333, y: 0.15902597, z: 0.019376265, w: 0.0036951886}
        outSlope: {x: -0.059525333, y: 0.15902597, z: 0.019376265, w: 0.0036951886}
        tangentMode: 0
      - serializedVersion: 2
        time: 0.86666673
        value: {x: 0.016577385, y: 0.025781462, z: -0.047312103, w: 0.9984098}
        inSlope: {x: 0.13640717, y: 0.027075198, z: 0.21252339, w: 0.0073939567}
        outSlope: {x: 0.13640717, y: 0.027075198, z: 0.21252339, w: 0.0073939567}
        tangentMode: 0
      - serializedVersion: 2
        time: 1.1666667
        value: {x: 0.02372154, y: 0.0065535796, z: 0.001608117, w: 0.99969584}
        inSlope: {x: 0.023311716, y: -0.06763606, z: 0.11266148, w: 0.000005364423}
        outSlope: {x: 0.023311716, y: -0.06763606, z: 0.11266148, w: 0.000005364423}
        tangentMode: 0
      m_PreInfinity: 2
      m_PostInfinity: 2
      m_RotationOrder: 4
    path: CATRigHub002/CATRigSpine1/CATRigSpine2
  - curve:
      serializedVersion: 2
      m_Curve:
      - serializedVersion: 2
        time: 0
        value: {x: 0.02412761, y: 0.00484937, z: 0.0016080667, w: 0.99969584}
        inSlope: {x: 0.15911488, y: 0.13452813, z: -0.11808394, w: -0.0052589173}
        outSlope: {x: 0.15911488, y: 0.13452813, z: -0.11808394, w: -0.0052589173}
        tangentMode: 0
      - serializedVersion: 2
        time: 0.10000001
        value: {x: 0.03861076, y: 0.006946461, z: 0.0018490512, w: 0.9992285}
        inSlope: {x: -0.026426814, y: -0.24139576, z: 0.08567078, w: 0.0016433004}
        outSlope: {x: -0.026426814, y: -0.24139576, z: 0.08567078, w: 0.0016433004}
        tangentMode: 0
      - serializedVersion: 2
        time: 0.20000002
        value: {x: 0.0068896553, y: -0.03125672, z: -0.021564845, w: 0.999255}
        inSlope: {x: -0.41766858, y: -0.2667275, z: -0.5731971, w: -0.017459393}
        outSlope: {x: -0.41766858, y: -0.2667275, z: -0.5731971, w: -0.017459393}
        tangentMode: 0
      - serializedVersion: 2
        time: 0.3
        value: {x: -0.016402936, y: -0.04035758, z: -0.06589547, w: 0.9968751}
        inSlope: {x: -0.051275555, y: -0.0063549923, z: -0.19838223, w: -0.013808014}
        outSlope: {x: -0.051275555, y: -0.0063549923, z: -0.19838223, w: -0.013808014}
        tangentMode: 0
      - serializedVersion: 2
        time: 0.6
        value: {x: -0.022793382, y: -0.01883502, z: -0.091908924, w: 0.9953283}
        inSlope: {x: -0.048056405, y: 0.16285801, z: 0.019375259, w: 0.0036960826}
        outSlope: {x: -0.048056405, y: 0.16285801, z: 0.019375259, w: 0.0036960826}
        tangentMode: 0
      - serializedVersion: 2
        time: 0.86666673
        value: {x: 0.018369555, y: 0.024536766, z: -0.047311984, w: 0.9984098}
        inSlope: {x: 0.13798866, y: 0.017304135, z: 0.21252713, w: 0.0073939567}
        outSlope: {x: 0.13798866, y: 0.017304135, z: 0.21252713, w: 0.0073939567}
        tangentMode: 0
      - serializedVersion: 2
        time: 1.1666667
        value: {x: 0.024127671, y: 0.0048493356, z: 0.0016081197, w: 0.99969584}
        inSlope: {x: 0.018440707, y: -0.06912834, z: 0.11265761, w: 0.000005364423}
        outSlope: {x: 0.018440707, y: -0.06912834, z: 0.11265761, w: 0.000005364423}
        tangentMode: 0
      m_PreInfinity: 2
      m_PostInfinity: 2
      m_RotationOrder: 4
    path: CATRigHub002/CATRigSpine1/CATRigSpine2/CATRigSpine3
  - curve:
      serializedVersion: 2
      m_Curve:
      - serializedVersion: 2
        time: 0
        value: {x: 0.024309337, y: 0.0038368024, z: -0.027781984, w: 0.99931103}
        inSlope: {x: 0.16459358, y: 0.12776113, z: -0.11787822, w: -0.008727908}
        outSlope: {x: 0.16459358, y: 0.12776113, z: -0.11787822, w: -0.008727908}
        tangentMode: 0
      - serializedVersion: 2
        time: 0.10000001
        value: {x: 0.0388674, y: 0.0053267693, z: -0.02752765, w: 0.99885094}
        inSlope: {x: -0.03649035, y: -0.24007934, z: 0.08558347, w: 0.0041610003}
        outSlope: {x: -0.03649035, y: -0.24007934, z: 0.08558347, w: 0.0041610003}
        tangentMode: 0
      - serializedVersion: 2
        time: 0.20000002
        value: {x: 0.0055775736, y: -0.03151723, z: -0.050932027, w: 0.9981891}
        inSlope: {x: -0.42844903, y: -0.24904037, z: -0.5724381, w: -0.034302767}
        outSlope: {x: -0.42844903, y: -0.24904037, z: -0.5724381, w: -0.034302767}
        tangentMode: 0
      - serializedVersion: 2
        time: 0.3
        value: {x: -0.018075261, y: -0.039636787, z: -0.09517362, w: 0.994507}
        inSlope: {x: -0.05149741, y: -0.004205704, z: -0.19788781, w: -0.019632878}
        outSlope: {x: -0.05149741, y: -0.004205704, z: -0.19788781, w: -0.019632878}
        tangentMode: 0
      - serializedVersion: 2
        time: 0.6
        value: {x: -0.023560688, y: -0.017866155, z: -0.12113051, w: 0.9921961}
        inSlope: {x: -0.04120998, y: 0.16472325, z: 0.019258471, w: 0.004263817}
        outSlope: {x: -0.04120998, y: 0.16472325, z: 0.019258471, w: 0.004263817}
        tangentMode: 0
      - serializedVersion: 2
        time: 0.86666673
        value: {x: 0.019379033, y: 0.023747694, z: -0.07664319, w: 0.99658734}
        inSlope: {x: 0.13859197, y: 0.011521071, z: 0.21221672, w: 0.013639033}
        outSlope: {x: 0.13859197, y: 0.011521071, z: 0.21221672, w: 0.013639033}
        tangentMode: 0
      - serializedVersion: 2
        time: 1.1666667
        value: {x: 0.024309246, y: 0.0038368572, z: -0.02778202, w: 0.99931103}
        inSlope: {x: 0.015532855, y: -0.069832355, z: 0.11261086, w: 0.0033187899}
        outSlope: {x: 0.015532855, y: -0.069832355, z: 0.11261086, w: 0.0033187899}
        tangentMode: 0
      m_PreInfinity: 2
      m_PostInfinity: 2
      m_RotationOrder: 4
    path: CATRigHub002/CATRigSpine1/CATRigSpine2/CATRigSpine3/CATRigHub003
  - curve:
      serializedVersion: 2
      m_Curve:
      - serializedVersion: 2
        time: 0
        value: {x: 0.05762167, y: 0.70774716, z: 0.039287087, w: 0.7030151}
        inSlope: {x: -0.35006067, y: -0.16033708, z: -0.21860282, w: 0.19675969}
        outSlope: {x: -0.35006067, y: -0.16033708, z: -0.21860282, w: 0.19675969}
        tangentMode: 0
      - serializedVersion: 2
        time: 0.10000001
        value: {x: 0.033834945, y: 0.67022496, z: 0.030380212, w: 0.7407636}
        inSlope: {x: -0.19434214, y: -0.70638835, z: 0.034960777, w: 0.64105594}
        outSlope: {x: -0.19434214, y: -0.70638835, z: 0.034960777, w: 0.64105594}
        tangentMode: 0
      - serializedVersion: 2
        time: 0.16666667
        value: {x: 0.003139067, y: 0.6171231, z: 0.023278013, w: 0.786516}
        inSlope: {x: -0.8208964, y: -0.71051705, z: -0.39128667, w: 0.56902075}
        outSlope: {x: -0.8208964, y: -0.71051705, z: -0.39128667, w: 0.56902075}
        tangentMode: 0
      - serializedVersion: 2
        time: 0.26666668
        value: {x: -0.07012356, y: 0.574449, z: -0.023117453, w: 0.8152035}
        inSlope: {x: -0.13734286, y: -0.12883098, z: -0.124727465, w: 0.078147955}
        outSlope: {x: -0.13734286, y: -0.12883098, z: -0.124727465, w: 0.078147955}
        tangentMode: 0
      - serializedVersion: 2
        time: 0.40000004
        value: {x: -0.046696406, y: 0.5840512, z: -0.0067525357, w: 0.8103444}
        inSlope: {x: 0.08324186, y: 0.061984025, z: 0.08270101, w: -0.038823165}
        outSlope: {x: 0.08324186, y: 0.061984025, z: 0.08270101, w: -0.038823165}
        tangentMode: 0
      - serializedVersion: 2
        time: 0.6333334
        value: {x: -0.049213428, y: 0.6083122, z: -0.012140337, w: 0.7920776}
        inSlope: {x: 0.04479236, y: 0.2978495, z: -0.05833573, w: -0.22710446}
        outSlope: {x: 0.04479236, y: 0.2978495, z: -0.05833573, w: -0.22710446}
        tangentMode: 0
      - serializedVersion: 2
        time: 0.86666673
        value: {x: -0.001164597, y: 0.6593936, z: 0.006028567, w: 0.7517728}
        inSlope: {x: 0.15048471, y: 0.119188435, z: 0.081435874, w: -0.10487437}
        outSlope: {x: 0.15048471, y: 0.119188435, z: 0.081435874, w: -0.10487437}
        tangentMode: 0
      - serializedVersion: 2
        time: 1.1666667
        value: {x: 0.05762139, y: 0.70774716, z: 0.03928737, w: 0.7030151}
        inSlope: {x: 0.21923056, y: 0.16908841, z: 0.11955846, w: -0.19184786}
        outSlope: {x: 0.21923056, y: 0.16908841, z: 0.11955846, w: -0.19184786}
        tangentMode: 0
      m_PreInfinity: 2
      m_PostInfinity: 2
      m_RotationOrder: 4
    path: CATRigHub002/CATRigSpine1/CATRigSpine2/CATRigSpine3/CATRigHub003/CATRigLArmCollarbone
  - curve:
      serializedVersion: 2
      m_Curve:
      - serializedVersion: 2
        time: 0
        value: {x: -0.35294613, y: 0.47922397, z: -0.123559274, w: 0.79404444}
        inSlope: {x: 1.0096844, y: 0.2885842, z: -1.5470599, w: -0.039521452}
        outSlope: {x: 1.0096844, y: 0.2885842, z: -1.5470599, w: -0.039521452}
        tangentMode: 0
      - serializedVersion: 2
        time: 0.033333335
        value: {x: -0.31928998, y: 0.48884344, z: -0.17512794, w: 0.79272705}
        inSlope: {x: 1.474817, y: 0.58110946, z: -1.6177076, w: -0.16335993}
        outSlope: {x: 1.474817, y: 0.58110946, z: -1.6177076, w: -0.16335993}
        tangentMode: 0
      - serializedVersion: 2
        time: 0.06666667
        value: {x: -0.254625, y: 0.5179646, z: -0.23140645, w: 0.7831538}
        inSlope: {x: 2.437443, y: 1.2819206, z: -0.85894746, w: -0.35373056}
        outSlope: {x: 2.437443, y: 1.2819206, z: -0.85894746, w: -0.35373056}
        tangentMode: 0
      - serializedVersion: 2
        time: 0.10000001
        value: {x: -0.15679376, y: 0.5743048, z: -0.2323911, w: 0.769145}
        inSlope: {x: 3.2580113, y: 1.8344762, z: 1.114385, w: -0.48253745}
        outSlope: {x: 3.2580113, y: 1.8344762, z: 1.114385, w: -0.48253745}
        tangentMode: 0
      - serializedVersion: 2
        time: 0.13333334
        value: {x: -0.037424237, y: 0.640263, z: -0.15711412, w: 0.7509846}
        inSlope: {x: 3.5863667, y: 1.7151262, z: 2.5967684, w: -0.76763576}
        outSlope: {x: 3.5863667, y: 1.7151262, z: 2.5967684, w: -0.76763576}
        tangentMode: 0
      - serializedVersion: 2
        time: 0.16666667
        value: {x: 0.08229734, y: 0.68864655, z: -0.059273217, w: 0.7179693}
        inSlope: {x: 3.1884825, y: 1.0159948, z: 2.2300482, w: -1.0032355}
        outSlope: {x: 3.1884825, y: 1.0159948, z: 2.2300482, w: -1.0032355}
        tangentMode: 0
      - serializedVersion: 2
        time: 0.20000002
        value: {x: 0.17514129, y: 0.707996, z: -0.008444226, w: 0.68410224}
        inSlope: {x: 2.1613314, y: 0.24024802, z: 0.7990419, w: -0.6830771}
        outSlope: {x: 2.1613314, y: 0.24024802, z: 0.7990419, w: -0.6830771}
        tangentMode: 0
      - serializedVersion: 2
        time: 0.23333335
        value: {x: 0.22638613, y: 0.7046631, z: -0.0060037323, w: 0.6724308}
        inSlope: {x: 0.9653009, y: -0.29648963, z: 0.1798596, w: 0.010664463}
        outSlope: {x: 0.9653009, y: -0.29648963, z: 0.1798596, w: 0.010664463}
        tangentMode: 0
      - serializedVersion: 2
        time: 0.26666668
        value: {x: 0.23949468, y: 0.68823004, z: 0.003546412, w: 0.6848132}
        inSlope: {x: -0.13665475, y: -0.61131036, z: 0.93358094, w: 0.61363405}
        outSlope: {x: -0.13665475, y: -0.61131036, z: 0.93358094, w: 0.61363405}
        tangentMode: 0
      - serializedVersion: 2
        time: 0.33333334
        value: {x: 0.1619657, y: 0.63371325, z: 0.13146628, w: 0.74491024}
        inSlope: {x: -1.9374545, y: -0.94285554, z: 1.934077, w: 0.88669723}
        outSlope: {x: -1.9374545, y: -0.94285554, z: 1.934077, w: 0.88669723}
        tangentMode: 0
      - serializedVersion: 2
        time: 0.40000004
        value: {x: 0.01838542, y: 0.5701264, z: 0.1962412, w: 0.7975634}
        inSlope: {x: -1.82347, y: -0.8682423, z: -0.21120222, w: 0.7330859}
        outSlope: {x: -1.82347, y: -0.8682423, z: -0.21120222, w: 0.7330859}
        tangentMode: 0
      - serializedVersion: 2
        time: 0.53333336
        value: {x: -0.09361405, y: 0.49410182, z: 0.011375086, w: 0.8642745}
        inSlope: {x: 0.095252655, y: -0.09391166, z: -1.6016277, w: 0.09149186}
        outSlope: {x: 0.095252655, y: -0.09391166, z: -1.6016277, w: 0.09149186}
        tangentMode: 0
      - serializedVersion: 2
        time: 0.6333334
        value: {x: -0.023364056, y: 0.52180535, z: -0.093559906, w: 0.8475965}
        inSlope: {x: 0.76297855, y: 0.41747868, z: -0.28596842, w: -0.25951445}
        outSlope: {x: 0.76297855, y: 0.41747868, z: -0.28596842, w: -0.25951445}
        tangentMode: 0
      - serializedVersion: 2
        time: 0.7666667
        value: {x: -0.04122667, y: 0.5615108, z: -0.055490416, w: 0.82457674}
        inSlope: {x: -0.8852135, y: 0.045852326, z: 0.2261121, w: -0.06365592}
        outSlope: {x: -0.8852135, y: 0.045852326, z: 0.2261121, w: -0.06365592}
        tangentMode: 0
      - serializedVersion: 2
        time: 0.90000004
        value: {x: -0.18785553, y: 0.5430641, z: -0.05034614, w: 0.81685793}
        inSlope: {x: -0.8862248, y: -0.23632407, z: -0.0040854868, w: -0.043340042}
        outSlope: {x: -0.8862248, y: -0.23632407, z: -0.0040854868, w: -0.043340042}
        tangentMode: 0
      - serializedVersion: 2
        time: 1.1
        value: {x: -0.3195928, y: 0.4907439, z: -0.09050123, w: 0.80550635}
        inSlope: {x: -0.5573729, y: -0.2059783, z: -0.4549032, w: -0.14682487}
        outSlope: {x: -0.5573729, y: -0.2059783, z: -0.4549032, w: -0.14682487}
        tangentMode: 0
      - serializedVersion: 2
        time: 1.1666667
        value: {x: -0.35294598, y: 0.47922397, z: -0.12355939, w: 0.79404444}
        inSlope: {x: -0.47065303, y: -0.1594691, z: -0.49670625, w: -0.17921464}
        outSlope: {x: -0.47065303, y: -0.1594691, z: -0.49670625, w: -0.17921464}
        tangentMode: 0
      m_PreInfinity: 2
      m_PostInfinity: 2
      m_RotationOrder: 4
    path: CATRigHub002/CATRigSpine1/CATRigSpine2/CATRigSpine3/CATRigHub003/CATRigLArmCollarbone/CATRigLArm1
  - curve:
      serializedVersion: 2
      m_Curve:
      - serializedVersion: 2
        time: 0
        value: {x: 0.0023170093, y: 0.0003216617, z: -0.800512, w: 0.5993121}
        inSlope: {x: 0.0016591976, y: -0.00013594137, z: 0.32848832, w: 0.4306036}
        outSlope: {x: 0.0016591976, y: -0.00013594137, z: 0.32848832, w: 0.4306036}
        tangentMode: 0
      - serializedVersion: 2
        time: 0.06666667
        value: {x: 0.0024846292, y: 0.0003077352, z: -0.76611733, w: 0.6426959}
        inSlope: {x: 0.0046288567, y: -0.0004135102, z: 1.0356455, w: 1.19646}
        outSlope: {x: 0.0046288567, y: -0.0004135102, z: 1.0356455, w: 1.19646}
        tangentMode: 0
      - serializedVersion: 2
        time: 0.13333334
        value: {x: 0.0029590984, y: 0.0002585493, z: -0.6435154, w: 0.7654274}
        inSlope: {x: 0.008668639, y: -0.0010987916, z: 2.7376003, w: 2.2425127}
        outSlope: {x: 0.008668639, y: -0.0010987916, z: 2.7376003, w: 2.2425127}
        tangentMode: 0
      - serializedVersion: 2
        time: 0.16666667
        value: {x: 0.0032588155, y: 0.0002163102, z: -0.5380127, w: 0.84293044}
        inSlope: {x: 0.007959936, y: -0.0012858438, z: 3.1985507, w: 2.0589285}
        outSlope: {x: 0.007959936, y: -0.0012858438, z: 3.1985507, w: 2.0589285}
        tangentMode: 0
      - serializedVersion: 2
        time: 0.23333335
        value: {x: 0.0036101842, y: 0.00014377276, z: -0.3577333, w: 0.93381685}
        inSlope: {x: 0.0022361628, y: -0.0005579144, z: 1.3890035, w: 0.57847744}
        outSlope: {x: 0.0022361628, y: -0.0005579144, z: 1.3890035, w: 0.57847744}
        tangentMode: 0
      - serializedVersion: 2
        time: 0.3
        value: {x: 0.0036096505, y: 0.00014374057, z: -0.35809737, w: 0.93367726}
        inSlope: {x: -0.0013764902, y: 0.00036156958, z: -0.9006568, w: -0.3563324}
        outSlope: {x: -0.0013764902, y: 0.00036156958, z: -0.9006568, w: -0.3563324}
        tangentMode: 0
      - serializedVersion: 2
        time: 0.4666667
        value: {x: 0.0030290722, y: 0.00024967294, z: -0.62135166, w: 0.78352594}
        inSlope: {x: -0.0060743163, y: 0.0007917709, z: -1.967041, w: -1.571212}
        outSlope: {x: -0.0060743163, y: 0.0007917709, z: -1.967041, w: -1.571212}
        tangentMode: 0
      - serializedVersion: 2
        time: 0.53333336
        value: {x: 0.002564212, y: 0.00030075788, z: -0.74836826, w: 0.6632785}
        inSlope: {x: -0.00718552, y: 0.000667257, z: -1.6619606, w: -1.8586755}
        outSlope: {x: -0.00718552, y: 0.000667257, z: -1.6619606, w: -1.8586755}
        tangentMode: 0
      - serializedVersion: 2
        time: 0.6333334
        value: {x: 0.0020002266, y: 0.00034377025, z: -0.8557496, w: 0.5173862}
        inSlope: {x: -0.003074106, y: 0.0001959322, z: -0.49116153, w: -0.7951783}
        outSlope: {x: -0.003074106, y: 0.0001959322, z: -0.49116153, w: -0.7951783}
        tangentMode: 0
      - serializedVersion: 2
        time: 0.7666667
        value: {x: 0.0018537893, y: 0.0003526026, z: -0.8775282, w: 0.47952133}
        inSlope: {x: -0.000482207, y: 0.000027353359, z: -0.06840968, w: -0.12494032}
        outSlope: {x: -0.000482207, y: 0.000027353359, z: -0.06840968, w: -0.12494032}
        tangentMode: 0
      - serializedVersion: 2
        time: 0.9666667
        value: {x: 0.0019990501, y: 0.00034386342, z: -0.8559412, w: 0.5170692}
        inSlope: {x: 0.0017124664, y: -0.000108821216, z: 0.268121, w: 0.44325066}
        outSlope: {x: 0.0017124664, y: -0.000108821216, z: 0.268121, w: 0.44325066}
        tangentMode: 0
      - serializedVersion: 2
        time: 1.1666667
        value: {x: 0.0023168467, y: 0.00032161345, z: -0.8005121, w: 0.59931207}
        inSlope: {x: 0.0012892358, y: -0.00009905673, z: 0.24631107, w: 0.33378336}
        outSlope: {x: 0.0012892358, y: -0.00009905673, z: 0.24631107, w: 0.33378336}
        tangentMode: 0
      m_PreInfinity: 2
      m_PostInfinity: 2
      m_RotationOrder: 4
    path: CATRigHub002/CATRigSpine1/CATRigSpine2/CATRigSpine3/CATRigHub003/CATRigLArmCollarbone/CATRigLArm1/CATRigLArm2
  - curve:
      serializedVersion: 2
      m_Curve:
      - serializedVersion: 2
        time: 0
        value: {x: -0.6726964, y: 0.12952635, z: 0.085081756, w: 0.7235078}
        inSlope: {x: -1.4350944, y: -0.7563646, z: -1.1547463, w: -1.1868917}
        outSlope: {x: -1.4350944, y: -0.7563646, z: -1.1547463, w: -1.1868917}
        tangentMode: 0
      - serializedVersion: 2
        time: 0.033333335
        value: {x: -0.7205329, y: 0.10431419, z: 0.046590213, w: 0.68394476}
        inSlope: {x: -1.0277017, y: -0.7827947, z: -0.8685465, w: -0.8588817}
        outSlope: {x: -1.0277017, y: -0.7827947, z: -0.8685465, w: -0.8588817}
        tangentMode: 0
      - serializedVersion: 2
        time: 0.06666667
        value: {x: -0.74120986, y: 0.07734003, z: 0.027178654, w: 0.66624904}
        inSlope: {x: -0.26730713, y: -0.5729433, z: -0.05781415, w: -0.2121216}
        outSlope: {x: -0.26730713, y: -0.5729433, z: -0.05781415, w: -0.2121216}
        tangentMode: 0
      - serializedVersion: 2
        time: 0.13333334
        value: {x: -0.7296691, y: 0.08497833, z: 0.08468733, w: 0.67319375}
        inSlope: {x: 0.10149391, y: 0.84294593, z: 1.5601203, w: -0.2305189}
        outSlope: {x: 0.10149391, y: 0.84294593, z: 1.5601203, w: -0.2305189}
        tangentMode: 0
      - serializedVersion: 2
        time: 0.16666667
        value: {x: -0.7315871, y: 0.12231436, z: 0.14674395, w: 0.6544354}
        inSlope: {x: 0.09605165, y: 0.96265453, z: 2.5426812, w: -0.7301427}
        outSlope: {x: 0.09605165, y: 0.96265453, z: 2.5426812, w: -0.7301427}
        tangentMode: 0
      - serializedVersion: 2
        time: 0.20000002
        value: {x: -0.72326565, y: 0.1491553, z: 0.25419945, w: 0.62451756}
        inSlope: {x: 1.0624669, y: 0.37760344, z: 3.757913, w: -0.5234991}
        outSlope: {x: 1.0624669, y: 0.37760344, z: 3.757913, w: -0.5234991}
        tangentMode: 0
      - serializedVersion: 2
        time: 0.23333335
        value: {x: -0.660756, y: 0.14748794, z: 0.3972715, w: 0.61953545}
        inSlope: {x: 2.2870598, y: -0.41675866, z: 3.5580697, w: 0.32999042}
        outSlope: {x: 2.2870598, y: -0.41675866, z: 3.5580697, w: 0.32999042}
        tangentMode: 0
      - serializedVersion: 2
        time: 0.26666668
        value: {x: -0.570795, y: 0.121371396, z: 0.4914041, w: 0.6465169}
        inSlope: {x: 1.4868451, y: -1.1653138, z: 1.1947234, w: 0.79433}
        outSlope: {x: 1.4868451, y: -1.1653138, z: 1.1947234, w: 0.79433}
        tangentMode: 0
      - serializedVersion: 2
        time: 0.3
        value: {x: -0.561633, y: 0.069800355, z: 0.47691974, w: 0.6724908}
        inSlope: {x: -1.1572999, y: -1.7594702, z: -1.9998995, w: 0.38607273}
        outSlope: {x: -1.1572999, y: -1.7594702, z: -1.9998995, w: 0.38607273}
        tangentMode: 0
      - serializedVersion: 2
        time: 0.33333334
        value: {x: -0.6479483, y: 0.004073389, z: 0.35807747, w: 0.6722551}
        inSlope: {x: -2.5671997, y: -1.6198123, z: -4.0853577, w: -0.36937687}
        outSlope: {x: -2.5671997, y: -1.6198123, z: -4.0853577, w: -0.36937687}
        tangentMode: 0
      - serializedVersion: 2
        time: 0.36666667
        value: {x: -0.7327796, y: -0.038187124, z: 0.20456256, w: 0.64786565}
        inSlope: {x: -1.8291678, y: -0.75575876, z: -3.7478387, w: -0.6754846}
        outSlope: {x: -1.8291678, y: -0.75575876, z: -3.7478387, w: -0.6754846}
        tangentMode: 0
      - serializedVersion: 2
        time: 0.40000004
        value: {x: -0.7698929, y: -0.046310533, z: 0.10822147, w: 0.6272228}
        inSlope: {x: -0.5765752, y: -0.02441632, z: -1.904434, w: -0.2594677}
        outSlope: {x: -0.5765752, y: -0.02441632, z: -1.904434, w: -0.2594677}
        tangentMode: 0
      - serializedVersion: 2
        time: 0.4666667
        value: {x: -0.75328416, y: -0.02894176, z: 0.07316874, w: 0.65297145}
        inSlope: {x: 0.61672693, y: 0.37770158, z: -0.019333102, w: 0.72506046}
        outSlope: {x: 0.61672693, y: 0.37770158, z: -0.019333102, w: 0.72506046}
        tangentMode: 0
      - serializedVersion: 2
        time: 0.5666667
        value: {x: -0.68052804, y: 0.02345157, z: 0.118386865, w: 0.7227144}
        inSlope: {x: 0.8080522, y: 0.71178424, z: 0.900946, w: 0.5850309}
        outSlope: {x: 0.8080522, y: 0.71178424, z: 0.900946, w: 0.5850309}
        tangentMode: 0
      - serializedVersion: 2
        time: 0.6333334
        value: {x: -0.6356112, y: 0.078952156, z: 0.17489389, w: 0.74778146}
        inSlope: {x: 0.22370225, y: 0.76969564, z: 0.4961837, w: 0.004213564}
        outSlope: {x: 0.22370225, y: 0.76969564, z: 0.4961837, w: 0.004213564}
        tangentMode: 0
      - serializedVersion: 2
        time: 0.73333335
        value: {x: -0.67149055, y: 0.11468615, z: 0.17845114, w: 0.71000195}
        inSlope: {x: -0.4424537, y: 0.02320093, z: -0.10539585, w: -0.39297858}
        outSlope: {x: -0.4424537, y: 0.02320093, z: -0.10539585, w: -0.39297858}
        tangentMode: 0
      - serializedVersion: 2
        time: 0.8333334
        value: {x: -0.7070572, y: 0.10939157, z: 0.15246801, w: 0.68180436}
        inSlope: {x: -0.31643367, y: -0.085935295, z: -0.48241138, w: -0.20631021}
        outSlope: {x: -0.31643367, y: -0.085935295, z: -0.48241138, w: -0.20631021}
        tangentMode: 0
      - serializedVersion: 2
        time: 1.1
        value: {x: -0.6848043, y: 0.114535645, z: 0.07580172, w: 0.71566665}
        inSlope: {x: 0.19358113, y: 0.19345568, z: 0.066000514, w: 0.14704397}
        outSlope: {x: 0.19358113, y: 0.19345568, z: 0.066000514, w: 0.14704397}
        tangentMode: 0
      - serializedVersion: 2
        time: 1.1666667
        value: {x: -0.6726964, y: 0.12952639, z: 0.085081734, w: 0.7235078}
        inSlope: {x: 0.17597096, y: 0.22836417, z: 0.15601665, w: 0.10712217}
        outSlope: {x: 0.17597096, y: 0.22836417, z: 0.15601665, w: 0.10712217}
        tangentMode: 0
      m_PreInfinity: 2
      m_PostInfinity: 2
      m_RotationOrder: 4
    path: CATRigHub002/CATRigSpine1/CATRigSpine2/CATRigSpine3/CATRigHub003/CATRigLArmCollarbone/CATRigLArm1/CATRigLArm2/CATRigLArmPalm
  - curve:
      serializedVersion: 2
      m_Curve:
      - serializedVersion: 2
        time: 0
        value: {x: 0.4354496, y: 0.45740864, z: 0.030165723, w: 0.7747587}
        inSlope: {x: 0, y: 0, z: 0, w: 0}
        outSlope: {x: 0, y: 0, z: 0, w: 0}
        tangentMode: 0
      - serializedVersion: 2
        time: 0.033333335
        value: {x: 0.4354496, y: 0.45740864, z: 0.030165723, w: 0.7747587}
        inSlope: {x: 0, y: 0, z: 0, w: 0}
        outSlope: {x: 0, y: 0, z: 0, w: 0}
        tangentMode: 0
      m_PreInfinity: 2
      m_PostInfinity: 2
      m_RotationOrder: 4
    path: CATRigHub002/CATRigSpine1/CATRigSpine2/CATRigSpine3/CATRigHub003/CATRigLArmCollarbone/CATRigLArm1/CATRigLArm2/CATRigLArmPalm/CATRigLArmDigit11
  - curve:
      serializedVersion: 2
      m_Curve:
      - serializedVersion: 2
        time: 0
        value: {x: 0.005309484, y: 0.0083705485, z: 0.37584174, w: 0.92663085}
        inSlope: {x: 0, y: 0, z: 0, w: 0}
        outSlope: {x: 0, y: 0, z: 0, w: 0}
        tangentMode: 0
      - serializedVersion: 2
        time: 0.033333335
        value: {x: 0.005309484, y: 0.0083705485, z: 0.37584174, w: 0.92663085}
        inSlope: {x: 0, y: 0, z: 0, w: 0}
        outSlope: {x: 0, y: 0, z: 0, w: 0}
        tangentMode: 0
      m_PreInfinity: 2
      m_PostInfinity: 2
      m_RotationOrder: 4
    path: CATRigHub002/CATRigSpine1/CATRigSpine2/CATRigSpine3/CATRigHub003/CATRigLArmCollarbone/CATRigLArm1/CATRigLArm2/CATRigLArmPalm/CATRigLArmDigit21
  - curve:
      serializedVersion: 2
      m_Curve:
      - serializedVersion: 2
        time: 0
        value: {x: -0.0036512353, y: -0.06357941, z: 0.69223124, w: 0.71886045}
        inSlope: {x: 0, y: 0, z: 0, w: 0}
        outSlope: {x: 0, y: 0, z: 0, w: 0}
        tangentMode: 0
      - serializedVersion: 2
        time: 0.033333335
        value: {x: -0.0036512353, y: -0.06357941, z: 0.69223124, w: 0.71886045}
        inSlope: {x: 0, y: 0, z: 0, w: 0}
        outSlope: {x: 0, y: 0, z: 0, w: 0}
        tangentMode: 0
      m_PreInfinity: 2
      m_PostInfinity: 2
      m_RotationOrder: 4
    path: CATRigHub002/CATRigSpine1/CATRigSpine2/CATRigSpine3/CATRigHub003/CATRigLArmCollarbone/CATRigLArm1/CATRigLArm2/CATRigLArmPalm/CATRigLArmDigit21/CATRigLArmDigit22
  - curve:
      serializedVersion: 2
      m_Curve:
      - serializedVersion: 2
        time: 0
        value: {x: -0.004094164, y: 0.0056094634, z: 0.32650164, w: 0.9451711}
        inSlope: {x: 0, y: 0, z: 0, w: 0}
        outSlope: {x: 0, y: 0, z: 0, w: 0}
        tangentMode: 0
      - serializedVersion: 2
        time: 0.033333335
        value: {x: -0.004094164, y: 0.0056094634, z: 0.32650164, w: 0.9451711}
        inSlope: {x: 0, y: 0, z: 0, w: 0}
        outSlope: {x: 0, y: 0, z: 0, w: 0}
        tangentMode: 0
      m_PreInfinity: 2
      m_PostInfinity: 2
      m_RotationOrder: 4
    path: CATRigHub002/CATRigSpine1/CATRigSpine2/CATRigSpine3/CATRigHub003/CATRigLArmCollarbone/CATRigLArm1/CATRigLArm2/CATRigLArmPalm/CATRigLArmDigit31
  - curve:
      serializedVersion: 2
      m_Curve:
      - serializedVersion: 2
        time: 0
        value: {x: -0.000000026937034, y: -0.06726287, z: 0.73928714, w: 0.6700226}
        inSlope: {x: 0, y: 0, z: 0, w: 0}
        outSlope: {x: 0, y: 0, z: 0, w: 0}
        tangentMode: 0
      - serializedVersion: 2
        time: 0.033333335
        value: {x: -0.000000026937034, y: -0.06726287, z: 0.73928714, w: 0.6700226}
        inSlope: {x: 0, y: 0, z: 0, w: 0}
        outSlope: {x: 0, y: 0, z: 0, w: 0}
        tangentMode: 0
      m_PreInfinity: 2
      m_PostInfinity: 2
      m_RotationOrder: 4
    path: CATRigHub002/CATRigSpine1/CATRigSpine2/CATRigSpine3/CATRigHub003/CATRigLArmCollarbone/CATRigLArm1/CATRigLArm2/CATRigLArmPalm/CATRigLArmDigit31/CATRigLArmDigit32
  - curve:
      serializedVersion: 2
      m_Curve:
      - serializedVersion: 2
        time: 0
        value: {x: -0.00056369446, y: -0.0066377744, z: 0.32670385, w: 0.9451033}
        inSlope: {x: 0, y: 0, z: 0, w: 0}
        outSlope: {x: 0, y: 0, z: 0, w: 0}
        tangentMode: 0
      - serializedVersion: 2
        time: 0.033333335
        value: {x: -0.00056369446, y: -0.0066377744, z: 0.32670385, w: 0.9451033}
        inSlope: {x: 0, y: 0, z: 0, w: 0}
        outSlope: {x: 0, y: 0, z: 0, w: 0}
        tangentMode: 0
      m_PreInfinity: 2
      m_PostInfinity: 2
      m_RotationOrder: 4
    path: CATRigHub002/CATRigSpine1/CATRigSpine2/CATRigSpine3/CATRigHub003/CATRigLArmCollarbone/CATRigLArm1/CATRigLArm2/CATRigLArmPalm/CATRigLArmDigit41
  - curve:
      serializedVersion: 2
      m_Curve:
      - serializedVersion: 2
        time: 0
        value: {x: 0.000000046925873, y: -0.07674685, z: 0.83224624, w: 0.54906845}
        inSlope: {x: 0, y: 0, z: 0, w: 0}
        outSlope: {x: 0, y: 0, z: 0, w: 0}
        tangentMode: 0
      - serializedVersion: 2
        time: 0.033333335
        value: {x: 0.000000046925873, y: -0.07674685, z: 0.83224624, w: 0.54906845}
        inSlope: {x: 0, y: 0, z: 0, w: 0}
        outSlope: {x: 0, y: 0, z: 0, w: 0}
        tangentMode: 0
      m_PreInfinity: 2
      m_PostInfinity: 2
      m_RotationOrder: 4
    path: CATRigHub002/CATRigSpine1/CATRigSpine2/CATRigSpine3/CATRigHub003/CATRigLArmCollarbone/CATRigLArm1/CATRigLArm2/CATRigLArmPalm/CATRigLArmDigit41/CATRigLArmDigit42
  - curve:
      serializedVersion: 2
      m_Curve:
      - serializedVersion: 2
        time: 0
        value: {x: -0.047499593, y: -0.023696396, z: 0.3747093, w: 0.9256215}
        inSlope: {x: 0, y: 0, z: 0, w: 0}
        outSlope: {x: 0, y: 0, z: 0, w: 0}
        tangentMode: 0
      - serializedVersion: 2
        time: 0.033333335
        value: {x: -0.047499593, y: -0.023696396, z: 0.3747093, w: 0.9256215}
        inSlope: {x: 0, y: 0, z: 0, w: 0}
        outSlope: {x: 0, y: 0, z: 0, w: 0}
        tangentMode: 0
      m_PreInfinity: 2
      m_PostInfinity: 2
      m_RotationOrder: 4
    path: CATRigHub002/CATRigSpine1/CATRigSpine2/CATRigSpine3/CATRigHub003/CATRigLArmCollarbone/CATRigLArm1/CATRigLArm2/CATRigLArmPalm/CATRigLArmDigit51
  - curve:
      serializedVersion: 2
      m_Curve:
      - serializedVersion: 2
        time: 0
        value: {x: 0.012274776, y: -0.048776347, z: 0.6740283, w: 0.7369912}
        inSlope: {x: 0, y: 0, z: 0, w: 0}
        outSlope: {x: 0, y: 0, z: 0, w: 0}
        tangentMode: 0
      - serializedVersion: 2
        time: 0.033333335
        value: {x: 0.012274776, y: -0.048776347, z: 0.6740283, w: 0.7369912}
        inSlope: {x: 0, y: 0, z: 0, w: 0}
        outSlope: {x: 0, y: 0, z: 0, w: 0}
        tangentMode: 0
      m_PreInfinity: 2
      m_PostInfinity: 2
      m_RotationOrder: 4
    path: CATRigHub002/CATRigSpine1/CATRigSpine2/CATRigSpine3/CATRigHub003/CATRigLArmCollarbone/CATRigLArm1/CATRigLArm2/CATRigLArmPalm/CATRigLArmDigit51/CATRigLArmDigit52
  - curve:
      serializedVersion: 2
      m_Curve:
      - serializedVersion: 2
        time: 0
        value: {x: 0.058183305, y: -0.6379269, z: -0.07723274, w: 0.764002}
        inSlope: {x: 0.13531767, y: -0.236544, z: -0.61613065, w: -0.28173208}
        outSlope: {x: 0.13531767, y: -0.236544, z: -0.61613065, w: -0.28173208}
        tangentMode: 0
      - serializedVersion: 2
        time: 0.06666667
        value: {x: 0.059060894, y: -0.6621945, z: -0.111432195, w: 0.73864275}
        inSlope: {x: -0.25735754, y: -0.6273758, z: -0.24507745, w: -0.58539563}
        outSlope: {x: -0.25735754, y: -0.6273758, z: -0.24507745, w: -0.58539563}
        tangentMode: 0
      - serializedVersion: 2
        time: 0.16666667
        value: {x: 0.01362037, y: -0.73672837, z: -0.10751283, w: 0.66744804}
        inSlope: {x: -0.23172194, y: -0.50618464, z: -0.06033748, w: -0.555776}
        outSlope: {x: -0.23172194, y: -0.50618464, z: -0.06033748, w: -0.555776}
        tangentMode: 0
      - serializedVersion: 2
        time: 0.3
        value: {x: 0.030131895, y: -0.76639265, z: -0.14299701, w: 0.62552875}
        inSlope: {x: 0.071497805, y: -0.2214137, z: -0.08202911, w: -0.29392543}
        outSlope: {x: 0.071497805, y: -0.2214137, z: -0.08202911, w: -0.29392543}
        tangentMode: 0
      - serializedVersion: 2
        time: 0.4666667
        value: {x: 0.033174977, y: -0.80884326, z: -0.14315078, w: 0.569368}
        inSlope: {x: 0.07548012, y: -0.07113756, z: -0.083424576, w: -0.1256803}
        outSlope: {x: 0.07548012, y: -0.07113756, z: -0.083424576, w: -0.1256803}
        tangentMode: 0
      - serializedVersion: 2
        time: 0.6666667
        value: {x: 0.047092035, y: -0.77507055, z: -0.16241036, w: 0.6088274}
        inSlope: {x: -0.049966466, y: 0.24058253, z: 0.072353885, w: 0.3285563}
        outSlope: {x: -0.049966466, y: 0.24058253, z: 0.072353885, w: 0.3285563}
        tangentMode: 0
      - serializedVersion: 2
        time: 0.8333334
        value: {x: 0.044361584, y: -0.7042374, z: -0.11825862, w: 0.6986392}
        inSlope: {x: 0.03396979, y: 0.6938795, z: 0.5396984, w: 0.7856754}
        outSlope: {x: 0.03396979, y: 0.6938795, z: 0.5396984, w: 0.7856754}
        tangentMode: 0
      - serializedVersion: 2
        time: 0.9333334
        value: {x: 0.04929773, y: -0.6488395, z: -0.072344996, w: 0.7558726}
        inSlope: {x: 0.06960512, y: 0.23996016, z: 0.13296147, w: 0.21695307}
        outSlope: {x: 0.06960512, y: 0.23996016, z: 0.13296147, w: 0.21695307}
        tangentMode: 0
      - serializedVersion: 2
        time: 1.0666667
        value: {x: 0.05730781, y: -0.6389328, z: -0.07668878, w: 0.76328206}
        inSlope: {x: 0.03198465, y: 0.042142015, z: -0.015033349, w: 0.031412274}
        outSlope: {x: 0.03198465, y: 0.042142015, z: -0.015033349, w: 0.031412274}
        tangentMode: 0
      - serializedVersion: 2
        time: 1.1666667
        value: {x: 0.058183454, y: -0.6379269, z: -0.0772327, w: 0.764002}
        inSlope: {x: -0.002301114, y: -0.0061386884, z: 0.000016316788, w: -0.004947786}
        outSlope: {x: -0.002301114, y: -0.0061386884, z: 0.000016316788, w: -0.004947786}
        tangentMode: 0
      m_PreInfinity: 2
      m_PostInfinity: 2
      m_RotationOrder: 4
    path: CATRigHub002/CATRigSpine1/CATRigSpine2/CATRigSpine3/CATRigHub003/CATRigRArmCollarbone
  - curve:
      serializedVersion: 2
      m_Curve:
      - serializedVersion: 2
        time: 0
        value: {x: 0.1083447, y: -0.6004271, z: -0.39284098, w: 0.68805873}
        inSlope: {x: 0.1715391, y: 0.7824432, z: 0.7484507, w: 1.0283697}
        outSlope: {x: 0.1715391, y: 0.7824432, z: 0.7484507, w: 1.0283697}
        tangentMode: 0
      - serializedVersion: 2
        time: 0.033333335
        value: {x: 0.11406267, y: -0.57434565, z: -0.36789262, w: 0.7223377}
        inSlope: {x: -0.029969774, y: 0.9106189, z: 0.8717326, w: 1.1553695}
        outSlope: {x: -0.029969774, y: 0.9106189, z: 0.8717326, w: 1.1553695}
        tangentMode: 0
      - serializedVersion: 2
        time: 0.10000001
        value: {x: 0.09929306, y: -0.4918963, z: -0.3217858, w: 0.8028903}
        inSlope: {x: 0.03470815, y: 1.613569, z: -0.30742013, w: 0.8498775}
        outSlope: {x: 0.03470815, y: 1.613569, z: -0.30742013, w: 0.8498775}
        tangentMode: 0
      - serializedVersion: 2
        time: 0.13333334
        value: {x: 0.108660586, y: -0.4321479, z: -0.35522014, w: 0.8217419}
        inSlope: {x: 0.54987913, y: 1.8963814, z: -1.5734457, w: 0.19696358}
        outSlope: {x: 0.54987913, y: 1.8963814, z: -1.5734457, w: 0.19696358}
        tangentMode: 0
      - serializedVersion: 2
        time: 0.16666667
        value: {x: 0.13595167, y: -0.3654709, z: -0.42668217, w: 0.8160212}
        inSlope: {x: 0.87312496, y: 2.059606, z: -2.153318, w: -0.35947937}
        outSlope: {x: 0.87312496, y: 2.059606, z: -2.153318, w: -0.35947937}
        tangentMode: 0
      - serializedVersion: 2
        time: 0.23333335
        value: {x: 0.18428124, y: -0.22618054, z: -0.5431906, w: 0.7872909}
        inSlope: {x: 0.18839344, y: 1.8835702, z: -0.8600821, w: -0.06179721}
        outSlope: {x: 0.18839344, y: 1.8835702, z: -0.8600821, w: -0.06179721}
        tangentMode: 0
      - serializedVersion: 2
        time: 0.36666667
        value: {x: 0.060651373, y: -0.08387537, z: -0.49520582, w: 0.8625877}
        inSlope: {x: -1.3895684, y: 0.35358158, z: 0.8919781, w: 0.650203}
        outSlope: {x: -1.3895684, y: 0.35358158, z: 0.8919781, w: 0.650203}
        tangentMode: 0
      - serializedVersion: 2
        time: 0.4666667
        value: {x: -0.035233796, y: -0.108303644, z: -0.38286236, w: 0.91675806}
        inSlope: {x: -0.39922905, y: -0.7754128, z: 1.3082397, w: 0.43969738}
        outSlope: {x: -0.39922905, y: -0.7754128, z: 1.3082397, w: 0.43969738}
        tangentMode: 0
      - serializedVersion: 2
        time: 0.5666667
        value: {x: -0.028563416, y: -0.1939671, z: -0.28321567, w: 0.9388023}
        inSlope: {x: 0.44593072, y: -0.67256165, z: 0.49048877, w: 0.025715195}
        outSlope: {x: 0.44593072, y: -0.67256165, z: 0.49048877, w: 0.025715195}
        tangentMode: 0
      - serializedVersion: 2
        time: 0.70000005
        value: {x: 0.06523653, y: -0.29440573, z: -0.25386754, w: 0.9190325}
        inSlope: {x: 0.79280454, y: -1.2524278, z: 0.2725438, w: -0.39130756}
        outSlope: {x: 0.79280454, y: -1.2524278, z: 0.2725438, w: -0.39130756}
        tangentMode: 0
      - serializedVersion: 2
        time: 0.8000001
        value: {x: 0.14032085, y: -0.45366597, z: -0.2408816, w: 0.84644747}
        inSlope: {x: 0.5220778, y: -1.7682755, z: -0.33985934, w: -1.1393766}
        outSlope: {x: 0.5220778, y: -1.7682755, z: -0.33985934, w: -1.1393766}
        tangentMode: 0
      - serializedVersion: 2
        time: 0.86666673
        value: {x: 0.1540048, y: -0.56774074, z: -0.2844665, w: 0.75698864}
        inSlope: {x: -0.10317912, y: -1.3718514, z: -0.7281817, w: -1.2580705}
        outSlope: {x: -0.10317912, y: -1.3718514, z: -0.7281817, w: -1.2580705}
        tangentMode: 0
      - serializedVersion: 2
        time: 0.9333334
        value: {x: 0.13587624, y: -0.6199634, z: -0.3270514, w: 0.7001574}
        inSlope: {x: -0.2756725, y: -0.2031065, z: -0.55266964, w: -0.3772588}
        outSlope: {x: -0.2756725, y: -0.2031065, z: -0.55266964, w: -0.3772588}
        tangentMode: 0
      - serializedVersion: 2
        time: 1.0333334
        value: {x: 0.11577205, y: -0.6054711, z: -0.37623397, w: 0.6917005}
        inSlope: {x: -0.15812892, y: 0.13738346, z: -0.3857209, w: -0.061643384}
        outSlope: {x: -0.15812892, y: 0.13738346, z: -0.3857209, w: -0.061643384}
        tangentMode: 0
      - serializedVersion: 2
        time: 1.1666667
        value: {x: 0.10834472, y: -0.60042703, z: -0.39284104, w: 0.6880587}
        inSlope: {x: 0.011003996, y: -0.0040501393, z: 0.025596345, w: 0.009368071}
        outSlope: {x: 0.011003996, y: -0.0040501393, z: 0.025596345, w: 0.009368071}
        tangentMode: 0
      m_PreInfinity: 2
      m_PostInfinity: 2
      m_RotationOrder: 4
    path: CATRigHub002/CATRigSpine1/CATRigSpine2/CATRigSpine3/CATRigHub003/CATRigRArmCollarbone/CATRigRArm1
  - curve:
      serializedVersion: 2
      m_Curve:
      - serializedVersion: 2
        time: 0
        value: {x: -0.0023267807, y: -0.00031953162, z: -0.79857385, w: 0.60189223}
        inSlope: {x: 0.0010907999, y: -0.000082454346, z: -0.21093248, w: -0.28330922}
        outSlope: {x: 0.0010907999, y: -0.000082454346, z: -0.21093248, w: -0.28330922}
        tangentMode: 0
      - serializedVersion: 2
        time: 0.20000002
        value: {x: -0.002052241, y: -0.00033897767, z: -0.8474378, w: 0.5308906}
        inSlope: {x: 0.00048680342, y: -0.000028938954, z: -0.07882117, w: -0.125733}
        outSlope: {x: 0.00048680342, y: -0.000028938954, z: -0.07882117, w: -0.125733}
        tangentMode: 0
      - serializedVersion: 2
        time: 0.33333334
        value: {x: -0.0020574655, y: -0.00033865497, z: -0.84662455, w: 0.5321865}
        inSlope: {x: -0.002748587, y: 0.00018436347, z: 0.45908248, w: 0.7114274}
        outSlope: {x: -0.002748587, y: 0.00018436347, z: 0.45908248, w: 0.7114274}
        tangentMode: 0
      - serializedVersion: 2
        time: 0.43333337
        value: {x: -0.0024928027, y: -0.00030580268, z: -0.7643347, w: 0.64481485}
        inSlope: {x: -0.00359079, y: 0.0003082109, z: 0.7728571, w: 0.9289894}
        outSlope: {x: -0.00359079, y: 0.0003082109, z: 0.7728571, w: 0.9289894}
        tangentMode: 0
      - serializedVersion: 2
        time: 0.6
        value: {x: -0.0027198, y: -0.0002841779, z: -0.7106526, w: 0.7035379}
        inSlope: {x: 0.00021368236, y: -0.000023972649, z: -0.054988787, w: -0.05597584}
        outSlope: {x: 0.00021368236, y: -0.000023972649, z: -0.054988787, w: -0.05597584}
        tangentMode: 0
      - serializedVersion: 2
        time: 0.8000001
        value: {x: -0.0023647356, y: -0.00031643923, z: -0.7910918, w: 0.6116928}
        inSlope: {x: 0.002393634, y: -0.00019106112, z: -0.47938317, w: -0.61903775}
        outSlope: {x: 0.002393634, y: -0.00019106112, z: -0.47938317, w: -0.61903775}
        tangentMode: 0
      - serializedVersion: 2
        time: 0.9333334
        value: {x: -0.0021978612, y: -0.00032906907, z: -0.82264215, w: 0.5685552}
        inSlope: {x: -0.00049768283, y: 0.000036515, z: 0.09001947, w: 0.12919852}
        outSlope: {x: -0.00049768283, y: 0.000036515, z: 0.09001947, w: 0.12919852}
        tangentMode: 0
      - serializedVersion: 2
        time: 1.1
        value: {x: -0.0023264491, y: -0.00031953977, z: -0.79865277, w: 0.6017875}
        inSlope: {x: -0.00018457307, y: 0.000014347028, z: 0.03616424, w: 0.048136733}
        outSlope: {x: -0.00018457307, y: 0.000014347028, z: 0.03616424, w: 0.048136733}
        tangentMode: 0
      - serializedVersion: 2
        time: 1.1666667
        value: {x: -0.0023269737, y: -0.00031949137, z: -0.7985739, w: 0.6018922}
        inSlope: {x: 0.000039911865, y: -0.0000041752396, z: -0.008288033, w: -0.010991703}
        outSlope: {x: 0.000039911865, y: -0.0000041752396, z: -0.008288033, w: -0.010991703}
        tangentMode: 0
      m_PreInfinity: 2
      m_PostInfinity: 2
      m_RotationOrder: 4
    path: CATRigHub002/CATRigSpine1/CATRigSpine2/CATRigSpine3/CATRigHub003/CATRigRArmCollarbone/CATRigRArm1/CATRigRArm2
  - curve:
      serializedVersion: 2
      m_Curve:
      - serializedVersion: 2
        time: 0
        value: {x: 0.734881, y: -0.14473946, z: -0.03238148, w: 0.6617794}
        inSlope: {x: 0.5017215, y: 0.1901914, z: -0.34535998, w: -0.5503285}
        outSlope: {x: 0.5017215, y: 0.1901914, z: -0.34535998, w: -0.5503285}
        tangentMode: 0
      - serializedVersion: 2
        time: 0.033333335
        value: {x: 0.75160503, y: -0.13839975, z: -0.04389348, w: 0.6434351}
        inSlope: {x: 0.42207688, y: 0.13888432, z: 0.5315777, w: -0.44653505}
        outSlope: {x: 0.42207688, y: 0.13888432, z: 0.5315777, w: -0.44653505}
        tangentMode: 0
      - serializedVersion: 2
        time: 0.06666667
        value: {x: 0.76301944, y: -0.13548051, z: 0.00305704, w: 0.6320104}
        inSlope: {x: 0.12506068, y: 0.02232179, z: 2.0168154, w: -0.21771309}
        outSlope: {x: 0.12506068, y: 0.02232179, z: 2.0168154, w: -0.21771309}
        tangentMode: 0
      - serializedVersion: 2
        time: 0.10000001
        value: {x: 0.7599424, y: -0.13691163, z: 0.0905609, w: 0.6289209}
        inSlope: {x: -0.19800603, y: -0.110757574, z: 2.1978636, w: -0.052961998}
        outSlope: {x: -0.19800603, y: -0.110757574, z: 2.1978636, w: -0.052961998}
        tangentMode: 0
      - serializedVersion: 2
        time: 0.13333334
        value: {x: 0.74981904, y: -0.14286435, z: 0.14958128, w: 0.6284796}
        inSlope: {x: -0.0313747, y: -0.17989644, z: 0.48579556, w: -0.085870035}
        outSlope: {x: -0.0313747, y: -0.17989644, z: 0.48579556, w: -0.085870035}
        tangentMode: 0
      - serializedVersion: 2
        time: 0.16666667
        value: {x: 0.75785077, y: -0.14890473, z: 0.12294727, w: 0.62319624}
        inSlope: {x: 0.34136108, y: -0.17579463, z: -1.7172078, w: -0.2049708}
        outSlope: {x: 0.34136108, y: -0.17579463, z: -1.7172078, w: -0.2049708}
        tangentMode: 0
      - serializedVersion: 2
        time: 0.20000002
        value: {x: 0.77257645, y: -0.15458399, z: 0.035100736, w: 0.6148149}
        inSlope: {x: 0.2807977, y: -0.20735618, z: -2.3704736, w: -0.23334053}
        outSlope: {x: 0.2807977, y: -0.20735618, z: -2.3704736, w: -0.23334053}
        tangentMode: 0
      - serializedVersion: 2
        time: 0.23333335
        value: {x: 0.7765706, y: -0.16272847, z: -0.03508433, w: 0.6076402}
        inSlope: {x: 0.14385761, y: -0.34145215, z: -1.202493, w: -0.28831783}
        outSlope: {x: 0.14385761, y: -0.34145215, z: -1.202493, w: -0.28831783}
        tangentMode: 0
      - serializedVersion: 2
        time: 0.3
        value: {x: 0.7972425, y: -0.20142424, z: -0.016211288, w: 0.568832}
        inSlope: {x: 0.5001918, y: -0.7501459, z: 0.9124975, w: -0.95426476}
        outSlope: {x: 0.5001918, y: -0.7501459, z: 0.9124975, w: -0.95426476}
        tangentMode: 0
      - serializedVersion: 2
        time: 0.36666667
        value: {x: 0.82676226, y: -0.23980005, z: 0.038063314, w: 0.5074557}
        inSlope: {x: 0.18119305, y: -0.04795848, z: 0.5891168, w: -0.3472281}
        outSlope: {x: 0.18119305, y: -0.04795848, z: 0.5891168, w: -0.3472281}
        tangentMode: 0
      - serializedVersion: 2
        time: 0.4666667
        value: {x: 0.8300058, y: -0.1926937, z: 0.077171996, w: 0.517691}
        inSlope: {x: 0.23483738, y: 0.29925615, z: 0.07703145, w: -0.27722442}
        outSlope: {x: 0.23483738, y: 0.29925615, z: 0.07703145, w: -0.27722442}
        tangentMode: 0
      - serializedVersion: 2
        time: 0.53333336
        value: {x: 0.84736955, y: -0.1926992, z: 0.0683167, w: 0.490066}
        inSlope: {x: 0.07979923, y: -0.08447297, z: -0.20927873, w: -0.13948235}
        outSlope: {x: 0.07979923, y: -0.08447297, z: -0.20927873, w: -0.13948235}
        tangentMode: 0
      - serializedVersion: 2
        time: 0.6333334
        value: {x: 0.8410256, y: -0.19151677, z: 0.03569518, w: 0.504701}
        inSlope: {x: -0.048345923, y: 0.038883746, z: -0.4241733, w: 0.12601197}
        outSlope: {x: -0.048345923, y: 0.038883746, z: -0.4241733, w: 0.12601197}
        tangentMode: 0
      - serializedVersion: 2
        time: 0.73333335
        value: {x: 0.82988304, y: -0.20024958, z: 0.023724174, w: 0.5202224}
        inSlope: {x: -0.17528683, y: -0.21876901, z: 0.23769212, w: 0.18354537}
        outSlope: {x: -0.17528683, y: -0.21876901, z: 0.23769212, w: 0.18354537}
        tangentMode: 0
      - serializedVersion: 2
        time: 0.8000001
        value: {x: 0.8139665, y: -0.20554754, z: 0.032243215, w: 0.5423736}
        inSlope: {x: -0.41715607, y: 0.30778396, z: -0.28508192, w: 0.73583573}
        outSlope: {x: -0.41715607, y: 0.30778396, z: -0.28508192, w: 0.73583573}
        tangentMode: 0
      - serializedVersion: 2
        time: 0.86666673
        value: {x: 0.7707895, y: -0.16135208, z: -0.009989642, w: 0.616238}
        inSlope: {x: -0.7135132, y: 0.67674387, z: -0.6154719, w: 1.0772117}
        outSlope: {x: -0.7135132, y: 0.67674387, z: -0.6154719, w: 1.0772117}
        tangentMode: 0
      - serializedVersion: 2
        time: 0.9333334
        value: {x: 0.7366411, y: -0.13552438, z: -0.033276685, w: 0.6617293}
        inSlope: {x: -0.21273482, y: 0.085175015, z: -0.110267386, w: 0.25346145}
        outSlope: {x: -0.21273482, y: 0.085175015, z: -0.110267386, w: 0.25346145}
        tangentMode: 0
      - serializedVersion: 2
        time: 1.0333334
        value: {x: 0.7354145, y: -0.14250971, z: -0.032420695, w: 0.66166866}
        inSlope: {x: 0.002470293, y: -0.068236426, z: 0.016904484, w: -0.01653846}
        outSlope: {x: 0.002470293, y: -0.068236426, z: 0.016904484, w: -0.01653846}
        tangentMode: 0
      - serializedVersion: 2
        time: 1.1666667
        value: {x: 0.734881, y: -0.14473939, z: -0.032381523, w: 0.66177934}
        inSlope: {x: 0.0029593734, y: 0.002383592, z: 0.00024653994, w: -0.002751949}
        outSlope: {x: 0.0029593734, y: 0.002383592, z: 0.00024653994, w: -0.002751949}
        tangentMode: 0
      m_PreInfinity: 2
      m_PostInfinity: 2
      m_RotationOrder: 4
    path: CATRigHub002/CATRigSpine1/CATRigSpine2/CATRigSpine3/CATRigHub003/CATRigRArmCollarbone/CATRigRArm1/CATRigRArm2/CATRigRArmPalm
  - curve:
      serializedVersion: 2
      m_Curve:
      - serializedVersion: 2
        time: 0
        value: {x: -0.42765683, y: -0.47376308, z: 0.02104433, w: 0.7695553}
        inSlope: {x: 0, y: 0, z: 0, w: 0}
        outSlope: {x: 0, y: 0, z: 0, w: 0}
        tangentMode: 0
      - serializedVersion: 2
        time: 0.033333335
        value: {x: -0.42765683, y: -0.47376308, z: 0.02104433, w: 0.7695553}
        inSlope: {x: 0, y: 0, z: 0, w: 0}
        outSlope: {x: 0, y: 0, z: 0, w: 0}
        tangentMode: 0
      m_PreInfinity: 2
      m_PostInfinity: 2
      m_RotationOrder: 4
    path: CATRigHub002/CATRigSpine1/CATRigSpine2/CATRigSpine3/CATRigHub003/CATRigRArmCollarbone/CATRigRArm1/CATRigRArm2/CATRigRArmPalm/CATRigRArmDigit11
  - curve:
      serializedVersion: 2
      m_Curve:
      - serializedVersion: 2
        time: 0
        value: {x: -0.0056967335, y: -0.017585088, z: 0.37015927, w: 0.92878443}
        inSlope: {x: 0, y: 0, z: 0, w: 0}
        outSlope: {x: 0, y: 0, z: 0, w: 0}
        tangentMode: 0
      - serializedVersion: 2
        time: 0.033333335
        value: {x: -0.0056967335, y: -0.017585088, z: 0.37015927, w: 0.92878443}
        inSlope: {x: 0, y: 0, z: 0, w: 0}
        outSlope: {x: 0, y: 0, z: 0, w: 0}
        tangentMode: 0
      m_PreInfinity: 2
      m_PostInfinity: 2
      m_RotationOrder: 4
    path: CATRigHub002/CATRigSpine1/CATRigSpine2/CATRigSpine3/CATRigHub003/CATRigRArmCollarbone/CATRigRArm1/CATRigRArm2/CATRigRArmPalm/CATRigRArmDigit21
  - curve:
      serializedVersion: 2
      m_Curve:
      - serializedVersion: 2
        time: 0
        value: {x: 0.0036513782, y: 0.04914225, z: 0.6934056, w: 0.71886045}
        inSlope: {x: 0, y: 0, z: 0, w: 0}
        outSlope: {x: 0, y: 0, z: 0, w: 0}
        tangentMode: 0
      - serializedVersion: 2
        time: 0.033333335
        value: {x: 0.0036513782, y: 0.04914225, z: 0.6934056, w: 0.71886045}
        inSlope: {x: 0, y: 0, z: 0, w: 0}
        outSlope: {x: 0, y: 0, z: 0, w: 0}
        tangentMode: 0
      m_PreInfinity: 2
      m_PostInfinity: 2
      m_RotationOrder: 4
    path: CATRigHub002/CATRigSpine1/CATRigSpine2/CATRigSpine3/CATRigHub003/CATRigRArmCollarbone/CATRigRArm1/CATRigRArm2/CATRigRArmPalm/CATRigRArmDigit21/CATRigRArmDigit22
  - curve:
      serializedVersion: 2
      m_Curve:
      - serializedVersion: 2
        time: 0
        value: {x: 0.0038038138, y: -0.013864957, z: 0.32079452, w: 0.94703966}
        inSlope: {x: 0, y: 0, z: 0, w: 0}
        outSlope: {x: 0, y: 0, z: 0, w: 0}
        tangentMode: 0
      - serializedVersion: 2
        time: 0.033333335
        value: {x: 0.0038038138, y: -0.013864957, z: 0.32079452, w: 0.94703966}
        inSlope: {x: 0, y: 0, z: 0, w: 0}
        outSlope: {x: 0, y: 0, z: 0, w: 0}
        tangentMode: 0
      m_PreInfinity: 2
      m_PostInfinity: 2
      m_RotationOrder: 4
    path: CATRigHub002/CATRigSpine1/CATRigSpine2/CATRigSpine3/CATRigHub003/CATRigRArmCollarbone/CATRigRArm1/CATRigRArm2/CATRigRArmPalm/CATRigRArmDigit31
  - curve:
      serializedVersion: 2
      m_Curve:
      - serializedVersion: 2
        time: 0
        value: {x: 0.00000003488325, y: 0.051844496, z: 0.7405279, w: 0.6700228}
        inSlope: {x: 0, y: 0, z: 0, w: 0}
        outSlope: {x: 0, y: 0, z: 0, w: 0}
        tangentMode: 0
      - serializedVersion: 2
        time: 0.033333335
        value: {x: 0.00000003488325, y: 0.051844496, z: 0.7405279, w: 0.6700228}
        inSlope: {x: 0, y: 0, z: 0, w: 0}
        outSlope: {x: 0, y: 0, z: 0, w: 0}
        tangentMode: 0
      m_PreInfinity: 2
      m_PostInfinity: 2
      m_RotationOrder: 4
    path: CATRigHub002/CATRigSpine1/CATRigSpine2/CATRigSpine3/CATRigHub003/CATRigRArmCollarbone/CATRigRArm1/CATRigRArm2/CATRigRArmPalm/CATRigRArmDigit31/CATRigRArmDigit32
  - curve:
      serializedVersion: 2
      m_Curve:
      - serializedVersion: 2
        time: 0
        value: {x: 0.0003442613, y: -0.0016042701, z: 0.3212504, w: 0.9469929}
        inSlope: {x: 0, y: 0, z: 0, w: 0}
        outSlope: {x: 0, y: 0, z: 0, w: 0}
        tangentMode: 0
      - serializedVersion: 2
        time: 0.033333335
        value: {x: 0.0003442613, y: -0.0016042701, z: 0.3212504, w: 0.9469929}
        inSlope: {x: 0, y: 0, z: 0, w: 0}
        outSlope: {x: 0, y: 0, z: 0, w: 0}
        tangentMode: 0
      m_PreInfinity: 2
      m_PostInfinity: 2
      m_RotationOrder: 4
    path: CATRigHub002/CATRigSpine1/CATRigSpine2/CATRigSpine3/CATRigHub003/CATRigRArmCollarbone/CATRigRArm1/CATRigRArm2/CATRigRArmPalm/CATRigRArmDigit41
  - curve:
      serializedVersion: 2
      m_Curve:
      - serializedVersion: 2
        time: 0
        value: {x: -0.0000000072890125, y: 0.05938955, z: 0.8336646, w: 0.5490685}
        inSlope: {x: 0, y: 0, z: 0, w: 0}
        outSlope: {x: 0, y: 0, z: 0, w: 0}
        tangentMode: 0
      - serializedVersion: 2
        time: 0.033333335
        value: {x: -0.0000000072890125, y: 0.05938955, z: 0.8336646, w: 0.5490685}
        inSlope: {x: 0, y: 0, z: 0, w: 0}
        outSlope: {x: 0, y: 0, z: 0, w: 0}
        tangentMode: 0
      m_PreInfinity: 2
      m_PostInfinity: 2
      m_RotationOrder: 4
    path: CATRigHub002/CATRigSpine1/CATRigSpine2/CATRigSpine3/CATRigHub003/CATRigRArmCollarbone/CATRigRArm1/CATRigRArm2/CATRigRArmPalm/CATRigRArmDigit41/CATRigRArmDigit42
  - curve:
      serializedVersion: 2
      m_Curve:
      - serializedVersion: 2
        time: 0
        value: {x: 0.047298998, y: 0.014191252, z: 0.36978465, w: 0.92780423}
        inSlope: {x: 0, y: 0, z: 0, w: 0}
        outSlope: {x: 0, y: 0, z: 0, w: 0}
        tangentMode: 0
      - serializedVersion: 2
        time: 0.033333335
        value: {x: 0.047298998, y: 0.014191252, z: 0.36978465, w: 0.92780423}
        inSlope: {x: 0, y: 0, z: 0, w: 0}
        outSlope: {x: 0, y: 0, z: 0, w: 0}
        tangentMode: 0
      m_PreInfinity: 2
      m_PostInfinity: 2
      m_RotationOrder: 4
    path: CATRigHub002/CATRigSpine1/CATRigSpine2/CATRigSpine3/CATRigHub003/CATRigRArmCollarbone/CATRigRArm1/CATRigRArm2/CATRigRArmPalm/CATRigRArmDigit51
  - curve:
      serializedVersion: 2
      m_Curve:
      - serializedVersion: 2
        time: 0
        value: {x: -0.012275359, y: 0.034721196, z: 0.6748984, w: 0.73699117}
        inSlope: {x: 0, y: 0, z: 0, w: 0}
        outSlope: {x: 0, y: 0, z: 0, w: 0}
        tangentMode: 0
      - serializedVersion: 2
        time: 0.033333335
        value: {x: -0.012275359, y: 0.034721196, z: 0.6748984, w: 0.73699117}
        inSlope: {x: 0, y: 0, z: 0, w: 0}
        outSlope: {x: 0, y: 0, z: 0, w: 0}
        tangentMode: 0
      m_PreInfinity: 2
      m_PostInfinity: 2
      m_RotationOrder: 4
    path: CATRigHub002/CATRigSpine1/CATRigSpine2/CATRigSpine3/CATRigHub003/CATRigRArmCollarbone/CATRigRArm1/CATRigRArm2/CATRigRArmPalm/CATRigRArmDigit51/CATRigRArmDigit52
  - curve:
      serializedVersion: 2
      m_Curve:
      - serializedVersion: 2
        time: 0
        value: {x: 0.11559503, y: -0.03758743, z: -0.18584247, w: 0.9750321}
        inSlope: {x: -0.5600879, y: 0.28345862, z: -0.4646386, w: -0.021666883}
        outSlope: {x: -0.5600879, y: 0.28345862, z: -0.4646386, w: -0.021666883}
        tangentMode: 0
      - serializedVersion: 2
        time: 0.06666667
        value: {x: 0.07039465, y: -0.012673923, z: -0.21461883, w: 0.9740753}
        inSlope: {x: -0.9277693, y: 0.3933602, z: -0.18454088, w: 0.029585656}
        outSlope: {x: -0.9277693, y: 0.3933602, z: -0.18454088, w: 0.029585656}
        tangentMode: 0
      - serializedVersion: 2
        time: 0.13333334
        value: {x: -0.0025128787, y: -0.012039114, z: -0.19236568, w: 0.98124623}
        inSlope: {x: -0.9657216, y: -0.66361743, z: 0.799286, w: 0.1389456}
        outSlope: {x: -0.9657216, y: -0.66361743, z: 0.799286, w: 0.1389456}
        tangentMode: 0
      - serializedVersion: 2
        time: 0.20000002
        value: {x: -0.039750274, y: -0.08506298, z: -0.13578509, w: 0.9862792}
        inSlope: {x: -0.1816739, y: -0.9065133, z: 0.47865772, w: -0.006641156}
        outSlope: {x: -0.1816739, y: -0.9065133, z: 0.47865772, w: -0.006641156}
        tangentMode: 0
      - serializedVersion: 2
        time: 0.3
        value: {x: -0.048636496, y: -0.0920803, z: -0.15322143, w: 0.9826897}
        inSlope: {x: -0.17849074, y: 0.43789467, z: -0.6150371, w: -0.06631047}
        outSlope: {x: -0.17849074, y: 0.43789467, z: -0.6150371, w: -0.06631047}
        tangentMode: 0
      - serializedVersion: 2
        time: 0.43333337
        value: {x: -0.06130091, y: -0.041222766, z: -0.2391687, w: 0.96816385}
        inSlope: {x: 0.102465026, y: 0.28762922, z: -0.36976802, w: -0.07139415}
        outSlope: {x: 0.102465026, y: 0.28762922, z: -0.36976802, w: -0.07139415}
        tangentMode: 0
      - serializedVersion: 2
        time: 0.6666667
        value: {x: -0.009072119, y: -0.0076655676, z: -0.23645948, w: 0.97156876}
        inSlope: {x: 0.11730744, y: -0.12032209, z: 0.13832536, w: 0.033968396}
        outSlope: {x: 0.11730744, y: -0.12032209, z: 0.13832536, w: 0.033968396}
        tangentMode: 0
      - serializedVersion: 2
        time: 0.86666673
        value: {x: 0.021438543, y: -0.012625181, z: -0.22526024, w: 0.9739809}
        inSlope: {x: 0.31427217, y: -0.027324677, z: 0.13405883, w: 0.023446085}
        outSlope: {x: 0.31427217, y: -0.027324677, z: 0.13405883, w: 0.023446085}
        tangentMode: 0
      - serializedVersion: 2
        time: 1.1666667
        value: {x: 0.115595065, y: -0.03758751, z: -0.18584259, w: 0.9750321}
        inSlope: {x: 0.21958596, y: -0.09352067, z: 0.07606663, w: -0.014063729}
        outSlope: {x: 0.21958596, y: -0.09352067, z: 0.07606663, w: -0.014063729}
        tangentMode: 0
      m_PreInfinity: 2
      m_PostInfinity: 2
      m_RotationOrder: 4
    path: CATRigHub002/CATRigSpine1/CATRigSpine2/CATRigSpine3/CATRigHub003/CATRigSpine11
  - curve:
      serializedVersion: 2
      m_Curve:
      - serializedVersion: 2
        time: 0
        value: {x: 0.025406256, y: 0.03141012, z: -0.11926985, w: 0.9920396}
        inSlope: {x: -0.22429217, y: -0.026275197, z: -0.025369672, w: 0.002658963}
        outSlope: {x: -0.22429217, y: -0.026275197, z: -0.025369672, w: 0.002658963}
        tangentMode: 0
      - serializedVersion: 2
        time: 0.06666667
        value: {x: 0.002882495, y: 0.032729108, z: -0.11774166, w: 0.9925006}
        inSlope: {x: -0.553954, y: -0.040075853, z: 0.3065296, w: 0.034794502}
        outSlope: {x: -0.553954, y: -0.040075853, z: 0.3065296, w: 0.034794502}
        tangentMode: 0
      - serializedVersion: 2
        time: 0.13333334
        value: {x: -0.038353913, y: 0.0029361038, z: -0.060195986, w: 0.99744517}
        inSlope: {x: -0.35030454, y: -1.0380933, z: 1.3328059, w: 0.056104664}
        outSlope: {x: -0.35030454, y: -1.0380933, z: 1.3328059, w: 0.056104664}
        tangentMode: 0
      - serializedVersion: 2
        time: 0.20000002
        value: {x: -0.031058444, y: -0.08539082, z: 0.027669817, w: 0.99547887}
        inSlope: {x: 0.35467532, y: -1.0259115, z: 0.8291342, w: -0.08097319}
        outSlope: {x: 0.35467532, y: -1.0259115, z: 0.8291342, w: -0.08097319}
        tangentMode: 0
      - serializedVersion: 2
        time: 0.3
        value: {x: -0.024231328, y: -0.099944666, z: 0.026677966, w: 0.9943401}
        inSlope: {x: -0.28644383, y: 0.3731808, z: -0.58367646, w: 0.042910878}
        outSlope: {x: -0.28644383, y: 0.3731808, z: -0.58367646, w: 0.042910878}
        tangentMode: 0
      - serializedVersion: 2
        time: 0.43333337
        value: {x: -0.052559543, y: -0.05458189, z: -0.059683952, w: 0.9953372}
        inSlope: {x: 0.017156137, y: 0.29213068, z: -0.38158566, w: -0.0048100953}
        outSlope: {x: 0.017156137, y: 0.29213068, z: -0.38158566, w: -0.0048100953}
        tangentMode: 0
      - serializedVersion: 2
        time: 0.6666667
        value: {x: -0.009522258, y: -0.009147381, z: -0.058890995, w: 0.9981771}
        inSlope: {x: 0.1490006, y: -0.08221226, z: 0.12814727, w: 0.008440021}
        outSlope: {x: 0.1490006, y: -0.08221226, z: 0.12814727, w: 0.008440021}
        tangentMode: 0
      - serializedVersion: 2
        time: 0.86666673
        value: {x: 0.006129383, y: -0.00021923336, z: -0.06865749, w: 0.9976215}
        inSlope: {x: 0.10744592, y: 0.13696498, z: -0.108927764, w: -0.008140506}
        outSlope: {x: 0.10744592, y: 0.13696498, z: -0.108927764, w: -0.008140506}
        tangentMode: 0
      - serializedVersion: 2
        time: 1.1666667
        value: {x: 0.025406182, y: 0.031410113, z: -0.11926952, w: 0.9920397}
        inSlope: {x: 0.009729667, y: 0.053180434, z: -0.19228305, w: -0.024370573}
        outSlope: {x: 0.009729667, y: 0.053180434, z: -0.19228305, w: -0.024370573}
        tangentMode: 0
      m_PreInfinity: 2
      m_PostInfinity: 2
      m_RotationOrder: 4
    path: CATRigHub002/CATRigSpine1/CATRigSpine2/CATRigSpine3/CATRigHub003/CATRigSpine11/CATRigSpine21
  m_CompressedRotationCurves: []
  m_EulerCurves: []
  m_PositionCurves:
  - curve:
      serializedVersion: 2
      m_Curve:
      - serializedVersion: 2
        time: 0
        value: {x: -0.0005151371, y: 0.036650393, z: -0.00037118222}
        inSlope: {x: 0.008717785, y: 0.004762415, z: 0.0011675828}
        outSlope: {x: 0.008717785, y: 0.004762415, z: 0.0011675828}
        tangentMode: 0
      - serializedVersion: 2
        time: 0.033333335
        value: {x: -0.0002245443, y: 0.03680915, z: -0.00033226286}
        inSlope: {x: 0.012731689, y: 0.006889381, z: 0.0053142398}
        outSlope: {x: 0.012731695, y: 0.006889811, z: 0.0053142416}
        tangentMode: 0
      - serializedVersion: 2
        time: 0.06666667
        value: {x: 0.0003336422, y: 0.037109714, z: -0.000016899408}
        inSlope: {x: 0.019431489, y: 0.013494687, z: 0.0148673}
        outSlope: {x: 0.0194315, y: 0.013495466, z: 0.014867298}
        tangentMode: 0
      - serializedVersion: 2
        time: 0.1
        value: {x: 0.0010708887, y: 0.037708808, z: 0.0006588909}
        inSlope: {x: 0.020077556, y: 0.022651285, z: 0.022441344}
        outSlope: {x: 0.02007755, y: 0.022651087, z: 0.02244134}
        tangentMode: 0
      - serializedVersion: 2
        time: 0.13333334
        value: {x: 0.0016721464, y: 0.03861981, z: 0.0014791918}
        inSlope: {x: 0.01145407, y: 0.02827831, z: 0.020884536}
        outSlope: {x: 0.011454096, y: 0.028279204, z: 0.02088462}
        tangentMode: 0
      - serializedVersion: 2
        time: 0.16666667
        value: {x: 0.0018344932, y: 0.039594054, z: 0.002051196}
        inSlope: {x: -0.0015526261, y: 0.025635619, z: 0.011160139}
        outSlope: {x: -0.0015526608, y: 0.025636487, z: 0.0111601595}
        tangentMode: 0
      - serializedVersion: 2
        time: 0.2
        value: {x: 0.001568637, y: 0.040328845, z: 0.0022232004}
        inSlope: {x: -0.010688436, y: 0.016877942, z: 0.0018652738}
        outSlope: {x: -0.010688495, y: 0.016878525, z: 0.001865201}
        tangentMode: 0
      - serializedVersion: 2
        time: 0.23333333
        value: {x: 0.0011219307, y: 0.040719233, z: 0.0021755449}
        inSlope: {x: -0.013082627, y: 0.00755595, z: -0.0015412897}
        outSlope: {x: -0.01308258, y: 0.007555773, z: -0.0015412302}
        tangentMode: 0
      - serializedVersion: 2
        time: 0.26666668
        value: {x: 0.0006964642, y: 0.040832512, z: 0.0021204478}
        inSlope: {x: -0.011658055, y: 0.0007280125, z: -0.0016005624}
        outSlope: {x: -0.01165811, y: 0.0007265802, z: -0.0016005959}
        tangentMode: 0
      - serializedVersion: 2
        time: 0.3
        value: {x: 0.00034472247, y: 0.040767733, z: 0.0020688372}
        inSlope: {x: -0.009905962, y: -0.0041922, z: -0.003048478}
        outSlope: {x: -0.009905999, y: -0.0041919155, z: -0.003048459}
        tangentMode: 0
      - serializedVersion: 2
        time: 0.33333334
        value: {x: 0.000036063197, y: 0.040553078, z: 0.0019172144}
        inSlope: {x: -0.009163344, y: -0.007191358, z: -0.0067691514}
        outSlope: {x: -0.00916337, y: -0.007190611, z: -0.006769143}
        tangentMode: 0
      - serializedVersion: 2
        time: 0.36666667
        value: {x: -0.00026616993, y: 0.040288348, z: 0.0016175597}
        inSlope: {x: -0.0093640685, y: -0.007944287, z: -0.010600206}
        outSlope: {x: -0.009364078, y: -0.00794481, z: -0.010600249}
        tangentMode: 0
      - serializedVersion: 2
        time: 0.4
        value: {x: -0.00058821053, y: 0.04002342, z: 0.0012105303}
        inSlope: {x: -0.010010491, y: -0.007691405, z: -0.012800188}
        outSlope: {x: -0.010010503, y: -0.0076910993, z: -0.0128002055}
        tangentMode: 0
      - serializedVersion: 2
        time: 0.46666667
        value: {x: -0.001277621, y: 0.039534286, z: 0.00032477683}
        inSlope: {x: -0.009756463, y: -0.0074186646, z: -0.012799353}
        outSlope: {x: -0.0097564915, y: -0.0074193403, z: -0.012799362}
        tangentMode: 0
      - serializedVersion: 2
        time: 0.5
        value: {x: -0.0015839735, y: 0.03928097, z: -0.0000890829}
        inSlope: {x: -0.008331123, y: -0.00774686, z: -0.011892134}
        outSlope: {x: -0.008331088, y: -0.0077467435, z: -0.011892094}
        tangentMode: 0
      - serializedVersion: 2
        time: 0.6
        value: {x: -0.0021861373, y: 0.038604487, z: -0.0010647045}
        inSlope: {x: -0.0038651025, y: -0.0041540433, z: -0.006789941}
        outSlope: {x: -0.003865142, y: -0.004153953, z: -0.0067900615}
        tangentMode: 0
      - serializedVersion: 2
        time: 0.7
        value: {x: -0.002258671, y: 0.038342554, z: -0.0013104593}
        inSlope: {x: 0.0026013847, y: -0.002816061, z: 0.0023729564}
        outSlope: {x: 0.002601332, y: -0.0028147479, z: 0.0023729356}
        tangentMode: 0
      - serializedVersion: 2
        time: 0.8
        value: {x: -0.0018524092, y: 0.038067676, z: -0.00075943413}
        inSlope: {x: 0.0047871945, y: -0.0019539024, z: 0.006884465}
        outSlope: {x: 0.0047872504, y: -0.0019541131, z: 0.006884541}
        tangentMode: 0
      - serializedVersion: 2
        time: 0.8333333
        value: {x: -0.0016814342, y: 0.038012512, z: -0.0005254964}
        inSlope: {x: 0.0058090794, y: -0.0015197821, z: 0.006644342}
        outSlope: {x: 0.0058089923, y: -0.0015194471, z: 0.00664427}
        tangentMode: 0
      - serializedVersion: 2
        time: 0.8666667
        value: {x: -0.0014651382, y: 0.03796637, z: -0.00031647898}
        inSlope: {x: 0.0070719114, y: -0.0014409734, z: 0.005144648}
        outSlope: {x: 0.0070719975, y: -0.0014407798, z: 0.005144708}
        tangentMode: 0
      - serializedVersion: 2
        time: 0.9
        value: {x: -0.0012099681, y: 0.037916478, z: -0.00018251657}
        inSlope: {x: 0.007663174, y: -0.0017960919, z: 0.002515719}
        outSlope: {x: 0.007663065, y: -0.0017946771, z: 0.0025156862}
        tangentMode: 0
      - serializedVersion: 2
        time: 0.93333334
        value: {x: -0.00095426146, y: 0.03784667, z: -0.0001487655}
        inSlope: {x: 0.006991407, y: -0.002659523, z: -0.000111009605}
        outSlope: {x: 0.00699145, y: -0.0026594782, z: -0.000111004134}
        tangentMode: 0
      - serializedVersion: 2
        time: 0.96666664
        value: {x: -0.00074387196, y: 0.03773911, z: -0.00018991671}
        inSlope: {x: 0.005181979, y: -0.003939038, z: -0.0015505939}
        outSlope: {x: 0.0051819077, y: -0.003939336, z: -0.0015505615}
        tangentMode: 0
      - serializedVersion: 2
        time: 1
        value: {x: -0.00060879806, y: 0.037584018, z: -0.00025213778}
        inSlope: {x: 0.0029629988, y: -0.005207994, z: -0.0016163139}
        outSlope: {x: 0.002963023, y: -0.0052078506, z: -0.0016163288}
        tangentMode: 0
      - serializedVersion: 2
        time: 1.0333333
        value: {x: -0.0005463367, y: 0.037391894, z: -0.0002976721}
        inSlope: {x: 0.0012420905, y: -0.0059402734, z: -0.0010675611}
        outSlope: {x: 0.0012420831, y: -0.0059407046, z: -0.0010675454}
        tangentMode: 0
      - serializedVersion: 2
        time: 1.1
        value: {x: -0.00051925145, y: 0.036992863, z: -0.00034096208}
        inSlope: {x: 0.00015491158, y: -0.0056121657, z: -0.00050643046}
        outSlope: {x: 0.00015491866, y: -0.005611893, z: -0.0005064307}
        tangentMode: 0
      - serializedVersion: 2
        time: 1.1666666
        value: {x: -0.0005151372, y: 0.036650393, z: -0.00037118103}
        inSlope: {x: 0.000015778558, y: -0.0049028764, z: -0.00042333588}
        outSlope: {x: 0.000015778558, y: -0.0049028764, z: -0.00042333588}
        tangentMode: 0
      m_PreInfinity: 2
      m_PostInfinity: 2
      m_RotationOrder: 4
    path: CATRigHub002
  m_ScaleCurves:
  - curve:
      serializedVersion: 2
      m_Curve:
      - serializedVersion: 2
        time: 0
        value: {x: 1, y: 1, z: 1}
        inSlope: {x: 0, y: 0, z: 0}
        outSlope: {x: 0, y: 0, z: 0}
        tangentMode: 0
      - serializedVersion: 2
        time: 1.1666667
        value: {x: 1, y: 1, z: 1}
        inSlope: {x: 0, y: 0, z: 0}
        outSlope: {x: 0, y: 0, z: 0}
        tangentMode: 0
      m_PreInfinity: 2
      m_PostInfinity: 2
      m_RotationOrder: 4
    path: CATRigHub002
  m_FloatCurves: []
  m_PPtrCurves: []
  m_SampleRate: 30
  m_WrapMode: 0
  m_Bounds:
    m_Center: {x: 0, y: 0, z: 0}
    m_Extent: {x: 0, y: 0, z: 0}
  m_ClipBindingConstant:
    genericBindings: []
    pptrCurveMapping: []
  m_AnimationClipSettings:
    serializedVersion: 2
    m_AdditiveReferencePoseClip: {fileID: 0}
    m_AdditiveReferencePoseTime: 0
    m_StartTime: 0
    m_StopTime: 1.1666667
    m_OrientationOffsetY: 0
    m_Level: 0
    m_CycleOffset: 0
    m_HasAdditiveReferencePose: 0
    m_LoopTime: 0
    m_LoopBlend: 0
    m_LoopBlendOrientation: 0
    m_LoopBlendPositionY: 0
    m_LoopBlendPositionXZ: 0
    m_KeepOriginalOrientation: 0
    m_KeepOriginalPositionY: 1
    m_KeepOriginalPositionXZ: 0
    m_HeightFromFeet: 0
    m_Mirror: 0
  m_EditorCurves: []
  m_EulerEditorCurves: []
  m_HasGenericRootTransform: 0
  m_HasMotionFloatCurves: 0
  m_GenerateMotionCurves: 0
  m_Events: []
