%YAML 1.1
%TAG !u! tag:unity3d.com,2011:
--- !u!74 &7400000
AnimationClip:
  m_ObjectHideFlags: 0
  m_PrefabParentObject: {fileID: 0}
  m_PrefabInternal: {fileID: 0}
  m_Name: Walking Backwards
  serializedVersion: 6
  m_Legacy: 0
  m_Compressed: 0
  m_UseHighQualityCurve: 1
  m_RotationCurves:
  - curve:
      serializedVersion: 2
      m_Curve:
      - serializedVersion: 2
        time: 0
        value: {x: 0.3577778, y: -0.27557492, z: -0.6340118, w: 0.62775993}
        inSlope: {x: 0.048770603, y: 0.4301968, z: -0.24876057, w: -0.09705483}
        outSlope: {x: 0.048770603, y: 0.4301968, z: -0.24876057, w: -0.09705483}
        tangentMode: 0
      - serializedVersion: 2
        time: 0.16666667
        value: {x: 0.36876997, y: -0.25150385, z: -0.6440568, w: 0.621245}
        inSlope: {x: 0.10214387, y: -0.21299797, z: 0.11835067, w: -0.024785396}
        outSlope: {x: 0.10214387, y: -0.21299797, z: 0.11835067, w: -0.024785396}
        tangentMode: 0
      - serializedVersion: 2
        time: 0.36666667
        value: {x: 0.351022, y: -0.31597307, z: -0.61052305, w: 0.6357721}
        inSlope: {x: -0.2678024, y: -0.26589936, z: 0.056039393, w: 0.07040976}
        outSlope: {x: -0.2678024, y: -0.26589936, z: 0.056039393, w: 0.07040976}
        tangentMode: 0
      - serializedVersion: 2
        time: 0.53333336
        value: {x: 0.34501246, y: -0.3487831, z: -0.60772234, w: 0.62449205}
        inSlope: {x: 0.15539856, y: -0.27727446, z: 0.09171717, w: -0.15162426}
        outSlope: {x: 0.15539856, y: -0.27727446, z: 0.09171717, w: -0.15162426}
        tangentMode: 0
      - serializedVersion: 2
        time: 0.70000005
        value: {x: 0.35756966, y: -0.35830468, z: -0.59915715, w: 0.62030023}
        inSlope: {x: -0.018458981, y: 0.38927314, z: -0.09075259, w: 0.14526668}
        outSlope: {x: -0.018458981, y: 0.38927314, z: -0.09075259, w: 0.14526668}
        tangentMode: 0
      - serializedVersion: 2
        time: 0.8333334
        value: {x: 0.35519946, y: -0.28760108, z: -0.62606645, w: 0.63179106}
        inSlope: {x: 0.060304984, y: 0.4153129, z: -0.23023368, w: -0.072146036}
        outSlope: {x: 0.060304984, y: 0.4153129, z: -0.23023368, w: -0.072146036}
        tangentMode: 0
      - serializedVersion: 2
        time: 0.86666673
        value: {x: 0.35782236, y: -0.2752086, z: -0.6335482, w: 0.628363}
        inSlope: {x: 0.078687005, y: 0.37177444, z: -0.22445242, w: -0.10284117}
        outSlope: {x: 0.078687005, y: 0.37177444, z: -0.22445242, w: -0.10284117}
        tangentMode: 0
      m_PreInfinity: 2
      m_PostInfinity: 2
      m_RotationOrder: 4
    path: CATRigHub002
  - curve:
      serializedVersion: 2
      m_Curve:
      - serializedVersion: 2
        time: 0
        value: {x: -0.2614649, y: 0.9486542, z: 0.13212281, w: 0.11931061}
        inSlope: {x: -0.698516, y: -0.22585629, z: -0.005972385, w: 0.19125378}
        outSlope: {x: -0.698516, y: -0.22585629, z: -0.005972385, w: 0.19125378}
        tangentMode: 0
      - serializedVersion: 2
        time: 0.13333334
        value: {x: -0.3132965, y: 0.9298046, z: 0.13614699, w: 0.13701345}
        inSlope: {x: -0.10036291, y: -0.028542282, z: -0.023257213, w: -0.0121338675}
        outSlope: {x: -0.10036291, y: -0.028542282, z: -0.023257213, w: -0.0121338675}
        tangentMode: 0
      - serializedVersion: 2
        time: 0.36666667
        value: {x: -0.35601124, y: 0.9171119, z: 0.11375, w: 0.1386466}
        inSlope: {x: -0.19772656, y: -0.083657175, z: -0.05585744, w: 0.09203505}
        outSlope: {x: -0.19772656, y: -0.083657175, z: -0.05585744, w: 0.09203505}
        tangentMode: 0
      - serializedVersion: 2
        time: 0.4666667
        value: {x: -0.3606031, y: 0.9142134, z: 0.113904975, w: 0.14561947}
        inSlope: {x: 0.30525216, y: 0.10665991, z: 0.10253154, w: -0.008107216}
        outSlope: {x: 0.30525216, y: 0.10665991, z: 0.10253154, w: -0.008107216}
        tangentMode: 0
      - serializedVersion: 2
        time: 0.6
        value: {x: -0.30991566, y: 0.93413454, z: 0.12735045, w: 0.12299127}
        inSlope: {x: 0.035129476, y: 0.061858047, z: -0.09187096, w: -0.28150427}
        outSlope: {x: 0.035129476, y: 0.061858047, z: -0.09187096, w: -0.28150427}
        tangentMode: 0
      - serializedVersion: 2
        time: 0.6666667
        value: {x: -0.30961406, y: 0.9367928, z: 0.117450036, w: 0.11297752}
        inSlope: {x: 0.1806235, y: 0.073744655, z: -0.089617684, w: -0.024868144}
        outSlope: {x: 0.1806235, y: 0.073744655, z: -0.089617684, w: -0.024868144}
        tangentMode: 0
      - serializedVersion: 2
        time: 0.7666667
        value: {x: -0.27333108, y: 0.94619095, z: 0.1262446, w: 0.11863858}
        inSlope: {x: 0.48487413, y: 0.11377474, z: 0.18344584, w: 0.016065078}
        outSlope: {x: 0.48487413, y: 0.11377474, z: 0.18344584, w: 0.016065078}
        tangentMode: 0
      - serializedVersion: 2
        time: 0.8333334
        value: {x: -0.2518041, y: 0.9515127, z: 0.13309331, w: 0.116208486}
        inSlope: {x: -0.0625811, y: -0.0260272, z: 0.022306386, w: 0.046263106}
        outSlope: {x: -0.0625811, y: -0.0260272, z: 0.022306386, w: 0.046263106}
        tangentMode: 0
      - serializedVersion: 2
        time: 0.86666673
        value: {x: -0.26144508, y: 0.94831514, z: 0.13318722, w: 0.1208558}
        inSlope: {x: -0.28922862, y: -0.09592644, z: 0.0028172112, w: 0.13941932}
        outSlope: {x: -0.28922862, y: -0.09592644, z: 0.0028172112, w: 0.13941932}
        tangentMode: 0
      m_PreInfinity: 2
      m_PostInfinity: 2
      m_RotationOrder: 4
    path: CATRigHub002/CATRigLLeg1
  - curve:
      serializedVersion: 2
      m_Curve:
      - serializedVersion: 2
        time: 0
        value: {x: 0.039724566, y: -0.018318255, z: 0.4275509, w: 0.9029323}
        inSlope: {x: -0.1983546, y: -0.09236577, z: -0.15147953, w: 0.07716178}
        outSlope: {x: -0.1983546, y: -0.09236577, z: -0.15147953, w: 0.07716178}
        tangentMode: 0
      - serializedVersion: 2
        time: 0.13333334
        value: {x: 0.034787733, y: -0.027518878, z: 0.38766792, w: 0.9207313}
        inSlope: {x: 0.15404084, y: -0.098043434, z: -0.37899125, w: 0.15094043}
        outSlope: {x: 0.15404084, y: -0.098043434, z: -0.37899125, w: 0.15094043}
        tangentMode: 0
      - serializedVersion: 2
        time: 0.23333335
        value: {x: 0.053385276, y: -0.034313552, z: 0.37925383, w: 0.9231138}
        inSlope: {x: 0.120397665, y: -0.06026008, z: 0.3481512, w: -0.1540965}
        outSlope: {x: 0.120397665, y: -0.06026008, z: 0.3481512, w: -0.1540965}
        tangentMode: 0
      - serializedVersion: 2
        time: 0.43333337
        value: {x: 0.06422693, y: -0.050631527, z: 0.4193722, w: 0.90412295}
        inSlope: {x: 0.05135313, y: -0.21058276, z: -1.048164, w: 0.45305377}
        outSlope: {x: 0.05135313, y: -0.21058276, z: -1.048164, w: 0.45305377}
        tangentMode: 0
      - serializedVersion: 2
        time: 0.4666667
        value: {x: 0.06702702, y: -0.058505446, z: 0.3715279, w: 0.9241491}
        inSlope: {x: 0.12247075, y: -0.16006081, z: -1.7756386, w: 0.6715889}
        outSlope: {x: 0.12247075, y: -0.16006081, z: -1.7756386, w: 0.6715889}
        tangentMode: 0
      - serializedVersion: 2
        time: 0.53333336
        value: {x: 0.07194342, y: -0.05908105, z: 0.25001413, w: 0.9637565}
        inSlope: {x: -0.016202653, y: 0.11594962, z: -0.9724461, w: 0.28072423}
        outSlope: {x: -0.016202653, y: 0.11594962, z: -0.9724461, w: 0.28072423}
        tangentMode: 0
      - serializedVersion: 2
        time: 0.6
        value: {x: 0.070626214, y: -0.04663463, z: 0.26543587, w: 0.96040666}
        inSlope: {x: -0.02805188, y: 0.22871079, z: 1.523403, w: -0.44571054}
        outSlope: {x: -0.02805188, y: 0.22871079, z: 1.523403, w: -0.44571054}
        tangentMode: 0
      - serializedVersion: 2
        time: 0.6333334
        value: {x: 0.06944134, y: -0.038324878, z: 0.3377268, w: 0.93789643}
        inSlope: {x: 0.005320199, y: 0.28123719, z: 2.0417037, w: -0.71625006}
        outSlope: {x: 0.005320199, y: 0.28123719, z: 2.0417037, w: -0.71625006}
        tangentMode: 0
      - serializedVersion: 2
        time: 0.7666667
        value: {x: 0.06729806, y: 0.0007486317, z: 0.49348208, w: 0.8671481}
        inSlope: {x: -0.115954146, y: 0.07391633, z: -0.26987872, w: 0.15769766}
        outSlope: {x: -0.115954146, y: 0.07391633, z: -0.26987872, w: 0.15769766}
        tangentMode: 0
      - serializedVersion: 2
        time: 0.8333334
        value: {x: 0.0496231, y: -0.009806685, z: 0.44439083, w: 0.8944038}
        inSlope: {x: -0.31209344, y: -0.2500664, z: -0.65841275, w: 0.34884465}
        outSlope: {x: -0.31209344, y: -0.2500664, z: -0.65841275, w: 0.34884465}
        tangentMode: 0
      - serializedVersion: 2
        time: 0.86666673
        value: {x: 0.042328052, y: -0.01684167, z: 0.42829123, w: 0.90249175}
        inSlope: {x: -0.2188512, y: -0.21104938, z: -0.48298764, w: 0.24263778}
        outSlope: {x: -0.2188512, y: -0.21104938, z: -0.48298764, w: 0.24263778}
        tangentMode: 0
      m_PreInfinity: 2
      m_PostInfinity: 2
      m_RotationOrder: 4
    path: CATRigHub002/CATRigLLeg1/CATRigLLeg2
  - curve:
      serializedVersion: 2
      m_Curve:
      - serializedVersion: 2
        time: 0
        value: {x: -0.009622862, y: 0.059395548, z: -0.44048208, w: 0.8957428}
        inSlope: {x: -0.061446585, y: 0.09600754, z: 0.49429443, w: 0.23026942}
        outSlope: {x: -0.061446585, y: 0.09600754, z: 0.49429443, w: 0.23026942}
        tangentMode: 0
      - serializedVersion: 2
        time: 0.23333335
        value: {x: -0.010839305, y: 0.079930246, z: -0.3418087, w: 0.93630147}
        inSlope: {x: 0.081147626, y: 0.168811, z: 0.09302438, w: 0.020621719}
        outSlope: {x: 0.081147626, y: 0.168811, z: 0.09302438, w: 0.020621719}
        tangentMode: 0
      - serializedVersion: 2
        time: 0.40000004
        value: {x: -0.007760713, y: 0.12884822, z: -0.31498575, w: 0.9402776}
        inSlope: {x: -0.025320238, y: 0.46672076, z: 0.7034467, w: 0.16581948}
        outSlope: {x: -0.025320238, y: 0.46672076, z: 0.7034467, w: 0.16581948}
        tangentMode: 0
      - serializedVersion: 2
        time: 0.4666667
        value: {x: -0.005954921, y: 0.16286255, z: -0.24087514, w: 0.95677555}
        inSlope: {x: 0.11658107, y: 0.45937857, z: 1.462292, w: 0.28457}
        outSlope: {x: 0.11658107, y: 0.45937857, z: 1.462292, w: 0.28457}
        tangentMode: 0
      - serializedVersion: 2
        time: 0.5
        value: {x: -0.00072746887, y: 0.17626351, z: -0.18765086, w: 0.9662908}
        inSlope: {x: 0.10903689, y: 0.26881626, z: 0.7716748, w: 0.1249741}
        outSlope: {x: 0.10903689, y: 0.26881626, z: 0.7716748, w: 0.1249741}
        tangentMode: 0
      - serializedVersion: 2
        time: 0.5666667
        value: {x: -0.001511426, y: 0.17412718, z: -0.23064384, w: 0.95733005}
        inSlope: {x: -0.059919998, y: -0.4823652, z: -1.3284249, w: -0.24142745}
        outSlope: {x: -0.059919998, y: -0.4823652, z: -1.3284249, w: -0.24142745}
        tangentMode: 0
      - serializedVersion: 2
        time: 0.6333334
        value: {x: 0.0011520494, y: 0.12985209, z: -0.32153055, w: 0.9379527}
        inSlope: {x: 0.13328639, y: -0.09788725, z: -0.7460493, w: -0.2251222}
        outSlope: {x: 0.13328639, y: -0.09788725, z: -0.7460493, w: -0.2251222}
        tangentMode: 0
      - serializedVersion: 2
        time: 0.70000005
        value: {x: 0.012866609, y: 0.15209419, z: -0.32445908, w: 0.93350315}
        inSlope: {x: 0.16473742, y: 0.0044296384, z: -0.0028405488, w: -0.0037354135}
        outSlope: {x: 0.16473742, y: 0.0044296384, z: -0.0028405488, w: -0.0037354135}
        tangentMode: 0
      - serializedVersion: 2
        time: 0.7666667
        value: {x: 0.0119545655, y: 0.111837305, z: -0.34581393, w: 0.93153757}
        inSlope: {x: -0.25827807, y: -1.0100907, z: -0.71907055, w: -0.15181828}
        outSlope: {x: -0.25827807, y: -1.0100907, z: -0.71907055, w: -0.15181828}
        tangentMode: 0
      - serializedVersion: 2
        time: 0.8333334
        value: {x: -0.0041111414, y: 0.05092954, z: -0.4121206, w: 0.9096955}
        inSlope: {x: -0.13997833, y: -0.24745254, z: -0.9768307, w: -0.4211551}
        outSlope: {x: -0.13997833, y: -0.24745254, z: -0.9768307, w: -0.4211551}
        tangentMode: 0
      - serializedVersion: 2
        time: 0.86666673
        value: {x: -0.009362654, y: 0.05855921, z: -0.440978, w: 0.89555657}
        inSlope: {x: -0.15754524, y: 0.22888991, z: -0.8657207, w: -0.42416775}
        outSlope: {x: -0.15754524, y: 0.22888991, z: -0.8657207, w: -0.42416775}
        tangentMode: 0
      m_PreInfinity: 2
      m_PostInfinity: 2
      m_RotationOrder: 4
    path: CATRigHub002/CATRigLLeg1/CATRigLLeg2/CATRigLLegAnkle
  - curve:
      serializedVersion: 2
      m_Curve:
      - serializedVersion: 2
        time: 0
        value: {x: -0.16785815, y: 0.97932607, z: -0.091982126, w: -0.06544789}
        inSlope: {x: -0.7671989, y: -0.12786806, z: -0.024766399, w: 0.26065484}
        outSlope: {x: -0.7671989, y: -0.12786806, z: -0.024766399, w: 0.26065484}
        tangentMode: 0
      - serializedVersion: 2
        time: 0.06666667
        value: {x: -0.20417024, y: 0.9726676, z: -0.09505657, w: -0.056538373}
        inSlope: {x: -0.012950838, y: -0.0190258, z: -0.06915595, w: -0.15279359}
        outSlope: {x: -0.012950838, y: -0.0190258, z: -0.06915595, w: -0.15279359}
        tangentMode: 0
      - serializedVersion: 2
        time: 0.13333334
        value: {x: -0.1807877, y: 0.9753749, z: -0.09915489, w: -0.07828145}
        inSlope: {x: 0.44545883, y: 0.04690558, z: -0.048583973, w: -0.37046057}
        outSlope: {x: 0.44545883, y: 0.04690558, z: -0.048583973, w: -0.37046057}
        tangentMode: 0
      - serializedVersion: 2
        time: 0.3
        value: {x: -0.049184766, y: 0.9783773, z: -0.11903955, w: -0.16182815}
        inSlope: {x: 1.0592387, y: -0.051080886, z: -0.19367875, w: -0.49329227}
        outSlope: {x: 1.0592387, y: -0.051080886, z: -0.19367875, w: -0.49329227}
        tangentMode: 0
      - serializedVersion: 2
        time: 0.43333337
        value: {x: 0.032156833, y: 0.96833074, z: -0.13847002, w: -0.20525007}
        inSlope: {x: -0.008159228, y: -0.0039616236, z: -0.005200357, w: -0.01659371}
        outSlope: {x: -0.008159228, y: -0.0039616236, z: -0.005200357, w: -0.01659371}
        tangentMode: 0
      - serializedVersion: 2
        time: 0.5
        value: {x: 0.018308101, y: 0.9703344, z: -0.13615425, w: -0.1989423}
        inSlope: {x: -0.53390217, y: 0.04992842, z: 0.074674465, w: 0.16730164}
        outSlope: {x: -0.53390217, y: 0.04992842, z: 0.074674465, w: 0.16730164}
        tangentMode: 0
      - serializedVersion: 2
        time: 0.5666667
        value: {x: -0.022985522, y: 0.97476155, z: -0.12898418, w: -0.18076146}
        inSlope: {x: -0.3383261, y: 0.07940681, z: 0.13965216, w: 0.36789656}
        outSlope: {x: -0.3383261, y: 0.07940681, z: 0.13965216, w: 0.36789656}
        tangentMode: 0
      - serializedVersion: 2
        time: 0.70000005
        value: {x: -0.049347866, y: 0.9844178, z: -0.11114167, w: -0.12701921}
        inSlope: {x: -0.4139178, y: 0.040822323, z: 0.095764935, w: 0.40600345}
        outSlope: {x: -0.4139178, y: 0.040822323, z: 0.095764935, w: 0.40600345}
        tangentMode: 0
      - serializedVersion: 2
        time: 0.86666673
        value: {x: -0.16785145, y: 0.9793387, z: -0.092523545, w: -0.064506404}
        inSlope: {x: -0.8284206, y: -0.107381254, z: 0.026254557, w: 0.28607032}
        outSlope: {x: -0.8284206, y: -0.107381254, z: 0.026254557, w: 0.28607032}
        tangentMode: 0
      m_PreInfinity: 2
      m_PostInfinity: 2
      m_RotationOrder: 4
    path: CATRigHub002/CATRigRLeg1
  - curve:
      serializedVersion: 2
      m_Curve:
      - serializedVersion: 2
        time: 0
        value: {x: -0.050017715, y: -0.01623084, z: 0.3463873, w: 0.9366166}
        inSlope: {x: -0.17997633, y: -0.3182295, z: -0.07232665, w: 0.009149908}
        outSlope: {x: -0.17997633, y: -0.3182295, z: -0.07232665, w: 0.009149908}
        tangentMode: 0
      - serializedVersion: 2
        time: 0.06666667
        value: {x: -0.057661757, y: -0.034539845, z: 0.3371648, w: 0.93904316}
        inSlope: {x: 0.112393424, y: -0.12530148, z: -0.43162414, w: 0.1531246}
        outSlope: {x: 0.112393424, y: -0.12530148, z: -0.43162414, w: 0.1531246}
        tangentMode: 0
      - serializedVersion: 2
        time: 0.10000001
        value: {x: -0.04852403, y: -0.035191923, z: 0.31520146, w: 0.9471299}
        inSlope: {x: 0.45767462, y: 0.10791749, z: -0.34851053, w: 0.1443064}
        outSlope: {x: 0.45767462, y: 0.10791749, z: -0.34851053, w: 0.1443064}
        tangentMode: 0
      - serializedVersion: 2
        time: 0.23333335
        value: {x: -0.0012086041, y: 0.013426984, z: 0.36346892, w: 0.9315088}
        inSlope: {x: -0.1787548, y: 0.39380416, z: 0.3944202, w: -0.15881003}
        outSlope: {x: -0.1787548, y: 0.39380416, z: 0.3944202, w: -0.15881003}
        tangentMode: 0
      - serializedVersion: 2
        time: 0.33333334
        value: {x: -0.044292953, y: 0.048994828, z: 0.35977477, w: 0.9306985}
        inSlope: {x: -0.5958382, y: 0.26143938, z: -0.4770676, w: 0.14059336}
        outSlope: {x: -0.5958382, y: 0.26143938, z: -0.4770676, w: 0.14059336}
        tangentMode: 0
      - serializedVersion: 2
        time: 0.40000004
        value: {x: -0.06929422, y: 0.05799222, z: 0.32067734, w: 0.94286865}
        inSlope: {x: 0.034728862, y: -0.046373915, z: -0.49086863, w: 0.17383836}
        outSlope: {x: 0.034728862, y: -0.046373915, z: -0.49086863, w: 0.17383836}
        tangentMode: 0
      - serializedVersion: 2
        time: 0.4666667
        value: {x: -0.04857388, y: 0.04283079, z: 0.3108632, w: 0.9482458}
        inSlope: {x: 0.22697768, y: -0.3824771, z: 0.20065263, w: -0.03730331}
        outSlope: {x: 0.22697768, y: -0.3824771, z: 0.20065263, w: -0.03730331}
        tangentMode: 0
      - serializedVersion: 2
        time: 0.5
        value: {x: -0.047117878, y: 0.027385088, z: 0.32105666, w: 0.94549066}
        inSlope: {x: 0.09538534, y: -0.39714423, z: 0.65658927, w: -0.21506925}
        outSlope: {x: 0.09538534, y: -0.39714423, z: 0.65658927, w: -0.21506925}
        tangentMode: 0
      - serializedVersion: 2
        time: 0.53333336
        value: {x: -0.042214856, y: 0.016354514, z: 0.35463583, w: 0.93390787}
        inSlope: {x: 0.18964022, y: -0.24756911, z: 0.6966849, w: -0.24256358}
        outSlope: {x: 0.18964022, y: -0.24756911, z: 0.6966849, w: -0.24256358}
        tangentMode: 0
      - serializedVersion: 2
        time: 0.70000005
        value: {x: -0.010558809, y: 0.020018334, z: 0.33642915, w: 0.9414368}
        inSlope: {x: -0.20887543, y: -0.062462177, z: -0.1482537, w: 0.051578857}
        outSlope: {x: -0.20887543, y: -0.062462177, z: -0.1482537, w: 0.051578857}
        tangentMode: 0
      - serializedVersion: 2
        time: 0.8333334
        value: {x: -0.04727225, y: -0.0060470714, z: 0.34327868, w: 0.93802375}
        inSlope: {x: -0.13739932, y: -0.3055637, z: 0.1579285, w: -0.06646158}
        outSlope: {x: -0.13739932, y: -0.3055637, z: 0.1579285, w: -0.06646158}
        tangentMode: 0
      - serializedVersion: 2
        time: 0.86666673
        value: {x: -0.050703183, y: -0.016658502, z: 0.34750584, w: 0.93615776}
        inSlope: {x: -0.10292789, y: -0.31834263, z: 0.12681474, w: -0.05597944}
        outSlope: {x: -0.10292789, y: -0.31834263, z: 0.12681474, w: -0.05597944}
        tangentMode: 0
      m_PreInfinity: 2
      m_PostInfinity: 2
      m_RotationOrder: 4
    path: CATRigHub002/CATRigRLeg1/CATRigRLeg2
  - curve:
      serializedVersion: 2
      m_Curve:
      - serializedVersion: 2
        time: 0
        value: {x: 0.016019413, y: -0.083965786, z: -0.43994552, w: 0.8939469}
        inSlope: {x: -0.14846306, y: 0.3401535, z: 0.41847464, w: 0.23370801}
        outSlope: {x: -0.14846306, y: 0.3401535, z: 0.41847464, w: 0.23370801}
        tangentMode: 0
      - serializedVersion: 2
        time: 0.033333335
        value: {x: 0.0110706445, y: -0.072627336, z: -0.42599636, w: 0.90173715}
        inSlope: {x: -0.08559254, y: -0.1705193, z: 0.15130787, w: 0.057646926}
        outSlope: {x: -0.08559254, y: -0.1705193, z: 0.15130787, w: 0.057646926}
        tangentMode: 0
      - serializedVersion: 2
        time: 0.06666667
        value: {x: 0.010313244, y: -0.09533374, z: -0.42985833, w: 0.89779}
        inSlope: {x: 0.106446914, y: -1.26654, z: 0.16805512, w: -0.08495092}
        outSlope: {x: 0.106446914, y: -1.26654, z: 0.16805512, w: -0.08495092}
        tangentMode: 0
      - serializedVersion: 2
        time: 0.10000001
        value: {x: 0.018167106, y: -0.15706335, z: -0.4147927, w: 0.89607376}
        inSlope: {x: 0.16248627, y: -1.1061999, z: 0.3897813, w: 0.0152331665}
        outSlope: {x: 0.16248627, y: -1.1061999, z: 0.3897813, w: 0.0152331665}
        tangentMode: 0
      - serializedVersion: 2
        time: 0.16666667
        value: {x: 0.028281841, y: -0.14507101, z: -0.39284506, w: 0.90764934}
        inSlope: {x: 0.019547477, y: 0.7911595, z: 0.3727045, w: 0.2844625}
        outSlope: {x: 0.019547477, y: 0.7911595, z: 0.3727045, w: 0.2844625}
        tangentMode: 0
      - serializedVersion: 2
        time: 0.3
        value: {x: 0.008164955, y: -0.05764574, z: -0.35885686, w: 0.93157506}
        inSlope: {x: -0.004727993, y: -0.0044327974, z: 0.06759346, w: 0.026001338}
        outSlope: {x: -0.004727993, y: -0.0044327974, z: 0.06759346, w: 0.026001338}
        tangentMode: 0
      - serializedVersion: 2
        time: 0.36666667
        value: {x: 0.017836021, y: -0.10285155, z: -0.37082225, w: 0.92281866}
        inSlope: {x: 0.16484815, y: -1.2057232, z: -0.53858906, w: -0.3667409}
        outSlope: {x: 0.16484815, y: -1.2057232, z: -0.53858906, w: -0.3667409}
        tangentMode: 0
      - serializedVersion: 2
        time: 0.43333337
        value: {x: 0.022395588, y: -0.18614249, z: -0.4281196, w: 0.8840605}
        inSlope: {x: 0.04449486, y: -0.81390905, z: -1.3631997, w: -0.84834075}
        outSlope: {x: 0.04449486, y: -0.81390905, z: -1.3631997, w: -0.84834075}
        tangentMode: 0
      - serializedVersion: 2
        time: 0.4666667
        value: {x: 0.024411116, y: -0.2031832, z: -0.4859506, w: 0.8496898}
        inSlope: {x: 0.10827228, y: -0.4435913, z: -1.433239, w: -0.9065075}
        outSlope: {x: 0.10827228, y: -0.4435913, z: -1.433239, w: -0.9065075}
        tangentMode: 0
      - serializedVersion: 2
        time: 0.5
        value: {x: 0.029613735, y: -0.21571523, z: -0.5236688, w: 0.8236267}
        inSlope: {x: 0.015411064, y: 0.1237835, z: -0.6993131, w: -0.3967617}
        outSlope: {x: 0.015411064, y: 0.1237835, z: -0.6993131, w: -0.3967617}
        tangentMode: 0
      - serializedVersion: 2
        time: 0.53333336
        value: {x: 0.025438512, y: -0.19493094, z: -0.53257143, w: 0.823239}
        inSlope: {x: -0.037856415, y: 0.58703244, z: -0.12404134, w: 0.061463658}
        outSlope: {x: -0.037856415, y: 0.58703244, z: -0.12404134, w: 0.061463658}
        tangentMode: 0
      - serializedVersion: 2
        time: 0.6666667
        value: {x: 0.029987177, y: -0.15063137, z: -0.49725348, w: 0.85390276}
        inSlope: {x: -0.04943618, y: 0.22750339, z: 0.38803613, w: 0.26828262}
        outSlope: {x: -0.04943618, y: 0.22750339, z: 0.38803613, w: 0.26828262}
        tangentMode: 0
      - serializedVersion: 2
        time: 0.86666673
        value: {x: 0.016003214, y: -0.08299421, z: -0.4405485, w: 0.89374095}
        inSlope: {x: -0.08461033, y: 0.3981897, z: 0.29605305, w: 0.18982156}
        outSlope: {x: -0.08461033, y: 0.3981897, z: 0.29605305, w: 0.18982156}
        tangentMode: 0
      m_PreInfinity: 2
      m_PostInfinity: 2
      m_RotationOrder: 4
    path: CATRigHub002/CATRigRLeg1/CATRigRLeg2/CATRigRLegAnkle
  - curve:
      serializedVersion: 2
      m_Curve:
      - serializedVersion: 2
        time: 0
        value: {x: 0.0032119814, y: -0.01049709, z: -0.011712817, w: 0.9998712}
        inSlope: {x: -0.015665183, y: 0.040935453, z: -0.002147276, w: 0.00042200086}
        outSlope: {x: -0.015665183, y: 0.040935453, z: -0.002147276, w: 0.00042200086}
        tangentMode: 0
      - serializedVersion: 2
        time: 0.53333336
        value: {x: 0.013150657, y: 0.000010547463, z: -0.012348042, w: 0.9998373}
        inSlope: {x: -0.042208605, y: 0.033159934, z: -0.018230302, w: 0.0003388521}
        outSlope: {x: -0.042208605, y: 0.033159934, z: -0.018230302, w: 0.0003388521}
        tangentMode: 0
      - serializedVersion: 2
        time: 0.8000001
        value: {x: 0.004850984, y: -0.014826992, z: -0.012316047, w: 0.9998025}
        inSlope: {x: -0.022419136, y: 0.057731308, z: 0.018432584, w: 0.0011765958}
        outSlope: {x: -0.022419136, y: 0.057731308, z: 0.018432584, w: 0.0011765958}
        tangentMode: 0
      - serializedVersion: 2
        time: 0.86666673
        value: {x: 0.0033310575, y: -0.010662593, z: -0.01190619, w: 0.9998667}
        inSlope: {x: -0.02050967, y: 0.058356073, z: -0.0013946916, w: 0.00073671277}
        outSlope: {x: -0.02050967, y: 0.058356073, z: -0.0013946916, w: 0.00073671277}
        tangentMode: 0
      m_PreInfinity: 2
      m_PostInfinity: 2
      m_RotationOrder: 4
    path: CATRigHub002/CATRigSpine1
  - curve:
      serializedVersion: 2
      m_Curve:
      - serializedVersion: 2
        time: 0
        value: {x: 0.0050912257, y: -0.009758172, z: -0.0002527518, w: 0.9999394}
        inSlope: {x: -0.04244101, y: 0.047085505, z: -0.0039160163, w: 0.0006079673}
        outSlope: {x: -0.04244101, y: 0.047085505, z: -0.0039160163, w: 0.0006079673}
        tangentMode: 0
      - serializedVersion: 2
        time: 0.40000004
        value: {x: 0.022670232, y: -0.0029490408, z: -0.000097803786, w: 0.99973863}
        inSlope: {x: 0.06220255, y: 0.040328767, z: 0.01334003, w: -0.0012445445}
        outSlope: {x: 0.06220255, y: 0.040328767, z: 0.01334003, w: -0.0012445445}
        tangentMode: 0
      - serializedVersion: 2
        time: 0.6666667
        value: {x: 0.012022008, y: -0.00740542, z: -0.0061117774, w: 0.9998816}
        inSlope: {x: -0.037523463, y: 0.004015095, z: -0.0061137243, w: 0.00046670457}
        outSlope: {x: -0.037523463, y: 0.004015095, z: -0.0061137243, w: 0.00046670457}
        tangentMode: 0
      - serializedVersion: 2
        time: 0.86666673
        value: {x: 0.005285971, y: -0.009609803, z: -0.0006420542, w: 0.9999397}
        inSlope: {x: -0.053879738, y: 0.039331183, z: -0.0020694954, w: 0.00073671277}
        outSlope: {x: -0.053879738, y: 0.039331183, z: -0.0020694954, w: 0.00073671277}
        tangentMode: 0
      m_PreInfinity: 2
      m_PostInfinity: 2
      m_RotationOrder: 4
    path: CATRigHub002/CATRigSpine1/CATRigSpine2
  - curve:
      serializedVersion: 2
      m_Curve:
      - serializedVersion: 2
        time: 0
        value: {x: 0.0043841223, y: -0.010095553, z: -0.00025280888, w: 0.99993944}
        inSlope: {x: -0.038984448, y: 0.049984947, z: -0.0039155236, w: 0.0006061792}
        outSlope: {x: -0.038984448, y: 0.049984947, z: -0.0039155236, w: 0.0006061792}
        tangentMode: 0
      - serializedVersion: 2
        time: 0.40000004
        value: {x: 0.02240306, y: -0.004554375, z: -0.000097784665, w: 0.99973863}
        inSlope: {x: 0.06491521, y: 0.03580154, z: 0.013339598, w: -0.0012445445}
        outSlope: {x: 0.06491521, y: 0.03580154, z: 0.013339598, w: -0.0012445445}
        tangentMode: 0
      - serializedVersion: 2
        time: 0.6666667
        value: {x: 0.011464752, y: -0.008241851, z: -0.00611156, w: 0.9998817}
        inSlope: {x: -0.03714206, y: 0.0066760145, z: -0.0061148135, w: 0.00046670457}
        outSlope: {x: -0.03714206, y: 0.0066760145, z: -0.0061148135, w: 0.00046670457}
        tangentMode: 0
      - serializedVersion: 2
        time: 0.86666673
        value: {x: 0.004588884, y: -0.009961406, z: -0.00064189936, w: 0.9999397}
        inSlope: {x: -0.050945234, y: 0.043068167, z: -0.0020637747, w: 0.00073671277}
        outSlope: {x: -0.050945234, y: 0.043068167, z: -0.0020637747, w: 0.00073671277}
        tangentMode: 0
      m_PreInfinity: 2
      m_PostInfinity: 2
      m_RotationOrder: 4
    path: CATRigHub002/CATRigSpine1/CATRigSpine2/CATRigSpine3
  - curve:
      serializedVersion: 2
      m_Curve:
      - serializedVersion: 2
        time: 0
        value: {x: 0.0039582895, y: -0.010269971, z: -0.02964927, w: 0.9994998}
        inSlope: {x: -0.036853258, y: 0.051569127, z: -0.0039307773, w: 0.0004917383}
        outSlope: {x: -0.036853258, y: 0.051569127, z: -0.0039307773, w: 0.0004917383}
        tangentMode: 0
      - serializedVersion: 2
        time: 0.40000004
        value: {x: 0.022193179, y: -0.005486622, z: -0.029488506, w: 0.9993037}
        inSlope: {x: 0.06635226, y: 0.033055812, z: 0.013370416, w: -0.0008529421}
        outSlope: {x: 0.06635226, y: 0.033055812, z: 0.013370416, w: -0.0008529421}
        tangentMode: 0
      - serializedVersion: 2
        time: 0.6666667
        value: {x: 0.011110296, y: -0.008713754, z: -0.03550404, w: 0.9992698}
        inSlope: {x: -0.036830626, y: 0.008218328, z: -0.006126626, w: 0.00028610212}
        outSlope: {x: -0.036830626, y: 0.008218328, z: -0.006126626, w: 0.00028610212}
        tangentMode: 0
      - serializedVersion: 2
        time: 0.86666673
        value: {x: 0.0041685514, y: -0.010144477, z: -0.030038377, w: 0.9994886}
        inSlope: {x: -0.04909932, y: 0.04515967, z: -0.0020902774, w: 0.00067412795}
        outSlope: {x: -0.04909932, y: 0.04515967, z: -0.0020902774, w: 0.00067412795}
        tangentMode: 0
      m_PreInfinity: 2
      m_PostInfinity: 2
      m_RotationOrder: 4
    path: CATRigHub002/CATRigSpine1/CATRigSpine2/CATRigSpine3/CATRigHub003
  - curve:
      serializedVersion: 2
      m_Curve:
      - serializedVersion: 2
        time: 0
        value: {x: 0.042735975, y: 0.71962893, z: -0.021918919, w: 0.69269586}
        inSlope: {x: -0.22328171, y: -0.15010177, z: -0.29379183, w: 0.15600978}
        outSlope: {x: -0.22328171, y: -0.15010177, z: -0.29379183, w: 0.15600978}
        tangentMode: 0
      - serializedVersion: 2
        time: 0.16666667
        value: {x: 0.019142684, y: 0.7115982, z: -0.054764617, w: 0.7001874}
        inSlope: {x: 0.01351651, y: 0.06637572, z: 0.0054507433, w: -0.067487046}
        outSlope: {x: 0.01351651, y: 0.06637572, z: 0.0054507433, w: -0.067487046}
        tangentMode: 0
      - serializedVersion: 2
        time: 0.40000004
        value: {x: 0.04119933, y: 0.7240449, z: -0.023198292, w: 0.6881304}
        inSlope: {x: 0.14893687, y: 0.033330917, z: 0.21075758, w: -0.036963522}
        outSlope: {x: 0.14893687, y: 0.033330917, z: 0.21075758, w: -0.036963522}
        tangentMode: 0
      - serializedVersion: 2
        time: 0.6
        value: {x: 0.06440906, y: 0.74610716, z: -0.0041247187, w: 0.6626904}
        inSlope: {x: -0.019086909, y: 0.020795174, z: -0.026791833, w: -0.02177508}
        outSlope: {x: -0.019086909, y: 0.020795174, z: -0.026791833, w: -0.02177508}
        tangentMode: 0
      - serializedVersion: 2
        time: 0.7666667
        value: {x: 0.053288076, y: 0.7359566, z: -0.013015159, w: 0.6748029}
        inSlope: {x: -0.054940477, y: -0.16250506, z: 0.014059499, w: 0.18170074}
        outSlope: {x: -0.054940477, y: -0.16250506, z: 0.014059499, w: 0.18170074}
        tangentMode: 0
      - serializedVersion: 2
        time: 0.86666673
        value: {x: 0.04179078, y: 0.7189393, z: -0.023337549, w: 0.6934228}
        inSlope: {x: -0.18424705, y: -0.1504879, z: -0.23539452, w: 0.16253458}
        outSlope: {x: -0.18424705, y: -0.1504879, z: -0.23539452, w: 0.16253458}
        tangentMode: 0
      m_PreInfinity: 2
      m_PostInfinity: 2
      m_RotationOrder: 4
    path: CATRigHub002/CATRigSpine1/CATRigSpine2/CATRigSpine3/CATRigHub003/CATRigLArmCollarbone
  - curve:
      serializedVersion: 2
      m_Curve:
      - serializedVersion: 2
        time: 0
        value: {x: -0.093525425, y: 0.5195868, z: -0.21389797, w: 0.82190645}
        inSlope: {x: -0.7113437, y: -0.30523, z: -0.05726963, w: 0.08474707}
        outSlope: {x: -0.7113437, y: -0.30523, z: -0.05726963, w: 0.08474707}
        tangentMode: 0
      - serializedVersion: 2
        time: 0.13333334
        value: {x: -0.15618199, y: 0.48701447, z: -0.22478595, w: 0.8293946}
        inSlope: {x: 0.07922329, y: -0.0065526366, z: -0.11627981, w: -0.013260843}
        outSlope: {x: 0.07922329, y: -0.0065526366, z: -0.11627981, w: -0.013260843}
        tangentMode: 0
      - serializedVersion: 2
        time: 0.3
        value: {x: -0.09944658, y: 0.49983624, z: -0.24437428, w: 0.8249578}
        inSlope: {x: 0.31864366, y: 0.036073033, z: -0.0093298415, w: 0.01419157}
        outSlope: {x: 0.31864366, y: 0.036073033, z: -0.0093298415, w: 0.01419157}
        tangentMode: 0
      - serializedVersion: 2
        time: 0.43333337
        value: {x: -0.068923876, y: 0.5152384, z: -0.22199063, w: 0.82492363}
        inSlope: {x: 0.28265673, y: 0.24026516, z: 0.32016057, w: -0.041058365}
        outSlope: {x: 0.28265673, y: 0.24026516, z: 0.32016057, w: -0.041058365}
        tangentMode: 0
      - serializedVersion: 2
        time: 0.5666667
        value: {x: -0.014873762, y: 0.54508585, z: -0.21247955, w: 0.81087154}
        inSlope: {x: 0.3901611, y: 0.10211162, z: -0.20532987, w: -0.11370954}
        outSlope: {x: 0.3901611, y: 0.10211162, z: -0.20532987, w: -0.11370954}
        tangentMode: 0
      - serializedVersion: 2
        time: 0.70000005
        value: {x: -0.02773135, y: 0.5318067, z: -0.2276262, w: 0.81522936}
        inSlope: {x: -0.35870945, y: -0.046970807, z: 0.12980019, w: 0.054735824}
        outSlope: {x: -0.35870945, y: -0.046970807, z: 0.12980019, w: 0.054735824}
        tangentMode: 0
      - serializedVersion: 2
        time: 0.86666673
        value: {x: -0.09672871, y: 0.51878273, z: -0.21340512, w: 0.8221717}
        inSlope: {x: -0.6180039, y: -0.24670938, z: -0.0262293, w: 0.085292384}
        outSlope: {x: -0.6180039, y: -0.24670938, z: -0.0262293, w: 0.085292384}
        tangentMode: 0
      m_PreInfinity: 2
      m_PostInfinity: 2
      m_RotationOrder: 4
    path: CATRigHub002/CATRigSpine1/CATRigSpine2/CATRigSpine3/CATRigHub003/CATRigLArmCollarbone/CATRigLArm1
  - curve:
      serializedVersion: 2
      m_Curve:
      - serializedVersion: 2
        time: 0
        value: {x: -0.0016449866, y: -0.0003635554, z: 0.9049467, w: -0.42552167}
        inSlope: {x: -0.0006809248, y: 0.00003352412, z: -0.08377253, w: -0.17665653}
        outSlope: {x: -0.0006809248, y: 0.00003352412, z: -0.08377253, w: -0.17665653}
        tangentMode: 0
      - serializedVersion: 2
        time: 0.16666667
        value: {x: -0.0017165977, y: -0.00036003534, z: 0.8960257, w: -0.4439987}
        inSlope: {x: 0.0005954922, y: -0.00002954009, z: 0.07615058, w: 0.15422475}
        outSlope: {x: 0.0005954922, y: -0.00002954009, z: 0.07615058, w: 0.15422475}
        tangentMode: 0
      - serializedVersion: 2
        time: 0.3
        value: {x: -0.0016746114, y: -0.0003621506, z: 0.901307, w: -0.43317756}
        inSlope: {x: -0.00050715933, y: 0.000024190087, z: -0.063371666, w: -0.13138758}
        outSlope: {x: -0.00050715933, y: 0.000024190087, z: -0.063371666, w: -0.13138758}
        tangentMode: 0
      - serializedVersion: 2
        time: 0.43333337
        value: {x: -0.0016765203, y: -0.0003620275, z: 0.9010725, w: -0.43366513}
        inSlope: {x: 0.0009167236, y: -0.00004413771, z: 0.11387499, w: 0.23724052}
        outSlope: {x: 0.0009167236, y: -0.00004413771, z: 0.11387499, w: 0.23724052}
        tangentMode: 0
      - serializedVersion: 2
        time: 0.6
        value: {x: -0.0016215269, y: -0.00036477362, z: 0.90776753, w: -0.4194704}
        inSlope: {x: -0.00038715315, y: 0.000018501303, z: -0.046066944, w: -0.0997156}
        outSlope: {x: -0.00038715315, y: 0.000018501303, z: -0.046066944, w: -0.0997156}
        tangentMode: 0
      - serializedVersion: 2
        time: 0.7666667
        value: {x: -0.0015852823, y: -0.00036639074, z: 0.9120524, w: -0.4100705}
        inSlope: {x: 0.00026762695, y: -0.000011441288, z: 0.031341586, w: 0.06930375}
        outSlope: {x: 0.00026762695, y: -0.000011441288, z: 0.031341586, w: 0.06930375}
        tangentMode: 0
      - serializedVersion: 2
        time: 0.86666673
        value: {x: -0.0016424825, y: -0.00036377308, z: 0.9052586, w: -0.42485774}
        inSlope: {x: -0.0011168807, y: 0.000049799815, z: -0.13309647, w: -0.2875281}
        outSlope: {x: -0.0011168807, y: 0.000049799815, z: -0.13309647, w: -0.2875281}
        tangentMode: 0
      m_PreInfinity: 2
      m_PostInfinity: 2
      m_RotationOrder: 4
    path: CATRigHub002/CATRigSpine1/CATRigSpine2/CATRigSpine3/CATRigHub003/CATRigLArmCollarbone/CATRigLArm1/CATRigLArm2
  - curve:
      serializedVersion: 2
      m_Curve:
      - serializedVersion: 2
        time: 0
        value: {x: -0.7698523, y: -0.06337722, z: -0.09978989, w: 0.62717843}
        inSlope: {x: 0.0031274555, y: -0.054079812, z: -0.012302845, w: -0.0036656854}
        outSlope: {x: 0.0031274555, y: -0.054079812, z: -0.012302845, w: -0.0036656854}
        tangentMode: 0
      - serializedVersion: 2
        time: 0.26666668
        value: {x: -0.7700447, y: -0.06950473, z: -0.10392373, w: 0.6256198}
        inSlope: {x: -0.007074774, y: 0.0035649915, z: 0.013681279, w: -0.006035865}
        outSlope: {x: -0.007074774, y: 0.0035649915, z: 0.013681279, w: -0.006035865}
        tangentMode: 0
      - serializedVersion: 2
        time: 0.53333336
        value: {x: -0.7712794, y: -0.06725905, z: -0.09787339, w: 0.62532014}
        inSlope: {x: 0.007347458, y: 0.057436105, z: 0.080834, w: 0.027877964}
        outSlope: {x: 0.007347458, y: 0.057436105, z: 0.080834, w: 0.027877964}
        tangentMode: 0
      - serializedVersion: 2
        time: 0.86666673
        value: {x: -0.7698523, y: -0.06337717, z: -0.099789955, w: 0.62717843}
        inSlope: {x: 0.0024926641, y: -0.044616945, z: -0.014632332, w: -0.0037157505}
        outSlope: {x: 0.0024926641, y: -0.044616945, z: -0.014632332, w: -0.0037157505}
        tangentMode: 0
      m_PreInfinity: 2
      m_PostInfinity: 2
      m_RotationOrder: 4
    path: CATRigHub002/CATRigSpine1/CATRigSpine2/CATRigSpine3/CATRigHub003/CATRigLArmCollarbone/CATRigLArm1/CATRigLArm2/CATRigLArmPalm
  - curve:
      serializedVersion: 2
      m_Curve:
      - serializedVersion: 2
        time: 0
        value: {x: 0.48746023, y: 0.29458195, z: 0.021140452, w: 0.8216794}
        inSlope: {x: 0, y: 0, z: 0, w: 0}
        outSlope: {x: 0, y: 0, z: 0, w: 0}
        tangentMode: 0
      - serializedVersion: 2
        time: 0.033333335
        value: {x: 0.48746023, y: 0.29458195, z: 0.021140452, w: 0.8216794}
        inSlope: {x: 0, y: 0, z: 0, w: 0}
        outSlope: {x: 0, y: 0, z: 0, w: 0}
        tangentMode: 0
      m_PreInfinity: 2
      m_PostInfinity: 2
      m_RotationOrder: 4
    path: CATRigHub002/CATRigSpine1/CATRigSpine2/CATRigSpine3/CATRigHub003/CATRigLArmCollarbone/CATRigLArm1/CATRigLArm2/CATRigLArmPalm/CATRigLArmDigit11
  - curve:
      serializedVersion: 2
      m_Curve:
      - serializedVersion: 2
        time: 0
        value: {x: 0.024780357, y: -0.054759808, z: 0.7162615, w: 0.6952387}
        inSlope: {x: 0, y: 0, z: 0, w: 0}
        outSlope: {x: 0, y: 0, z: 0, w: 0}
        tangentMode: 0
      - serializedVersion: 2
        time: 0.033333335
        value: {x: 0.024780357, y: -0.054759808, z: 0.7162615, w: 0.6952387}
        inSlope: {x: 0, y: 0, z: 0, w: 0}
        outSlope: {x: 0, y: 0, z: 0, w: 0}
        tangentMode: 0
      m_PreInfinity: 2
      m_PostInfinity: 2
      m_RotationOrder: 4
    path: CATRigHub002/CATRigSpine1/CATRigSpine2/CATRigSpine3/CATRigHub003/CATRigLArmCollarbone/CATRigLArm1/CATRigLArm2/CATRigLArmPalm/CATRigLArmDigit21
  - curve:
      serializedVersion: 2
      m_Curve:
      - serializedVersion: 2
        time: 0
        value: {x: -0.0029609045, y: -0.08884907, z: 0.8076458, w: 0.58292824}
        inSlope: {x: 0, y: 0, z: 0, w: 0}
        outSlope: {x: 0, y: 0, z: 0, w: 0}
        tangentMode: 0
      - serializedVersion: 2
        time: 0.033333335
        value: {x: -0.0029609045, y: -0.08884907, z: 0.8076458, w: 0.58292824}
        inSlope: {x: 0, y: 0, z: 0, w: 0}
        outSlope: {x: 0, y: 0, z: 0, w: 0}
        tangentMode: 0
      m_PreInfinity: 2
      m_PostInfinity: 2
      m_RotationOrder: 4
    path: CATRigHub002/CATRigSpine1/CATRigSpine2/CATRigSpine3/CATRigHub003/CATRigLArmCollarbone/CATRigLArm1/CATRigLArm2/CATRigLArmPalm/CATRigLArmDigit21/CATRigLArmDigit22
  - curve:
      serializedVersion: 2
      m_Curve:
      - serializedVersion: 2
        time: 0
        value: {x: 0.00085991394, y: -0.043372035, z: 0.7665533, w: 0.6407138}
        inSlope: {x: 0, y: 0, z: 0, w: 0}
        outSlope: {x: 0, y: 0, z: 0, w: 0}
        tangentMode: 0
      - serializedVersion: 2
        time: 0.033333335
        value: {x: 0.00085991394, y: -0.043372035, z: 0.7665533, w: 0.6407138}
        inSlope: {x: 0, y: 0, z: 0, w: 0}
        outSlope: {x: 0, y: 0, z: 0, w: 0}
        tangentMode: 0
      m_PreInfinity: 2
      m_PostInfinity: 2
      m_RotationOrder: 4
    path: CATRigHub002/CATRigSpine1/CATRigSpine2/CATRigSpine3/CATRigHub003/CATRigLArmCollarbone/CATRigLArm1/CATRigLArm2/CATRigLArmPalm/CATRigLArmDigit31
  - curve:
      serializedVersion: 2
      m_Curve:
      - serializedVersion: 2
        time: 0
        value: {x: -0.000000095033165, y: -0.07775887, z: 0.7124486, w: 0.6974027}
        inSlope: {x: 0, y: 0, z: 0, w: 0}
        outSlope: {x: 0, y: 0, z: 0, w: 0}
        tangentMode: 0
      - serializedVersion: 2
        time: 0.033333335
        value: {x: -0.000000095033165, y: -0.07775887, z: 0.7124486, w: 0.6974027}
        inSlope: {x: 0, y: 0, z: 0, w: 0}
        outSlope: {x: 0, y: 0, z: 0, w: 0}
        tangentMode: 0
      m_PreInfinity: 2
      m_PostInfinity: 2
      m_RotationOrder: 4
    path: CATRigHub002/CATRigSpine1/CATRigSpine2/CATRigSpine3/CATRigHub003/CATRigLArmCollarbone/CATRigLArm1/CATRigLArm2/CATRigLArmPalm/CATRigLArmDigit31/CATRigLArmDigit32
  - curve:
      serializedVersion: 2
      m_Curve:
      - serializedVersion: 2
        time: 0
        value: {x: -0.03740021, y: -0.013460453, z: 0.77299225, w: 0.63316905}
        inSlope: {x: 0, y: 0, z: 0, w: 0}
        outSlope: {x: 0, y: 0, z: 0, w: 0}
        tangentMode: 0
      - serializedVersion: 2
        time: 0.033333335
        value: {x: -0.03740021, y: -0.013460453, z: 0.77299225, w: 0.63316905}
        inSlope: {x: 0, y: 0, z: 0, w: 0}
        outSlope: {x: 0, y: 0, z: 0, w: 0}
        tangentMode: 0
      m_PreInfinity: 2
      m_PostInfinity: 2
      m_RotationOrder: 4
    path: CATRigHub002/CATRigSpine1/CATRigSpine2/CATRigSpine3/CATRigHub003/CATRigLArmCollarbone/CATRigLArm1/CATRigLArm2/CATRigLArmPalm/CATRigLArmDigit41
  - curve:
      serializedVersion: 2
      m_Curve:
      - serializedVersion: 2
        time: 0
        value: {x: 0.0000000018176627, y: -0.08123148, z: 0.73592174, w: 0.67217606}
        inSlope: {x: 0, y: 0, z: 0, w: 0}
        outSlope: {x: 0, y: 0, z: 0, w: 0}
        tangentMode: 0
      - serializedVersion: 2
        time: 0.033333335
        value: {x: 0.0000000018176627, y: -0.08123148, z: 0.73592174, w: 0.67217606}
        inSlope: {x: 0, y: 0, z: 0, w: 0}
        outSlope: {x: 0, y: 0, z: 0, w: 0}
        tangentMode: 0
      m_PreInfinity: 2
      m_PostInfinity: 2
      m_RotationOrder: 4
    path: CATRigHub002/CATRigSpine1/CATRigSpine2/CATRigSpine3/CATRigHub003/CATRigLArmCollarbone/CATRigLArm1/CATRigLArm2/CATRigLArmPalm/CATRigLArmDigit41/CATRigLArmDigit42
  - curve:
      serializedVersion: 2
      m_Curve:
      - serializedVersion: 2
        time: 0
        value: {x: -0.022247264, y: -0.01995013, z: 0.75623137, w: 0.6536217}
        inSlope: {x: 0, y: 0, z: 0, w: 0}
        outSlope: {x: 0, y: 0, z: 0, w: 0}
        tangentMode: 0
      - serializedVersion: 2
        time: 0.033333335
        value: {x: -0.022247264, y: -0.01995013, z: 0.75623137, w: 0.6536217}
        inSlope: {x: 0, y: 0, z: 0, w: 0}
        outSlope: {x: 0, y: 0, z: 0, w: 0}
        tangentMode: 0
      m_PreInfinity: 2
      m_PostInfinity: 2
      m_RotationOrder: 4
    path: CATRigHub002/CATRigSpine1/CATRigSpine2/CATRigSpine3/CATRigHub003/CATRigLArmCollarbone/CATRigLArm1/CATRigLArm2/CATRigLArmPalm/CATRigLArmDigit51
  - curve:
      serializedVersion: 2
      m_Curve:
      - serializedVersion: 2
        time: 0
        value: {x: 0.037263058, y: -0.040548153, z: 0.72169864, w: 0.69001335}
        inSlope: {x: 0, y: 0, z: 0, w: 0}
        outSlope: {x: 0, y: 0, z: 0, w: 0}
        tangentMode: 0
      - serializedVersion: 2
        time: 0.033333335
        value: {x: 0.037263058, y: -0.040548153, z: 0.72169864, w: 0.69001335}
        inSlope: {x: 0, y: 0, z: 0, w: 0}
        outSlope: {x: 0, y: 0, z: 0, w: 0}
        tangentMode: 0
      m_PreInfinity: 2
      m_PostInfinity: 2
      m_RotationOrder: 4
    path: CATRigHub002/CATRigSpine1/CATRigSpine2/CATRigSpine3/CATRigHub003/CATRigLArmCollarbone/CATRigLArm1/CATRigLArm2/CATRigLArmPalm/CATRigLArmDigit51/CATRigLArmDigit52
  - curve:
      serializedVersion: 2
      m_Curve:
      - serializedVersion: 2
        time: 0
        value: {x: -0.022709554, y: -0.7182202, z: -0.09375352, w: 0.68909687}
        inSlope: {x: -0.10981991, y: 0.03056824, z: 0.18890797, w: 0.052694675}
        outSlope: {x: -0.10981991, y: 0.03056824, z: 0.18890797, w: 0.052694675}
        tangentMode: 0
      - serializedVersion: 2
        time: 0.20000002
        value: {x: -0.017070558, y: -0.7158806, z: -0.09973783, w: 0.6908516}
        inSlope: {x: 0.053585637, y: -0.0062611722, z: -0.085729316, w: -0.017628374}
        outSlope: {x: 0.053585637, y: -0.0062611722, z: -0.085729316, w: -0.017628374}
        tangentMode: 0
      - serializedVersion: 2
        time: 0.4666667
        value: {x: -0.011727916, y: -0.73003656, z: -0.12431889, w: 0.6719032}
        inSlope: {x: 0.03621789, y: 0.048833236, z: -0.0065625682, w: 0.05223339}
        outSlope: {x: 0.03621789, y: 0.048833236, z: -0.0065625682, w: 0.05223339}
        tangentMode: 0
      - serializedVersion: 2
        time: 0.70000005
        value: {x: -0.009551232, y: -0.7005641, z: -0.09352825, w: 0.7073692}
        inSlope: {x: 0.010730718, y: -0.077371046, z: -0.09485793, w: -0.089576}
        outSlope: {x: 0.010730718, y: -0.077371046, z: -0.09485793, w: -0.089576}
        tangentMode: 0
      - serializedVersion: 2
        time: 0.8333334
        value: {x: -0.01760341, y: -0.71658105, z: -0.09921316, w: 0.6901873}
        inSlope: {x: -0.14365894, y: -0.057032727, z: 0.14348888, w: -0.04235747}
        outSlope: {x: -0.14365894, y: -0.057032727, z: 0.14348888, w: -0.04235747}
        tangentMode: 0
      - serializedVersion: 2
        time: 0.86666673
        value: {x: -0.02250615, y: -0.7177188, z: -0.093477376, w: 0.6896631}
        inSlope: {x: -0.14708205, y: -0.034131974, z: 0.1720734, w: -0.015724884}
        outSlope: {x: -0.14708205, y: -0.034131974, z: 0.1720734, w: -0.015724884}
        tangentMode: 0
      m_PreInfinity: 2
      m_PostInfinity: 2
      m_RotationOrder: 4
    path: CATRigHub002/CATRigSpine1/CATRigSpine2/CATRigSpine3/CATRigHub003/CATRigRArmCollarbone
  - curve:
      serializedVersion: 2
      m_Curve:
      - serializedVersion: 2
        time: 0
        value: {x: 0.026896864, y: -0.41061842, z: -0.4657091, w: 0.78344375}
        inSlope: {x: -0.04544662, y: -0.33861902, z: -0.07875233, w: -0.22643565}
        outSlope: {x: -0.04544662, y: -0.33861902, z: -0.07875233, w: -0.22643565}
        tangentMode: 0
      - serializedVersion: 2
        time: 0.20000002
        value: {x: 0.04039993, y: -0.4353029, z: -0.4491311, w: 0.779205}
        inSlope: {x: 0.18021044, y: 0.29584226, z: 0.11869936, w: 0.22301939}
        outSlope: {x: 0.18021044, y: 0.29584226, z: 0.11869936, w: 0.22301939}
        tangentMode: 0
      - serializedVersion: 2
        time: 0.36666667
        value: {x: 0.0686476, y: -0.38987362, z: -0.4409753, w: 0.8054979}
        inSlope: {x: 0.00019079447, y: 0.03165634, z: -0.08196424, w: -0.029608876}
        outSlope: {x: 0.00019079447, y: 0.03165634, z: -0.08196424, w: -0.029608876}
        tangentMode: 0
      - serializedVersion: 2
        time: 0.5
        value: {x: 0.054612245, y: -0.3995618, z: -0.44825587, w: 0.7977685}
        inSlope: {x: -0.10151966, y: -0.05947394, z: -0.0028199023, w: -0.02452343}
        outSlope: {x: -0.10151966, y: -0.05947394, z: -0.0028199023, w: -0.02452343}
        tangentMode: 0
      - serializedVersion: 2
        time: 0.70000005
        value: {x: 0.026590522, y: -0.41764194, z: -0.44332173, w: 0.7926752}
        inSlope: {x: -0.022383766, y: 0.14951934, z: -0.024430485, w: 0.0655827}
        outSlope: {x: -0.022383766, y: 0.14951934, z: -0.024430485, w: 0.0655827}
        tangentMode: 0
      - serializedVersion: 2
        time: 0.8333334
        value: {x: 0.027295582, y: -0.40442336, z: -0.46091267, w: 0.7894658}
        inSlope: {x: -0.029947702, y: -0.14983842, z: -0.15254128, w: -0.16528217}
        outSlope: {x: -0.029947702, y: -0.14983842, z: -0.15254128, w: -0.16528217}
        tangentMode: 0
      - serializedVersion: 2
        time: 0.86666673
        value: {x: 0.026291067, y: -0.41197506, z: -0.46513972, w: 0.7830903}
        inSlope: {x: -0.03013543, y: -0.2265508, z: -0.12681116, w: -0.19126458}
        outSlope: {x: -0.03013543, y: -0.2265508, z: -0.12681116, w: -0.19126458}
        tangentMode: 0
      m_PreInfinity: 2
      m_PostInfinity: 2
      m_RotationOrder: 4
    path: CATRigHub002/CATRigSpine1/CATRigSpine2/CATRigSpine3/CATRigHub003/CATRigRArmCollarbone/CATRigRArm1
  - curve:
      serializedVersion: 2
      m_Curve:
      - serializedVersion: 2
        time: 0
        value: {x: -0.0022468304, y: -0.0003256369, z: -0.8137794, w: 0.58116955}
        inSlope: {x: -0.00025592046, y: 0.000020201258, z: 0.04726767, w: 0.06599665}
        outSlope: {x: -0.00025592046, y: 0.000020201258, z: 0.04726767, w: 0.06599665}
        tangentMode: 0
      - serializedVersion: 2
        time: 0.20000002
        value: {x: -0.0022623728, y: -0.00032447174, z: -0.8109059, w: 0.5851722}
        inSlope: {x: 0.0006588175, y: -0.000048377107, z: -0.12296139, w: -0.17043468}
        outSlope: {x: 0.0006588175, y: -0.000048377107, z: -0.12296139, w: -0.17043468}
        tangentMode: 0
      - serializedVersion: 2
        time: 0.4666667
        value: {x: -0.0022190346, y: -0.0003275407, z: -0.8188673, w: 0.5739785}
        inSlope: {x: -0.00015089185, y: 0.000010619706, z: 0.027573133, w: 0.039230023}
        outSlope: {x: -0.00015089185, y: 0.000010619706, z: 0.027573133, w: 0.039230023}
        tangentMode: 0
      - serializedVersion: 2
        time: 0.6666667
        value: {x: -0.0022518104, y: -0.00032514107, z: -0.81283915, w: 0.58248377}
        inSlope: {x: 0.00052757794, y: -0.000040797604, z: -0.098374486, w: -0.1374498}
        outSlope: {x: 0.00052757794, y: -0.000040797604, z: -0.098374486, w: -0.1374498}
        tangentMode: 0
      - serializedVersion: 2
        time: 0.86666673
        value: {x: -0.0022443447, y: -0.00032581566, z: -0.814241, w: 0.5805226}
        inSlope: {x: -0.00037833085, y: 0.000025814494, z: 0.06955677, w: 0.09797386}
        outSlope: {x: -0.00037833085, y: 0.000025814494, z: 0.06955677, w: 0.09797386}
        tangentMode: 0
      m_PreInfinity: 2
      m_PostInfinity: 2
      m_RotationOrder: 4
    path: CATRigHub002/CATRigSpine1/CATRigSpine2/CATRigSpine3/CATRigHub003/CATRigRArmCollarbone/CATRigRArm1/CATRigRArm2
  - curve:
      serializedVersion: 2
      m_Curve:
      - serializedVersion: 2
        time: 0
        value: {x: 0.7788513, y: 0.13900802, z: -0.08405664, w: 0.6058068}
        inSlope: {x: -0.01060903, y: -0.15232308, z: 0.09087055, w: 0.06023347}
        outSlope: {x: -0.01060903, y: -0.15232308, z: 0.09087055, w: 0.06023347}
        tangentMode: 0
      - serializedVersion: 2
        time: 0.20000002
        value: {x: 0.77890426, y: 0.13280854, z: -0.07898736, w: 0.6078084}
        inSlope: {x: -0.004271862, y: 0.13638115, z: -0.06765838, w: -0.033637583}
        outSlope: {x: -0.004271862, y: 0.13638115, z: -0.06765838, w: -0.033637583}
        tangentMode: 0
      - serializedVersion: 2
        time: 0.40000004
        value: {x: 0.7746431, y: 0.15513459, z: -0.09986902, w: 0.6048864}
        inSlope: {x: -0.079601675, y: -0.14422324, z: 0.069492795, w: 0.14924166}
        outSlope: {x: -0.079601675, y: -0.14422324, z: 0.069492795, w: 0.14924166}
        tangentMode: 0
      - serializedVersion: 2
        time: 0.5
        value: {x: 0.76962125, y: 0.1381309, z: -0.08579899, w: 0.6174476}
        inSlope: {x: 0.0576013, y: 0.05504666, z: 0.11579345, w: -0.068667166}
        outSlope: {x: 0.0576013, y: 0.05504666, z: 0.11579345, w: -0.068667166}
        tangentMode: 0
      - serializedVersion: 2
        time: 0.6
        value: {x: 0.78069985, y: 0.15459791, z: -0.08039669, w: 0.60011965}
        inSlope: {x: 0.07748815, y: 0.027014382, z: -0.038408536, w: -0.112521395}
        outSlope: {x: 0.07748815, y: 0.027014382, z: -0.038408536, w: -0.112521395}
        tangentMode: 0
      - serializedVersion: 2
        time: 0.73333335
        value: {x: 0.78545, y: 0.15409054, z: -0.0931915, w: 0.5921485}
        inSlope: {x: -0.008039454, y: 0.048633397, z: -0.03002044, w: -0.0065517835}
        outSlope: {x: -0.008039454, y: 0.048633397, z: -0.03002044, w: -0.0065517835}
        tangentMode: 0
      - serializedVersion: 2
        time: 0.86666673
        value: {x: 0.7793235, y: 0.14073475, z: -0.083532326, w: 0.6048727}
        inSlope: {x: -0.035464138, y: -0.1639253, z: 0.06102691, w: 0.09338014}
        outSlope: {x: -0.035464138, y: -0.1639253, z: 0.06102691, w: 0.09338014}
        tangentMode: 0
      m_PreInfinity: 2
      m_PostInfinity: 2
      m_RotationOrder: 4
    path: CATRigHub002/CATRigSpine1/CATRigSpine2/CATRigSpine3/CATRigHub003/CATRigRArmCollarbone/CATRigRArm1/CATRigRArm2/CATRigRArmPalm
  - curve:
      serializedVersion: 2
      m_Curve:
      - serializedVersion: 2
        time: 0
        value: {x: -0.48636398, y: -0.29352713, z: 0.016866202, w: 0.8228047}
        inSlope: {x: 0, y: 0, z: 0, w: 0}
        outSlope: {x: 0, y: 0, z: 0, w: 0}
        tangentMode: 0
      - serializedVersion: 2
        time: 0.033333335
        value: {x: -0.48636398, y: -0.29352713, z: 0.016866202, w: 0.8228047}
        inSlope: {x: 0, y: 0, z: 0, w: 0}
        outSlope: {x: 0, y: 0, z: 0, w: 0}
        tangentMode: 0
      m_PreInfinity: 2
      m_PostInfinity: 2
      m_RotationOrder: 4
    path: CATRigHub002/CATRigSpine1/CATRigSpine2/CATRigSpine3/CATRigHub003/CATRigRArmCollarbone/CATRigRArm1/CATRigRArm2/CATRigRArmPalm/CATRigRArmDigit11
  - curve:
      serializedVersion: 2
      m_Curve:
      - serializedVersion: 2
        time: 0
        value: {x: -0.02428955, y: 0.053325303, z: 0.7000203, w: 0.7117149}
        inSlope: {x: 0, y: 0, z: 0, w: 0}
        outSlope: {x: 0, y: 0, z: 0, w: 0}
        tangentMode: 0
      - serializedVersion: 2
        time: 0.033333335
        value: {x: -0.02428955, y: 0.053325303, z: 0.7000203, w: 0.7117149}
        inSlope: {x: 0, y: 0, z: 0, w: 0}
        outSlope: {x: 0, y: 0, z: 0, w: 0}
        tangentMode: 0
      m_PreInfinity: 2
      m_PostInfinity: 2
      m_RotationOrder: 4
    path: CATRigHub002/CATRigSpine1/CATRigSpine2/CATRigSpine3/CATRigHub003/CATRigRArmCollarbone/CATRigRArm1/CATRigRArm2/CATRigRArmPalm/CATRigRArmDigit21
  - curve:
      serializedVersion: 2
      m_Curve:
      - serializedVersion: 2
        time: 0
        value: {x: 0.0023198682, y: 0.09831257, z: 0.88415223, w: 0.456732}
        inSlope: {x: 0, y: 0, z: 0, w: 0}
        outSlope: {x: 0, y: 0, z: 0, w: 0}
        tangentMode: 0
      - serializedVersion: 2
        time: 0.033333335
        value: {x: 0.0023198682, y: 0.09831257, z: 0.88415223, w: 0.456732}
        inSlope: {x: 0, y: 0, z: 0, w: 0}
        outSlope: {x: 0, y: 0, z: 0, w: 0}
        tangentMode: 0
      m_PreInfinity: 2
      m_PostInfinity: 2
      m_RotationOrder: 4
    path: CATRigHub002/CATRigSpine1/CATRigSpine2/CATRigSpine3/CATRigHub003/CATRigRArmCollarbone/CATRigRArm1/CATRigRArm2/CATRigRArmPalm/CATRigRArmDigit21/CATRigRArmDigit22
  - curve:
      serializedVersion: 2
      m_Curve:
      - serializedVersion: 2
        time: 0
        value: {x: -0.022015193, y: 0.049651887, z: 0.65923434, w: 0.7499734}
        inSlope: {x: 0, y: 0, z: 0, w: 0}
        outSlope: {x: 0, y: 0, z: 0, w: 0}
        tangentMode: 0
      - serializedVersion: 2
        time: 0.033333335
        value: {x: -0.022015193, y: 0.049651887, z: 0.65923434, w: 0.7499734}
        inSlope: {x: 0, y: 0, z: 0, w: 0}
        outSlope: {x: 0, y: 0, z: 0, w: 0}
        tangentMode: 0
      m_PreInfinity: 2
      m_PostInfinity: 2
      m_RotationOrder: 4
    path: CATRigHub002/CATRigSpine1/CATRigSpine2/CATRigSpine3/CATRigHub003/CATRigRArmCollarbone/CATRigRArm1/CATRigRArm2/CATRigRArmPalm/CATRigRArmDigit31
  - curve:
      serializedVersion: 2
      m_Curve:
      - serializedVersion: 2
        time: 0
        value: {x: -0.000000020987395, y: 0.08897055, z: 0.806425, w: 0.5846051}
        inSlope: {x: 0, y: 0, z: 0, w: 0}
        outSlope: {x: 0, y: 0, z: 0, w: 0}
        tangentMode: 0
      - serializedVersion: 2
        time: 0.033333335
        value: {x: -0.000000020987395, y: 0.08897055, z: 0.806425, w: 0.5846051}
        inSlope: {x: 0, y: 0, z: 0, w: 0}
        outSlope: {x: 0, y: 0, z: 0, w: 0}
        tangentMode: 0
      m_PreInfinity: 2
      m_PostInfinity: 2
      m_RotationOrder: 4
    path: CATRigHub002/CATRigSpine1/CATRigSpine2/CATRigSpine3/CATRigHub003/CATRigRArmCollarbone/CATRigRArm1/CATRigRArm2/CATRigRArmPalm/CATRigRArmDigit31/CATRigRArmDigit32
  - curve:
      serializedVersion: 2
      m_Curve:
      - serializedVersion: 2
        time: 0
        value: {x: 0.009969496, y: 0.016960412, z: 0.67535067, w: 0.7372343}
        inSlope: {x: 0, y: 0, z: 0, w: 0}
        outSlope: {x: 0, y: 0, z: 0, w: 0}
        tangentMode: 0
      - serializedVersion: 2
        time: 0.033333335
        value: {x: 0.009969496, y: 0.016960412, z: 0.67535067, w: 0.7372343}
        inSlope: {x: 0, y: 0, z: 0, w: 0}
        outSlope: {x: 0, y: 0, z: 0, w: 0}
        tangentMode: 0
      m_PreInfinity: 2
      m_PostInfinity: 2
      m_RotationOrder: 4
    path: CATRigHub002/CATRigSpine1/CATRigSpine2/CATRigSpine3/CATRigHub003/CATRigRArmCollarbone/CATRigRArm1/CATRigRArm2/CATRigRArmPalm/CATRigRArmDigit41
  - curve:
      serializedVersion: 2
      m_Curve:
      - serializedVersion: 2
        time: 0
        value: {x: -0.00000008328094, y: 0.091578625, z: 0.8208543, w: 0.56374776}
        inSlope: {x: 0, y: 0, z: 0, w: 0}
        outSlope: {x: 0, y: 0, z: 0, w: 0}
        tangentMode: 0
      - serializedVersion: 2
        time: 0.033333335
        value: {x: -0.00000008328094, y: 0.091578625, z: 0.8208543, w: 0.56374776}
        inSlope: {x: 0, y: 0, z: 0, w: 0}
        outSlope: {x: 0, y: 0, z: 0, w: 0}
        tangentMode: 0
      m_PreInfinity: 2
      m_PostInfinity: 2
      m_RotationOrder: 4
    path: CATRigHub002/CATRigSpine1/CATRigSpine2/CATRigSpine3/CATRigHub003/CATRigRArmCollarbone/CATRigRArm1/CATRigRArm2/CATRigRArmPalm/CATRigRArmDigit41/CATRigRArmDigit42
  - curve:
      serializedVersion: 2
      m_Curve:
      - serializedVersion: 2
        time: 0
        value: {x: 0.040810265, y: -0.026305553, z: 0.6535299, w: 0.75534177}
        inSlope: {x: 0, y: 0, z: 0, w: 0}
        outSlope: {x: 0, y: 0, z: 0, w: 0}
        tangentMode: 0
      - serializedVersion: 2
        time: 0.033333335
        value: {x: 0.040810265, y: -0.026305553, z: 0.6535299, w: 0.75534177}
        inSlope: {x: 0, y: 0, z: 0, w: 0}
        outSlope: {x: 0, y: 0, z: 0, w: 0}
        tangentMode: 0
      m_PreInfinity: 2
      m_PostInfinity: 2
      m_RotationOrder: 4
    path: CATRigHub002/CATRigSpine1/CATRigSpine2/CATRigSpine3/CATRigHub003/CATRigRArmCollarbone/CATRigRArm1/CATRigRArm2/CATRigRArmPalm/CATRigRArmDigit51
  - curve:
      serializedVersion: 2
      m_Curve:
      - serializedVersion: 2
        time: 0
        value: {x: -0.010352434, y: 0.07148598, z: 0.7800485, w: 0.62153596}
        inSlope: {x: 0, y: 0, z: 0, w: 0}
        outSlope: {x: 0, y: 0, z: 0, w: 0}
        tangentMode: 0
      - serializedVersion: 2
        time: 0.033333335
        value: {x: -0.010352434, y: 0.07148598, z: 0.7800485, w: 0.62153596}
        inSlope: {x: 0, y: 0, z: 0, w: 0}
        outSlope: {x: 0, y: 0, z: 0, w: 0}
        tangentMode: 0
      m_PreInfinity: 2
      m_PostInfinity: 2
      m_RotationOrder: 4
    path: CATRigHub002/CATRigSpine1/CATRigSpine2/CATRigSpine3/CATRigHub003/CATRigRArmCollarbone/CATRigRArm1/CATRigRArm2/CATRigRArmPalm/CATRigRArmDigit51/CATRigRArmDigit52
  - curve:
      serializedVersion: 2
      m_Curve:
      - serializedVersion: 2
        time: 0
        value: {x: 0.02155802, y: 0.07860025, z: -0.24267769, w: 0.9666772}
        inSlope: {x: -0.02718916, y: -0.10916635, z: 0.16054852, w: 0.04908442}
        outSlope: {x: -0.02718916, y: -0.10916635, z: 0.16054852, w: 0.04908442}
        tangentMode: 0
      - serializedVersion: 2
        time: 0.26666668
        value: {x: 0.014918355, y: 0.076839305, z: -0.2524325, w: 0.9644434}
        inSlope: {x: -0.032995574, y: -0.038610402, z: -0.064373024, w: -0.0132375965}
        outSlope: {x: -0.032995574, y: -0.038610402, z: -0.064373024, w: -0.0132375965}
        tangentMode: 0
      - serializedVersion: 2
        time: 0.5
        value: {x: 0.019852998, y: 0.09066636, z: -0.25181988, w: 0.96331316}
        inSlope: {x: 0.045296736, y: 0.13798851, z: -0.041799977, w: -0.024787186}
        outSlope: {x: 0.045296736, y: 0.13798851, z: -0.041799977, w: -0.024787186}
        tangentMode: 0
      - serializedVersion: 2
        time: 0.8000001
        value: {x: 0.022568725, y: 0.0883611, z: -0.2559595, w: 0.9623761}
        inSlope: {x: 0.0028957706, y: -0.13622439, z: 0.17579626, w: 0.058996983}
        outSlope: {x: 0.0028957706, y: -0.13622439, z: 0.17579626, w: 0.058996983}
        tangentMode: 0
      - serializedVersion: 2
        time: 0.86666673
        value: {x: 0.02144584, y: 0.078799, z: -0.24295272, w: 0.96659446}
        inSlope: {x: -0.026110891, y: -0.13701963, z: 0.19414617, w: 0.06159956}
        outSlope: {x: -0.026110891, y: -0.13701963, z: 0.19414617, w: 0.06159956}
        tangentMode: 0
      m_PreInfinity: 2
      m_PostInfinity: 2
      m_RotationOrder: 4
    path: CATRigHub002/CATRigSpine1/CATRigSpine2/CATRigSpine3/CATRigHub003/CATRigSpine11
  - curve:
      serializedVersion: 2
      m_Curve:
      - serializedVersion: 2
        time: 0
        value: {x: 0.006533313, y: 0.081239924, z: -0.06738498, w: 0.99439263}
        inSlope: {x: -0.0063501853, y: -0.11231705, z: 0.16673806, w: 0.019832252}
        outSlope: {x: -0.0063501853, y: -0.11231705, z: 0.16673806, w: 0.019832252}
        tangentMode: 0
      - serializedVersion: 2
        time: 0.26666668
        value: {x: 0.00033883163, y: 0.07827095, z: -0.07738087, w: 0.99392444}
        inSlope: {x: -0.025208516, y: -0.04408982, z: -0.06570195, w: -0.0016111138}
        outSlope: {x: -0.025208516, y: -0.04408982, z: -0.06570195, w: -0.0016111138}
        tangentMode: 0
      - serializedVersion: 2
        time: 0.5
        value: {x: 0.002606769, y: 0.09277574, z: -0.07697826, w: 0.9927035}
        inSlope: {x: 0.018743291, y: 0.14401934, z: -0.04552713, w: -0.016981065}
        outSlope: {x: 0.018743291, y: 0.14401934, z: -0.04552713, w: -0.016981065}
        tangentMode: 0
      - serializedVersion: 2
        time: 0.8000001
        value: {x: 0.005704689, y: 0.09101777, z: -0.08121793, w: 0.99251544}
        inSlope: {x: 0.028273858, y: -0.13329676, z: 0.18345004, w: 0.026880208}
        outSlope: {x: 0.028273858, y: -0.13329676, z: 0.18345004, w: 0.026880208}
        tangentMode: 0
      - serializedVersion: 2
        time: 0.86666673
        value: {x: 0.00638593, y: 0.08141441, z: -0.067669764, w: 0.99435997}
        inSlope: {x: -0.00008514609, y: -0.1394743, z: 0.20201689, w: 0.026190855}
        outSlope: {x: -0.00008514609, y: -0.1394743, z: 0.20201689, w: 0.026190855}
        tangentMode: 0
      m_PreInfinity: 2
      m_PostInfinity: 2
      m_RotationOrder: 4
    path: CATRigHub002/CATRigSpine1/CATRigSpine2/CATRigSpine3/CATRigHub003/CATRigSpine11/CATRigSpine21
  m_CompressedRotationCurves: []
  m_EulerCurves: []
  m_PositionCurves:
  - curve:
      serializedVersion: 2
      m_Curve:
      - serializedVersion: 2
        time: 0
        value: {x: -0.0029318177, y: 0.041409817, z: -0.0009026426}
        inSlope: {x: -0.012553323, y: 0.0030206402, z: -0.03039792}
        outSlope: {x: -0.012553323, y: 0.0030206402, z: -0.03039792}
        tangentMode: 0
      - serializedVersion: 2
        time: 0.06666667
        value: {x: -0.003685224, y: 0.041646715, z: -0.0028758184}
        inSlope: {x: -0.008821893, y: 0.0041083028, z: -0.027094493}
        outSlope: {x: -0.008821893, y: 0.0041084234, z: -0.027094549}
        tangentMode: 0
      - serializedVersion: 2
        time: 0.2
        value: {x: -0.004129387, y: 0.041830517, z: -0.005827158}
        inSlope: {x: 0.00245211, y: -0.0069652013, z: -0.020061197}
        outSlope: {x: 0.00245204, y: -0.006964405, z: -0.020061433}
        tangentMode: 0
      - serializedVersion: 2
        time: 0.36666667
        value: {x: -0.0029419279, y: 0.03885504, z: -0.009833637}
        inSlope: {x: 0.010435097, y: -0.019858075, z: -0.03566936}
        outSlope: {x: 0.010435164, y: -0.019857803, z: -0.03566944}
        tangentMode: 0
      - serializedVersion: 2
        time: 0.46666667
        value: {x: -0.0019612028, y: 0.037837233, z: -0.014402734}
        inSlope: {x: 0.007655838, y: 0.0013462178, z: -0.050939865}
        outSlope: {x: 0.0076558315, y: 0.0013461626, z: -0.05093977}
        tangentMode: 0
      - serializedVersion: 2
        time: 0.56666666
        value: {x: -0.0014686923, y: 0.03878555, z: -0.019106405}
        inSlope: {x: 0.0024871647, y: 0.016551757, z: -0.040705968}
        outSlope: {x: 0.0024871407, y: 0.01655323, z: -0.04070602}
        tangentMode: 0
      - serializedVersion: 2
        time: 0.6333333
        value: {x: -0.0014479867, y: 0.0399448, z: -0.021408463}
        inSlope: {x: -0.002258526, y: 0.015422709, z: -0.028797226}
        outSlope: {x: -0.0022584933, y: 0.015421449, z: -0.028796874}
        tangentMode: 0
      - serializedVersion: 2
        time: 0.73333335
        value: {x: -0.0019271071, y: 0.04099717, z: -0.023893949}
        inSlope: {x: -0.0059411894, y: 0.005838912, z: -0.023638934}
        outSlope: {x: -0.0059412327, y: 0.0058384375, z: -0.023639698}
        tangentMode: 0
      - serializedVersion: 2
        time: 0.8
        value: {x: -0.0023686835, y: 0.04125751, z: -0.02551547}
        inSlope: {x: -0.0077546025, y: 0.0024324395, z: -0.026461782}
        outSlope: {x: -0.007754709, y: 0.0024318444, z: -0.026462346}
        tangentMode: 0
      - serializedVersion: 2
        time: 0.8666667
        value: {x: -0.0029251152, y: 0.04139692, z: -0.02750437}
        inSlope: {x: -0.008301589, y: 0.0023967177, z: -0.03163951}
        outSlope: {x: -0.008301589, y: 0.0023967177, z: -0.03163951}
        tangentMode: 0
      m_PreInfinity: 2
      m_PostInfinity: 2
      m_RotationOrder: 4
    path: CATRigHub002
  m_ScaleCurves:
  - curve:
      serializedVersion: 2
      m_Curve:
      - serializedVersion: 2
        time: 0
        value: {x: 1, y: 1, z: 1}
        inSlope: {x: 0, y: 0, z: 0}
        outSlope: {x: 0, y: 0, z: 0}
        tangentMode: 0
      - serializedVersion: 2
        time: 0.86666673
        value: {x: 1, y: 1, z: 1}
        inSlope: {x: 0, y: 0, z: 0}
        outSlope: {x: 0, y: 0, z: 0}
        tangentMode: 0
      m_PreInfinity: 2
      m_PostInfinity: 2
      m_RotationOrder: 4
    path: CATRigHub002
  m_FloatCurves: []
  m_PPtrCurves: []
  m_SampleRate: 30
  m_WrapMode: 0
  m_Bounds:
    m_Center: {x: 0, y: 0, z: 0}
    m_Extent: {x: 0, y: 0, z: 0}
  m_ClipBindingConstant:
    genericBindings: []
    pptrCurveMapping: []
  m_AnimationClipSettings:
    serializedVersion: 2
    m_AdditiveReferencePoseClip: {fileID: 0}
    m_AdditiveReferencePoseTime: 0
    m_StartTime: 0
    m_StopTime: 0.86666673
    m_OrientationOffsetY: 0
    m_Level: 0
    m_CycleOffset: 0
    m_HasAdditiveReferencePose: 0
    m_LoopTime: 0
    m_LoopBlend: 0
    m_LoopBlendOrientation: 0
    m_LoopBlendPositionY: 0
    m_LoopBlendPositionXZ: 0
    m_KeepOriginalOrientation: 0
    m_KeepOriginalPositionY: 1
    m_KeepOriginalPositionXZ: 0
    m_HeightFromFeet: 0
    m_Mirror: 0
  m_EditorCurves: []
  m_EulerEditorCurves: []
  m_HasGenericRootTransform: 0
  m_HasMotionFloatCurves: 0
  m_GenerateMotionCurves: 0
  m_Events: []
